0, -1653603.168877243, -1884765.6284070825, -1779418.7816501237
1, -1640051.885637788, -1907573.8086112724, -1768487.704325509
2, -1637656.8803293773, -1880620.3536702776, -1766011.3253910283
3, -1635340.6546786972, -1899883.1489267438, -1760580.1378428896
4, -1624399.2988957418, -1867659.1936463155, -1749418.6468353204
5, -1648689.9394346839, -1869672.1027892032, -1752552.536744561
6, -1622892.2499644465, -1863827.5252848635, -1747277.089580404
7, -1630568.8224107032, -1859871.0230942485, -1742759.383356107
8, -1621137.8579664258, -1882078.1206747568, -1745905.224638215
9, -1620621.8674172428, -1866706.5888899872, -1747468.6795311833
10, -1603857.3166728271, -1899975.5270007998, -1747325.4771667987
11, -1607171.2469143867, -1870573.7197725372, -1749404.845520311
12, -1599234.6083133728, -1866532.906195858, -1742387.4536681748
13, -1630391.09484301, -1884222.8513034107, -1742452.3284868554
14, -1624228.5729743887, -1870178.2372395494, -1750421.5335541114
15, -1642085.6900937867, -1883885.5401588092, -1749879.9821212867
16, -1636130.1846814803, -1884348.7440797882, -1751049.6369754085
17, -1635048.0472034626, -1882998.8252372835, -1752838.5411370355
18, -1643556.9618575496, -1887404.1212142748, -1751565.0448417685
19, -1629946.6352752754, -1856207.7050771513, -1749250.9559520315
20, -1619291.7459071882, -1863891.5753544676, -1748388.718964897
21, -1615929.8441924637, -1863796.7402885444, -1749681.7108583683
22, -1637057.9794765818, -1882891.919009983, -1748595.8965878955
23, -1619866.8025198875, -1867305.2520816266, -1747124.3688734502
24, -1632024.778376379, -1882201.4882646492, -1744930.4207562767
25, -1637348.4861756216, -1892054.0726316194, -1752249.3808373837
26, -1627111.3586499735, -1902722.560552185, -1748963.707213806
27, -1608262.430364175, -1902705.7233331967, -1749697.2755207801
28, -1607417.6180609472, -1913154.2207090738, -1740909.9178184092
29, -1615224.2099054924, -1850271.298722037, -1738968.8942544688
30, -1604263.411727812, -1875755.464836774, -1741711.3388462476
31, -1588163.566284332, -1853547.76301459, -1739535.9065922187
32, -1582913.689953065, -1873972.6692774035, -1740470.4023961748
33, -1602761.8126879, -1884795.5905752596, -1740529.1654529844
34, -1608114.5339457477, -1867014.5478768726, -1738280.2867567767
35, -1586432.1621839222, -1884213.1809382597, -1736696.6493964829
36, -1589278.1624574806, -1841080.3475357406, -1739003.6588078672
37, -1579286.6054564891, -1870657.2697359421, -1736721.5092420105
38, -1580967.2734565977, -1872826.163827808, -1731943.3015786998
39, -1601255.594716035, -1869716.6066074139, -1733064.7043258925
40, -1548105.5605058433, -1860046.1603833945, -1736706.7321085867
41, -1571354.4438185734, -1872873.9780127765, -1739411.4771101384
42, -1583542.923531311, -1897443.4354492486, -1746095.4920888701
43, -1596977.035843804, -1862651.3045727275, -1746105.7407029858
44, -1628701.2084516732, -1880269.7160762334, -1745041.301944248
45, -1631723.8094640332, -1882713.1279513258, -1740626.7921605771
46, -1608444.4859218267, -1884480.3665428222, -1733710.5030485124
47, -1610648.7114042875, -1901684.2995397449, -1739355.1162452598
48, -1619767.4784564716, -1867466.491354234, -1736537.438603635
49, -1615268.6521666085, -1833045.781175197, -1740250.1892473393
50, -1618629.9521182557, -1842912.046081745, -1736690.4429777518
51, -1612564.6865531814, -1854686.037846882, -1737379.0722089391
52, -1611858.6188384434, -1862038.716024383, -1734914.519383413
53, -1580402.446350667, -1858413.6117233946, -1736560.4886562105
54, -1619598.7198003288, -1881763.2784560467, -1735945.4262574827
55, -1615156.727285594, -1842625.2813487798, -1739968.0173732357
56, -1604167.7721879187, -1874793.457549795, -1737050.1633965787
57, -1631069.336013919, -1859120.0323436288, -1738905.2700281572
58, -1621438.7937288913, -1849859.5875126962, -1733781.1005473258
59, -1608201.4327803315, -1853192.0452934708, -1736966.6773435387
60, -1617289.622080129, -1886151.8981222026, -1739729.0833492365
61, -1612272.7094943686, -1882330.3208622313, -1741619.4184755648
62, -1596748.6630726962, -1897977.4497311935, -1741533.1931602918
63, -1597424.1064222816, -1862742.6436665538, -1738915.7387961512
64, -1594041.1941075088, -1849720.4037869098, -1738903.7658133013
65, -1589132.848095957, -1849877.7915186584, -1733740.1002605837
66, -1594904.698942895, -1914830.6261613546, -1733775.874653899
67, -1600285.0172667133, -1849485.9944172688, -1740864.7859209375
68, -1572024.9518167428, -1847966.68380864, -1737744.343043972
69, -1622794.7875229171, -1861750.1831712797, -1738018.223149641
70, -1615015.342479433, -1863576.5672313082, -1734088.4104576353
71, -1565190.0073282518, -1862041.2115952834, -1736711.0819208191
72, -1598440.2166553726, -1883482.1581878639, -1738002.5077832937
73, -1631189.6731186933, -1893436.9926429885, -1740905.6800346032
74, -1623026.3219099564, -1857171.2293034028, -1743693.0382751613
75, -1624462.164590873, -1863381.9430910144, -1738646.429544179
76, -1642880.003041714, -1881304.2706732545, -1745300.8405640693
77, -1624073.1165971756, -1881149.98373442, -1747403.2379956914
78, -1579985.9959589685, -1882836.905309415, -1747249.9832117795
79, -1613204.5077986273, -1903855.4764194642, -1744887.4017011567
80, -1607396.4018449706, -1873763.7422280787, -1746779.5371573232
81, -1623488.3999355228, -1850028.1769791013, -1743561.1470100766
82, -1606157.7669794722, -1887400.567946589, -1739079.848431991
83, -1611699.4741836665, -1877871.8731584535, -1737322.9197945748
84, -1577063.0495849396, -1865005.131327808, -1733408.723679245
85, -1611311.283398537, -1849944.0522194905, -1737523.5768665269
86, -1584326.9936281235, -1843409.7917792671, -1735436.5640686532
87, -1606232.6292172386, -1877903.1770427385, -1731303.660569388
88, -1580468.4967794458, -1854089.2343713655, -1729601.3433329444
89, -1591378.6736539644, -1865036.9515734594, -1730286.8745681786
90, -1614737.4162001319, -1885297.7203524858, -1736968.8474482598
91, -1614593.086643028, -1858117.1905456125, -1733129.3717963032
92, -1629758.093774878, -1847176.8992750146, -1743492.3160990558
93, -1626368.262083507, -1855203.1610172451, -1734158.7459310552
94, -1619163.67455249, -1846931.9556905273, -1733923.362928684
95, -1624494.940150375, -1878337.0298614278, -1732759.6863691683
96, -1592665.66642539, -1862661.7604987877, -1736510.43427246
97, -1591481.6778786504, -1879576.131244467, -1735200.7985633896
98, -1575455.4081066868, -1916820.7938198522, -1732391.7375000634
99, -1587764.919514374, -1844276.6993363881, -1737607.3532417258
