0, -2054671.3501979285, -2382007.400843131, -2221259.847208645
1, -2072203.5499544078, -2359381.2182120928, -2206035.6278975937
2, -2032133.7338706683, -2350260.6811439367, -2197699.8901156653
3, -2025609.0641436665, -2377593.298499479, -2201502.1350988825
4, -2027217.0534929838, -2335517.760190111, -2194036.225997168
5, -2022330.5866282275, -2334115.0088501675, -2184236.76823371
6, -1992962.4555298504, -2314915.546609675, -2178661.1295906096
7, -2018359.5113217332, -2341111.4629866467, -2183324.1836534804
8, -2036293.6722223852, -2355794.8101417976, -2186527.022614133
9, -2028700.5992655787, -2307339.0105970916, -2186012.0708918693
10, -1990300.6344716512, -2329818.3206029744, -2176704.99008003
11, -1981823.948822671, -2306269.010573164, -2172603.679838827
12, -2043425.152298967, -2322369.9534026855, -2174811.343546787
13, -2029760.7803904372, -2322740.8047509342, -2170143.0125421234
14, -2035286.2711455505, -2310301.200198524, -2168269.2838659086
15, -1993876.5010288353, -2333113.8294835235, -2164314.9873851393
16, -2003215.2899179673, -2370902.6538038813, -2166028.050341181
17, -2004058.7534895306, -2304830.762378037, -2170301.603042794
18, -1999941.0240266128, -2347920.79960458, -2164018.3863328085
19, -1973394.4691044982, -2368859.0228020707, -2163093.9164747186
20, -1996997.8327066456, -2336026.9357186817, -2167690.2511489172
21, -2022065.324198665, -2312958.9101794004, -2168638.315017498
22, -2010074.422515031, -2304935.0214665, -2173680.8073440455
23, -2034275.2953135953, -2324216.0676966677, -2178950.937275949
24, -1997284.2041349253, -2333241.736603405, -2176079.437575796
25, -2000379.179374903, -2342301.47851864, -2168919.0250969045
26, -1987712.1161560575, -2324609.088494186, -2170846.5517120464
27, -1977063.8038857984, -2326170.8681339473, -2168355.3248851816
28, -1972100.082237476, -2325196.455506835, -2174596.0147604975
29, -1961199.9618968093, -2359563.9679520368, -2172611.0157436896
30, -1993646.3515574983, -2351207.2921777717, -2187655.4099549567
31, -2017462.4679956483, -2327113.328670171, -2178906.1156242066
32, -2041056.5618528253, -2339041.712944519, -2170638.744690071
33, -2007424.0070584444, -2323031.645795443, -2169635.063425358
34, -1994629.6621657708, -2330243.299861071, -2163362.299349184
35, -2007777.209677977, -2335091.950604962, -2168546.736134124
36, -2003901.0676446715, -2303587.876118424, -2165145.127284798
37, -1988399.0896385713, -2339584.647329651, -2164856.103281421
38, -2003557.3659831458, -2300568.425287148, -2162157.515104306
39, -1982720.1240118286, -2291133.591021446, -2161095.164478573
40, -2004743.523324477, -2293862.5592778716, -2161424.218301394
41, -2002071.5591850774, -2383680.8685735096, -2161412.14769309
42, -2028722.8466444942, -2344110.405847945, -2169426.9188044146
43, -1994154.7941286033, -2304789.4394045086, -2166305.203466104
44, -1979529.4052846548, -2347327.625352093, -2158049.642316271
45, -2008393.616372285, -2300786.107509712, -2160455.4836925687
46, -2011107.3062943434, -2301674.30126592, -2159540.488908621
47, -1971762.9842863702, -2340002.169101421, -2161072.5337661863
48, -2003467.395819692, -2324959.502055027, -2155971.6333173392
49, -2021686.9616914783, -2312640.282048632, -2164486.0611095424
50, -2009848.8807956246, -2315111.0989178442, -2167530.291358864
51, -1988746.7208967395, -2296780.625378523, -2162052.647242218
52, -2026828.4956819452, -2317942.167955432, -2165604.989874171
53, -2011406.503441657, -2330197.982318606, -2168206.295390969
54, -2032590.96591502, -2349730.092184662, -2158691.2028682358
55, -2012025.399307401, -2362952.9561491734, -2166289.812943163
56, -2007225.3669071598, -2351978.1370237255, -2174964.85428563
57, -2006714.7044616775, -2348220.0348999756, -2178682.5595073346
58, -2031652.1316876942, -2292892.9571632524, -2172365.821113524
59, -2021174.212771643, -2318644.1540584974, -2173379.1949086976
60, -2017631.997489851, -2350560.018750391, -2172626.200850073
61, -2026378.4109217473, -2371821.798887269, -2183305.047786104
62, -1995287.4416635279, -2356095.7873950023, -2173968.1017674454
63, -2020257.2977611204, -2376234.8282301426, -2172005.4716361645
64, -2018460.7217363338, -2310685.634783479, -2175995.5693040136
65, -2011701.1148834527, -2357359.878576042, -2165800.281869464
66, -2021956.4096609885, -2330756.4779870124, -2160806.383083209
67, -1982398.4033222315, -2339780.258721329, -2166494.5134055046
68, -2015733.5727533433, -2298485.515162503, -2159485.0978414975
69, -1997306.5877376762, -2330084.6305241855, -2158083.1043251087
70, -1994495.3583290502, -2337106.882515792, -2153357.601880626
71, -2005685.6333838599, -2296493.0886529502, -2147418.524309756
72, -1985157.0992707196, -2311072.372996684, -2156176.2110234173
73, -2018265.3636559667, -2314625.7777806995, -2161532.7446293635
74, -1988012.8035438461, -2351500.6768569364, -2162922.166232746
75, -1982581.1861194987, -2332558.8722066907, -2163362.644790524
76, -2001917.952037077, -2328257.4727403815, -2166263.447525514
77, -1994857.3440382048, -2316155.769032988, -2161886.67235783
78, -2008888.169477011, -2342457.242237747, -2156490.229048481
79, -1976359.3004319728, -2385298.878248444, -2153369.855639476
80, -2004478.032312462, -2307872.5489794705, -2152701.4943106384
81, -2029813.6174443006, -2309730.7474543666, -2156304.2312588063
82, -1992366.9918399253, -2338735.2942129388, -2153540.4875002634
83, -2013380.121914052, -2349377.9486394064, -2160007.75210035
84, -2048372.6912675407, -2374283.3668817226, -2164035.57432495
85, -2028600.0406816308, -2318441.2707406417, -2165963.9118444365
86, -2027227.1109077572, -2340817.4502528016, -2173637.6959399534
87, -2025888.204213976, -2351373.519260946, -2177563.2924118056
88, -1898560.5492742131, -2333901.8106329446, -2173545.319856904
89, -1951977.944702277, -2378713.917080621, -2164885.887303518
90, -2003048.9548308402, -2342182.0252504484, -2169698.8707674965
91, -2018312.1780813774, -2321702.525885536, -2164225.313951631
92, -1956076.8643010752, -2383195.26533567, -2163260.8449016325
93, -2001797.8761543338, -2331205.29526091, -2175600.6699943505
94, -2007668.503499996, -2339758.2797841006, -2171025.563122984
95, -2035980.7083647228, -2385385.9887429816, -2179925.0526832785
96, -2006232.7928138236, -2334644.0300546777, -2186726.6184364175
97, -2013755.8283247962, -2355280.890337126, -2175718.934253429
98, -2019845.1058477368, -2323135.320040593, -2182100.824977951
99, -2040536.793406488, -2345484.7146181464, -2176628.5147706103
