0, -1573374.919560293, -1873395.0362327169, -1713176.7485702238
1, -1555351.3766912797, -1816331.1922872164, -1708014.7103175712
2, -1566136.4331385405, -1810360.4343869793, -1693176.1262988485
3, -1563196.3405258409, -1825258.309950036, -1687977.0397207653
4, -1559450.6181670504, -1794652.6707091602, -1680807.608980718
5, -1565146.409033697, -1808237.1467629261, -1681086.0747678753
6, -1544913.4165003933, -1830859.2367269904, -1678579.8449029797
7, -1552921.4293220488, -1816815.7682063351, -1675812.447659364
8, -1562883.2705297011, -1832751.9874723977, -1676605.2782936362
9, -1554332.5263335204, -1801486.1106871716, -1680436.756630153
10, -1579611.0152259348, -1784844.1477409364, -1686082.6737221219
11, -1569117.1332268838, -1813170.9029619996, -1683729.486520152
12, -1556439.9508948305, -1807134.3293346446, -1687254.9954748072
13, -1543405.7242704073, -1813648.3631046307, -1688833.4304362496
14, -1571273.034333858, -1811458.6240579784, -1688131.9579869327
15, -1525398.1429230995, -1861290.8484824495, -1687122.0863676458
16, -1555021.6923049167, -1785321.167135818, -1686019.851416237
17, -1566261.2607689202, -1819074.4475866067, -1685399.9067711346
18, -1554105.3725047957, -1834319.7479574652, -1681455.1881589147
19, -1595390.4265123021, -1807105.7309114095, -1681116.430262363
20, -1571324.8109855796, -1806131.5786226406, -1686893.004203041
21, -1535797.1028850272, -1802230.6063438118, -1689989.2099672416
22, -1500110.8531384878, -1811334.1586665376, -1683700.8170395498
23, -1561469.0285820633, -1819391.9583193297, -1680438.2288827905
24, -1539569.7089617788, -1807937.4221173665, -1677112.859163596
25, -1511891.9049812905, -1812531.814526136, -1675912.7964127704
26, -1547929.0008134665, -1782171.171352671, -1675845.1495772796
27, -1559746.266775863, -1787695.8749176487, -1672075.7960457578
28, -1550583.4828729664, -1823360.4775092, -1671775.3870755935
29, -1550457.901180182, -1786375.3009977904, -1672520.0454330407
30, -1533196.3936333624, -1807807.4958881051, -1665737.9508279029
31, -1544763.2791089043, -1791973.180536352, -1671016.1164172485
32, -1558860.8393655338, -1789256.6379981237, -1670220.6616803862
33, -1553113.365967391, -1807810.7358346488, -1674905.6936892495
34, -1535617.8191862328, -1782942.685291674, -1678426.3686469095
35, -1572636.8991957689, -1784008.5915106288, -1678624.5714651132
36, -1560738.79882505, -1776991.9510897319, -1677959.9849387154
37, -1572504.984560499, -1791148.96159246, -1677859.127171858
38, -1570785.1227064088, -1797957.2545601479, -1678984.6197935084
39, -1523749.5120040171, -1782690.4899786352, -1679398.8144564095
40, -1551701.1556557096, -1769698.1695808796, -1677137.592631024
41, -1518000.7972460138, -1795849.62302979, -1675796.4140383706
42, -1557719.6139935956, -1809171.007857448, -1680286.2420395776
43, -1546067.093122251, -1827526.5260606064, -1680408.402552555
44, -1513655.3031403895, -1805313.2366613173, -1683224.326601143
45, -1464923.0046834857, -1816693.2967910557, -1685764.6563861785
46, -1577748.785481284, -1779207.5453537102, -1681888.565411139
47, -1572493.5597518543, -1805355.6372653022, -1682355.3920754304
48, -1576556.0773791524, -1797078.214980057, -1679463.377164343
49, -1567672.174722269, -1779686.748861764, -1676818.4870599608
50, -1554242.838799162, -1818416.2539621266, -1676197.0152090942
51, -1534162.2442879681, -1804369.7656093584, -1680174.8584637246
52, -1562953.5740064, -1805552.6692987122, -1681485.0907395557
53, -1560482.5511500405, -1792166.8329503154, -1676613.3476357707
54, -1544384.2150608625, -1781958.1484902077, -1665595.5965988673
55, -1549423.5023752186, -1764933.992304523, -1665098.7880461544
56, -1552027.7054734684, -1797580.4501749352, -1667084.3068524532
57, -1541828.6524307458, -1779793.6663327776, -1677705.7721147889
58, -1560596.0393250429, -1807314.6663989876, -1675430.8305143095
59, -1567686.1807587293, -1815772.8377372469, -1678351.5284149572
60, -1551547.515591464, -1834470.3632560885, -1680529.1957292862
61, -1562634.1124685782, -1817606.8059640122, -1682468.9015566218
62, -1554179.50621079, -1796413.8164710165, -1681571.472804172
63, -1587837.7537644047, -1809045.8823871515, -1683219.2337083307
64, -1570716.4959122452, -1789582.2815459357, -1684008.0258882255
65, -1545399.5569713828, -1837636.2872486585, -1683807.5741567549
66, -1549081.3613457913, -1799643.1564353239, -1683332.6965885581
67, -1553637.0773928764, -1818726.8099365267, -1682584.9077829842
68, -1558443.1680892995, -1814630.8302921727, -1684998.0969973088
69, -1558660.8018529797, -1819200.0164745823, -1681651.3100273148
70, -1533712.5739619455, -1830386.6286671301, -1686444.491211208
71, -1552342.6633900267, -1780047.2349718371, -1683323.5967314153
72, -1549147.0761294784, -1796641.9000815554, -1676596.7646717709
73, -1544588.1024971958, -1804628.6470496687, -1671502.770463317
74, -1513833.7685885024, -1794916.898557352, -1669212.3847806887
75, -1539012.104287372, -1778435.0004950343, -1665450.1852133297
76, -1556283.4114456456, -1784163.5342627512, -1663755.6426770869
77, -1543316.3524360156, -1786151.9053076566, -1668430.4339652376
78, -1544308.5364829898, -1772467.7623195373, -1660380.5810560049
79, -1541295.0682889668, -1785268.2440737323, -1655616.9269685044
80, -1541193.1487023192, -1773483.388673026, -1664385.6802824354
81, -1535261.6886182295, -1761167.2194478693, -1666818.2507240835
82, -1518926.1871817976, -1836712.648222451, -1663488.7189553336
83, -1516236.7102335535, -1780099.4364014128, -1666498.1542412457
84, -1543789.5936858868, -1780777.6701260298, -1666796.8478959806
85, -1547825.5007691663, -1807418.0863738623, -1668214.6071083446
86, -1498552.4908982571, -1789127.3705092035, -1672610.9677468902
87, -1573127.4513614597, -1771132.4377325368, -1672965.19711778
88, -1567160.2458987306, -1791119.4465317586, -1678656.566664085
89, -1541431.549871311, -1791747.7052167929, -1673210.8186317368
90, -1525774.9376278874, -1774106.7136796475, -1673544.2887921028
91, -1561714.578376619, -1814712.4052683287, -1672808.5212510463
92, -1556706.4915703773, -1799025.069117174, -1676653.2690978711
93, -1538418.4113144432, -1818010.5042548026, -1674996.3125820588
94, -1528169.3448101731, -1797645.9301530938, -1669675.6645000079
95, -1515594.2318515275, -1800228.8283638237, -1673912.9204898705
96, -1567539.747216735, -1810193.377859287, -1676393.0216785935
97, -1550577.0346789018, -1768256.643697471, -1676382.1436000909
98, -1549804.3730079823, -1791847.836377265, -1674240.6419452615
99, -1553083.0782827637, -1805800.6597027578, -1679723.8748698381
