0, -1671965.5214085488, -1938754.410610883, -1786825.9171536667
1, -1640314.4749649302, -1885059.965151885, -1780227.6713628669
2, -1639059.1365031113, -1869546.367446675, -1768468.405172652
3, -1634021.1772378997, -1874669.2687364174, -1761303.5037821378
4, -1565849.2895919962, -1890377.090801714, -1752878.9370593247
5, -1634480.2142495564, -1865701.2188200336, -1756301.7996684366
6, -1608418.598722645, -1876357.7191964756, -1754856.7951971998
7, -1594135.8215851623, -1874473.6893515908, -1752590.1882710329
8, -1621377.0741255747, -1876039.6276602768, -1750365.046660552
9, -1609011.879241153, -1848002.6440637591, -1749490.0366749214
10, -1599411.088405117, -1869675.140321704, -1740248.3752968186
11, -1604985.892731238, -1875234.8101893202, -1741688.13227052
12, -1613635.223983769, -1876585.3216085103, -1732342.9532830839
13, -1602411.3279443237, -1844604.9421890168, -1731059.4193694252
14, -1602587.5272986586, -1855361.7677840819, -1727866.3600187523
15, -1592813.6574299315, -1850893.891268266, -1733111.5601689974
16, -1569845.8653931948, -1864505.7034447626, -1732976.0366167407
17, -1612351.0917611988, -1855737.6731859548, -1740423.4206657456
18, -1605820.5460805749, -1892906.0013584387, -1736663.1597413574
19, -1615754.4157794428, -1847400.6467535454, -1737966.6244438991
20, -1607974.202207566, -1856873.5122012785, -1735142.684260026
21, -1617041.1709487366, -1841747.9125500661, -1735147.8213889776
22, -1622403.4578328463, -1866677.3440229422, -1736217.7557710134
23, -1627314.6584951102, -1866038.2485918766, -1742928.8189550862
24, -1628249.0368195127, -1897412.0527769588, -1741927.878894873
25, -1612097.3830894984, -1889125.2636037464, -1743132.805354833
26, -1626959.594024383, -1870507.650759154, -1749716.5726038401
27, -1595623.7454778922, -1912852.2093166932, -1740865.4182129297
28, -1637534.6143491142, -1868029.3693606402, -1749763.8457331532
29, -1632840.0432971814, -1856117.7622313863, -1749568.4589839468
30, -1634330.9888735465, -1893344.0986295976, -1740676.9459660484
31, -1634419.9420041798, -1867504.241724315, -1745070.7121145525
32, -1623824.4297851431, -1845695.7574754548, -1743072.9721000849
33, -1603504.2681812248, -1862267.1758122244, -1742354.0089714923
34, -1622444.4264316752, -1892668.536922554, -1750469.5745385194
35, -1628417.3104591155, -1873293.6316166609, -1749705.776541192
36, -1590397.8018584028, -1888537.5574309267, -1738555.313081122
37, -1596815.816596207, -1870361.9939200636, -1737743.9901309507
38, -1596922.113028061, -1871843.4640690265, -1739062.7128434295
39, -1585249.4782274049, -1888168.353893932, -1732474.1144201902
40, -1623617.396830429, -1842709.3182775998, -1733025.6536313677
41, -1591808.256045884, -1870978.511865702, -1731812.569862409
42, -1594796.8093733464, -1850208.885255904, -1730683.661883841
43, -1583876.2587524655, -1877886.7149914857, -1735163.7556557325
44, -1605763.8332319641, -1854594.2543058824, -1737593.5750874665
45, -1598240.5251078964, -1857916.6014691745, -1733762.2185717968
46, -1599240.8078345945, -1860500.8239181805, -1734272.5497623936
47, -1590224.881179276, -1847533.5945836618, -1726738.8626808298
48, -1591871.6676550834, -1858490.7044611135, -1734031.8094780673
49, -1600766.2156515121, -1849106.7561427737, -1732528.2248793622
50, -1560104.9325424149, -1831862.953124022, -1731004.0525971486
51, -1623249.0190004637, -1835018.2391195078, -1728107.8535661525
52, -1609884.2433978093, -1859883.6495373296, -1730438.4180093084
53, -1596365.70720655, -1887004.423093778, -1728504.233408938
54, -1574295.6042763377, -1840743.9700204227, -1728291.1130685292
55, -1601114.9576216014, -1873326.4124443908, -1728700.5862829383
56, -1565954.0936779932, -1870898.2520065652, -1734826.8251879443
57, -1584374.7064230274, -1843510.8463379238, -1734486.960168744
58, -1622177.1614718519, -1874891.2563793194, -1730828.458113122
59, -1593024.528348038, -1873009.3283288274, -1735611.1453239862
60, -1596803.0764064009, -1868490.2208082224, -1735991.9908824998
61, -1593052.8778693213, -1856899.6335957823, -1737643.6002910929
62, -1593300.9252314258, -1861221.2902604835, -1733927.0834260206
63, -1611077.58851507, -1882557.9875173122, -1732776.3346942482
64, -1611153.830541141, -1840919.5198150543, -1738666.6392536322
65, -1641983.494719633, -1845027.269516074, -1736680.9499114929
66, -1608665.1927687912, -1865172.6980136014, -1737937.682765862
67, -1619130.4585340733, -1859645.3474952471, -1735760.6689461423
68, -1608294.5401721299, -1851004.0017699338, -1737144.790444745
69, -1605871.172939943, -1858181.8854324194, -1737704.5047062964
70, -1605176.6507410158, -1855978.239338003, -1739853.9223670817
71, -1601771.3637128803, -1905537.3843110544, -1739401.7589815224
72, -1599318.8789882294, -1873629.728389721, -1734953.2617648102
73, -1602776.1251629433, -1858809.487140817, -1734788.9387471662
74, -1621045.9085550364, -1911022.5915167565, -1737689.849114679
75, -1583352.7107426452, -1861185.8013316211, -1737948.351944276
76, -1610565.5686769297, -1832965.4274614337, -1738863.0198958167
77, -1614070.7450658602, -1877441.1283099232, -1747503.2793000748
78, -1643162.2113291486, -1873692.6855665357, -1750856.2347704892
79, -1642161.910772522, -1856144.5418687682, -1749443.8463794354
80, -1626632.817774027, -1843920.542100998, -1741632.1158745477
81, -1614212.9391849355, -1883032.7207924547, -1740730.1756415882
82, -1627755.2723235849, -1890072.2842085422, -1750590.673574122
83, -1636266.6704820364, -1851859.6550422204, -1746076.8970844867
84, -1632257.8926372891, -1877822.1520281197, -1745445.7602446557
85, -1588027.2145179894, -1857504.2076266375, -1743039.4437322894
86, -1609958.6366457893, -1874977.233183165, -1742735.9150451862
87, -1617615.4786968052, -1842466.5784639162, -1738211.2730974946
88, -1603516.6062835783, -1872734.7476519234, -1735710.8380472423
89, -1614499.6370689205, -1866131.9191479133, -1740754.5413922844
90, -1606834.2246679778, -1860174.0229851971, -1740774.143038703
91, -1620036.9908110676, -1880920.150291643, -1741257.0582715378
92, -1618926.453078974, -1904875.475890128, -1738457.6844093036
93, -1606384.816221578, -1857236.9799051601, -1736418.8646730704
94, -1553016.6238657606, -1857462.623119858, -1741196.206341368
95, -1618058.9845863834, -1871114.4521757206, -1738744.1602339516
96, -1609972.246580964, -1877852.749335968, -1734920.420783235
97, -1610778.6451438942, -1875958.5354665876, -1740744.1827697183
98, -1627807.4661395382, -1878778.396803963, -1745604.2384100528
99, -1594135.481344201, -1879237.3346418412, -1742140.1288181979
