0, -1562937.4405163785, -1846041.6078182822, -1715172.1980661515
1, -1560608.5703218046, -1827930.1339473883, -1705741.0653618749
2, -1563951.4061161408, -1828722.4295166573, -1700764.183898004
3, -1592530.8366733221, -1787863.9351557088, -1693767.057017719
4, -1572370.3383341788, -1803232.165143583, -1685929.7707791624
5, -1549430.9688020134, -1826055.2910033306, -1687436.2115298014
6, -1572395.9406477094, -1821801.580238354, -1684217.3136882898
7, -1582086.9604308978, -1825051.8451025928, -1685026.3723978759
8, -1551093.8084996236, -1810132.6527631744, -1677757.669716327
9, -1537609.5888414455, -1817973.5121437125, -1678846.0459284054
10, -1523939.4911237543, -1793293.905267688, -1680635.4517966225
11, -1573616.2702241235, -1812175.7831792068, -1678368.7120501504
12, -1540164.7342900936, -1828505.1145950323, -1677980.8597592122
13, -1550361.597803841, -1803236.9096652828, -1679397.5949462904
14, -1564309.403471622, -1773477.5038547404, -1680422.1280621844
15, -1551234.5463061938, -1827078.1399831665, -1679163.6570773993
16, -1578179.6777764268, -1798171.2237219964, -1680209.2359656873
17, -1564052.317086207, -1818540.3442896036, -1680003.8066523205
18, -1538602.161675156, -1792963.4521929328, -1677461.8405365082
19, -1530398.1248996323, -1824013.710938531, -1676188.09609651
20, -1540591.2369551184, -1817097.5815007263, -1678575.6542579369
21, -1532348.429958342, -1785576.7022314346, -1683398.8219996486
22, -1548404.0025301352, -1805533.633878183, -1676397.269267076
23, -1530884.2712459213, -1779931.972226793, -1667788.2783240739
24, -1532263.3175820927, -1799523.7295118277, -1666336.846936711
25, -1546126.1247389847, -1808236.029132172, -1662561.6669043102
26, -1538114.889838594, -1783600.150172289, -1666848.5486615247
27, -1527027.3413482537, -1784486.864799174, -1665178.606728198
28, -1548039.265399774, -1784227.936965244, -1663499.392513898
29, -1548669.5238379617, -1788927.1800904055, -1664501.2110556236
30, -1506274.8263872766, -1783717.7508656, -1665163.4049120164
31, -1520359.3023200477, -1788991.252374373, -1658792.6943209441
32, -1540559.8902333209, -1789617.497542649, -1661180.7105622701
33, -1545780.3108780577, -1800089.197347852, -1667562.712905276
34, -1559267.8557636421, -1807999.950270277, -1671045.3530849314
35, -1552479.59833261, -1777435.2235674276, -1670462.629370974
36, -1531686.948451764, -1771294.5343792108, -1665830.152430493
37, -1540693.5794519794, -1770396.1952563897, -1662810.9855912416
38, -1541127.1625660225, -1771115.8670847365, -1659024.3279126778
39, -1523890.2345055374, -1777004.5680085463, -1658206.888394419
40, -1516369.3495115545, -1787656.729838485, -1665091.2674895832
41, -1553418.8571915915, -1784960.0232593156, -1660483.475733964
42, -1560355.5231065515, -1795094.367922998, -1666258.0915049424
43, -1549275.5819950164, -1808185.7495475374, -1665453.9605637891
44, -1538443.4126399402, -1790329.2948065083, -1673987.6105011918
45, -1565977.0548815015, -1810038.8922420428, -1672533.392948725
46, -1531200.2476928907, -1789811.1026927545, -1671535.0640894785
47, -1534846.51976902, -1812339.7360472945, -1667138.9987147474
48, -1502605.3000914778, -1798450.2400633069, -1666478.897492863
49, -1511899.8960905927, -1782025.2719451692, -1667567.8258097789
50, -1550134.0392163969, -1815674.0201221388, -1667120.4622447751
51, -1532918.0404313281, -1772874.783002194, -1669303.3089399335
52, -1511751.2100838872, -1792147.188928049, -1663908.5658747281
53, -1480187.9981689255, -1861406.107925239, -1669096.2498704535
54, -1536251.843599661, -1810707.702959634, -1669772.8140300096
55, -1544715.3771292493, -1781973.9176740935, -1666441.3480920987
56, -1510902.7848656382, -1795161.2603653478, -1664151.8815067855
57, -1525659.2220268473, -1794559.636529487, -1660665.4684554306
58, -1504620.5397769448, -1799724.607894347, -1659274.8450195559
59, -1531215.8594354244, -1762362.8573659705, -1657022.577639458
60, -1522083.1204291363, -1821476.3205207847, -1658617.0634071757
61, -1523772.8240943884, -1773653.1164509328, -1665368.723694178
62, -1542493.5600680958, -1774713.374155413, -1661819.9237847838
63, -1552140.69182515, -1801954.9766781796, -1665519.4985182162
64, -1533062.3826318365, -1826330.6066585747, -1666476.5871043263
65, -1544147.8196223762, -1775703.0071263453, -1669196.4975353256
66, -1554690.396348223, -1805161.4107416035, -1656220.2901518773
67, -1528150.95757562, -1790125.701692178, -1666089.6509421866
68, -1560572.2904457238, -1790881.9352603876, -1671426.3160401646
69, -1567312.012959276, -1779881.011367077, -1668084.22406642
70, -1554726.3417959858, -1805782.814596946, -1667706.3380210684
71, -1528328.8018793624, -1775981.7634022515, -1661770.8554720907
72, -1513361.0492537532, -1823504.4216962866, -1665197.5871696968
73, -1561889.221263082, -1790622.8743403112, -1667910.2502154375
74, -1537216.0964023676, -1815511.9430375947, -1665848.1455188747
75, -1556261.1600778634, -1787387.4320778903, -1668230.1257946042
76, -1566386.9650030343, -1824081.3974380842, -1671293.7091998807
77, -1560760.9639405678, -1806353.9616513643, -1672752.898671403
78, -1528174.4603452003, -1791538.724953021, -1663911.0524476247
79, -1552925.2655992277, -1783948.2743675918, -1667307.7387353582
80, -1551458.680909337, -1802540.0492100688, -1671015.8393428335
81, -1550265.5587914935, -1818839.0150676467, -1676239.1438238383
82, -1550625.2509459143, -1814534.473685123, -1679557.7549253548
83, -1555205.2538425038, -1783025.2327231658, -1673420.0442012213
84, -1566252.962788337, -1804072.2291068272, -1676287.732737853
85, -1577082.3460255803, -1808212.8249391625, -1679675.3637134826
86, -1526083.5381522642, -1769455.312080808, -1670669.2321026467
87, -1571806.119110115, -1794794.6509534265, -1670078.6033797883
88, -1550003.132046626, -1807357.5069987704, -1672166.7624215796
89, -1586783.0518979486, -1793077.156704444, -1679496.3599340606
90, -1574748.3173954138, -1788930.719220194, -1679567.9419335236
91, -1565071.0772298619, -1816501.306666689, -1680684.331832159
92, -1550564.56405402, -1801087.4693137403, -1681113.3681208533
93, -1566735.3308994127, -1803508.3649537247, -1681307.0508281593
94, -1545432.112978698, -1814776.259503325, -1676782.6129883337
95, -1561022.969094964, -1791458.6272114897, -1674237.7075851054
96, -1550910.7565915713, -1782347.0639109649, -1667945.9090351148
97, -1561809.604289964, -1835883.1389168003, -1670979.5120065582
98, -1567782.1883545958, -1777245.4635100197, -1673227.7585459084
99, -1534170.8993555142, -1828388.4230489684, -1667555.2022071385
