0, -1693140.340308643, -2006252.2405925905, -1870280.896986979
1, -1707646.8212347352, -1992472.1198802968, -1846035.9782711037
2, -1676754.389475408, -1951894.3306939453, -1826907.7150746952
3, -1640404.8634052628, -1960755.984262175, -1811013.2525353371
4, -1659854.2295565358, -1940291.362729305, -1802683.553452871
5, -1658122.166012413, -1936923.187648635, -1792129.9799499686
6, -1631022.1866666046, -1999253.7633108757, -1787924.5296291714
7, -1643084.8357245417, -1949801.5737325759, -1784506.8789431162
8, -1647598.1157129065, -1927056.3995780312, -1775021.9507421248
9, -1617838.5477711076, -1941495.8670915775, -1775223.8279180946
10, -1618607.555732093, -1957499.777752149, -1772505.506058481
11, -1608854.77326658, -1955425.5958508817, -1765007.014367519
12, -1606880.7227807967, -1939988.6089606849, -1764295.5773511166
13, -1594948.8588651973, -1901511.3184723272, -1753321.137306477
14, -1601263.0474125019, -1904570.7405290687, -1752920.1924575618
15, -1584253.9831229926, -1902624.888973225, -1745792.162231358
16, -1592417.7799336966, -1926546.760072908, -1740765.6585942816
17, -1614017.3288251373, -1909485.3981822422, -1737551.3038271682
18, -1592405.7463411698, -1892984.7466572784, -1734551.2105021486
19, -1572954.6851745846, -1893073.7471357975, -1730829.3838940973
20, -1570061.1988272911, -1907898.2421134338, -1723962.6186742904
21, -1582969.4747482236, -1898278.0583202406, -1721159.2420378188
22, -1575878.6697631078, -1928915.6824946967, -1717969.2673854132
23, -1585120.4491491292, -1882432.5470073996, -1716360.1565275753
24, -1560257.8081841385, -1897076.5088910786, -1714884.3942038214
25, -1577409.8631391448, -1902076.4199404162, -1716516.1463057087
26, -1552214.476328056, -1905750.9837410678, -1715645.0351273632
27, -1580348.4235460395, -1898519.9202425885, -1714738.9687746463
28, -1526065.147283793, -1872273.7841672786, -1710552.4152189526
29, -1536548.07819943, -1920089.8368481733, -1708085.498094012
30, -1554544.5434342069, -1907574.4060862684, -1706454.1565928552
31, -1552991.8364244353, -1893479.1094280733, -1701838.5765459887
32, -1544262.187850176, -1894772.5100260475, -1700712.18174132
33, -1531095.1350639989, -1866831.5080141393, -1698625.160961703
34, -1548522.0326836398, -1873801.370447082, -1697581.5814911632
35, -1562439.007782821, -1907433.4073740505, -1696817.987867414
36, -1526589.8855983946, -1907323.0264990744, -1695635.0848545043
37, -1513047.4102557346, -1853650.8273311877, -1692452.3285122071
38, -1516609.8032194157, -1855237.1590331872, -1688462.2597320562
39, -1540894.583265157, -1876064.6150329737, -1686421.1199912792
40, -1551886.7227501331, -1867939.3553116461, -1686918.8425233641
41, -1558037.4682865376, -1835530.3387059043, -1688556.4168351097
42, -1526008.571341154, -1863056.9595094468, -1687117.0866212463
43, -1552540.5344832682, -1881070.4817931186, -1684746.0527780056
44, -1543206.4405448276, -1847047.0238857525, -1680353.526262337
45, -1532930.0166683637, -1864464.228413064, -1676146.0912769255
46, -1531136.9575874128, -1851670.6984932227, -1671490.2605617119
47, -1514051.285709196, -1834583.99033798, -1671933.0642342076
48, -1519728.6927142, -1848056.485818232, -1664262.629598558
49, -1510751.9284189232, -1812919.869952999, -1655232.2631021133
50, -1511569.0708639699, -1828919.5821710806, -1647887.3812730545
51, -1494050.6351442821, -1829563.7600977523, -1642766.6962606674
52, -1454383.5232494147, -1806983.1444375496, -1635076.4217387491
53, -1475209.1480226011, -1806681.4319439903, -1626950.22881494
54, -1452052.2227750905, -1800703.0914790863, -1624254.8400776468
55, -1463047.6182607345, -1804034.2621018346, -1620434.3778993846
56, -1481675.2393377742, -1807812.8374531781, -1616828.2646464696
57, -1483463.6805250223, -1748322.9761018152, -1610537.9840121937
58, -1454360.4056674642, -1791462.0669591967, -1606057.145248742
59, -1423857.15582042, -1774204.5748711592, -1599657.3125659113
60, -1463084.5074808262, -1777967.246952571, -1593711.0045770914
61, -1435236.4443123834, -1791352.3102564304, -1587834.4066607673
62, -1448002.4339354495, -1768977.577775647, -1581919.7839102123
63, -1439303.1130757276, -1787149.6907893918, -1576918.6659107981
64, -1404965.8252247418, -1749065.5234939111, -1571415.8538551838
65, -1419499.5980672988, -1731853.0310888807, -1561331.7963912024
66, -1437812.3191551142, -1716111.6365753962, -1556758.766147381
67, -1430858.237319659, -1704806.1380215948, -1555857.2515832793
68, -1419454.391635491, -1719847.2838411941, -1551909.5493836838
69, -1417057.1784470472, -1718729.070097379, -1543939.1294704056
70, -1406600.431369719, -1729774.1112160669, -1542363.7112909146
71, -1383609.4470912567, -1714684.322701077, -1537652.8581293062
72, -1394847.6017734776, -1699471.645366704, -1534741.0429857955
73, -1381696.2467122532, -1674307.170171262, -1534221.6202084702
74, -1383396.7865733518, -1738563.3610545816, -1535687.0682258164
75, -1403064.1748690228, -1766417.3393526957, -1537894.085865595
76, -1403030.7907461035, -1779536.370927121, -1539047.1017891695
77, -1404244.11618674, -1728267.1600403166, -1539359.1377123285
78, -1396932.4980260048, -1690789.9026572162, -1538105.0310838018
79, -1403386.8061752077, -1749049.8949482278, -1535670.0707167767
80, -1403430.8925684178, -1681570.8545871999, -1529785.4800916275
81, -1379179.6308093849, -1714715.5783665776, -1521686.6129819236
82, -1395741.711581279, -1691638.3183454932, -1517934.7784945506
83, -1386854.4716024292, -1673610.9368585823, -1518813.6124898696
84, -1376476.2310305396, -1692150.4535586964, -1518538.2033807673
85, -1390624.8211169457, -1667811.436004915, -1514008.9574031
86, -1363314.858215004, -1705377.5002091117, -1515784.7608170605
87, -1376333.972886089, -1687551.63189532, -1513955.556786049
88, -1372273.9456085362, -1675327.7276060435, -1511091.5891494264
89, -1344424.2889822656, -1664308.34808253, -1509251.9849162344
90, -1354953.5887895008, -1652559.7421832304, -1506044.9339570964
91, -1387154.9110671037, -1675311.216809648, -1507871.3595681149
92, -1383994.7867111906, -1722608.845584421, -1508729.1475625085
93, -1381591.210054437, -1678391.0658615471, -1513311.1633047871
94, -1364537.9807379933, -1684771.0028551242, -1515255.2375110574
95, -1347953.3770738323, -1725436.0250589983, -1516743.404808555
96, -1355681.4514897175, -1702588.9703830858, -1519998.8747357384
97, -1377059.4202797739, -1704894.4644098403, -1524522.8818556499
98, -1397329.2831396426, -1717225.8864548886, -1523412.7069601594
99, -1363485.8648465122, -1704786.2201442095, -1527760.4152259957
