0, -1571892.8790636936, -1777546.5771191637, -1669795.6140098071
1, -1564352.0821452218, -1774533.4883237602, -1662158.0951699687
2, -1552723.6844889058, -1749982.8402430038, -1642669.8945202136
3, -1545497.7708040765, -1735453.2626029742, -1635065.0520860301
4, -1539981.7245181196, -1748240.3031954248, -1629271.3747606287
5, -1537955.7608164933, -1729675.8911820487, -1611383.4716471345
6, -1510790.7731162866, -1702132.0797356209, -1604769.9278184497
7, -1499004.8560639892, -1712340.7771835048, -1587181.480079125
8, -1462237.224436217, -1717410.6227465458, -1564173.7773221328
9, -1459957.5381351337, -1644616.8853397255, -1550945.326922921
10, -1446436.3307283213, -1638858.1447949673, -1534475.9248768527
11, -1437537.358304832, -1625216.107698341, -1519078.3573037006
12, -1426464.8563239926, -1585995.867516796, -1497204.4408772155
13, -1414372.1796609056, -1566946.6730209496, -1480442.6447068683
14, -1408377.5625059863, -1549225.458181135, -1468077.3027058372
15, -1393732.276666912, -1551121.2329584702, -1461868.1572222612
16, -1388346.0484994894, -1576091.2061445233, -1459284.341130522
17, -1384377.8007252866, -1538671.297031358, -1452989.5035707578
18, -1384552.233266197, -1516953.6228887455, -1446109.4772711573
19, -1380143.9394340774, -1502614.3093988204, -1432855.4203905242
20, -1363497.2542169034, -1526817.347024297, -1426996.6774241156
21, -1357521.9950346472, -1494992.6672483508, -1418521.9664906121
22, -1361819.0660442065, -1503671.671473239, -1415852.844030594
23, -1333803.4020367702, -1488631.8797544828, -1411203.110676424
24, -1329954.2578472788, -1477306.021726474, -1404426.659054571
25, -1296060.9121845434, -1484985.3875645828, -1395134.2653120297
26, -1309464.5304632753, -1471266.6203678015, -1381179.821407856
27, -1301627.2984029232, -1464063.2709876082, -1380307.5025476927
28, -1301706.640590415, -1463215.7998583156, -1374441.2521567005
29, -1294165.4843972905, -1456719.8380334696, -1366705.0623044295
30, -1290483.8063040078, -1425677.265832387, -1355083.9319355956
31, -1290958.4918685667, -1433891.5071782959, -1347128.2937380988
32, -1276987.4666787346, -1413734.5187204871, -1338988.6526634106
33, -1249235.6000209271, -1412942.0977572012, -1328224.5382921314
34, -1242069.0644581073, -1373454.2841916848, -1314991.0277901704
35, -1227454.9245329448, -1385843.7698585447, -1304037.582285199
36, -1229256.0842204732, -1406785.2102349792, -1291239.4709727683
37, -1232497.151947179, -1359301.3819341501, -1286719.4849363037
38, -1219005.9925225445, -1361540.252881139, -1277353.7859410387
39, -1204092.219054232, -1369740.1557521683, -1272353.4848042622
40, -1196690.233486875, -1348206.4843969683, -1263397.5590667794
41, -1198282.8367341687, -1344056.565401972, -1255960.765691916
42, -1180956.9248018656, -1327738.7985739338, -1248726.369912696
43, -1177099.264721784, -1322461.1229276813, -1245778.7211604659
44, -1164771.0292609574, -1289784.2682234354, -1237482.9905463017
45, -1170136.4795115553, -1307026.1040814025, -1234029.7181008183
46, -1166567.2912171094, -1287387.4481563326, -1220114.431769271
47, -1167737.4126281245, -1305279.4816026979, -1219637.9053263948
48, -1158010.0416459697, -1301052.4008705497, -1218332.8505051916
49, -1155543.6407735692, -1313855.0079564508, -1220367.656047728
50, -1090449.7708742518, -1286271.6776021486, -1215089.1091566656
51, -1102543.9279458157, -1299153.1483584645, -1211923.5812324395
52, -1105500.4474819133, -1293283.6936054416, -1201286.7632875992
53, -1121724.517273304, -1270658.7358810562, -1179997.99021448
54, -1129971.784934033, -1254803.9661903996, -1175719.1659927114
55, -1125783.2368073135, -1260919.6974938193, -1176042.7932441428
56, -1098009.776514792, -1255913.2892989235, -1174921.768521295
57, -1080368.9622604393, -1226188.5014176648, -1165182.6707843656
58, -1083667.6814127795, -1231875.3445279857, -1151109.0266819636
59, -1083783.58944704, -1275037.5288770872, -1145521.3628558614
60, -1076963.357304606, -1211283.6892597228, -1138318.0578687338
61, -1086720.020381896, -1242101.6093874176, -1134939.1369313567
62, -1089146.1001813163, -1207340.8164626153, -1133516.5535208383
63, -1071949.5206957948, -1180781.067162534, -1126183.1253701819
64, -1062399.7108775985, -1223865.0769386545, -1124427.602892871
65, -1061802.5669428601, -1181518.985472011, -1115385.0310536886
66, -1045758.4437086564, -1180864.7918032205, -1111299.41817011
67, -1045396.4897818766, -1165144.3540272908, -1108536.527348678
68, -1052879.214769312, -1188098.8970148049, -1107311.5805881205
69, -1064847.5356094192, -1243351.9572462905, -1114220.3720315958
70, -1052316.1901813175, -1171000.3925112225, -1114900.4726520493
71, -1047726.3004367328, -1193389.0108206484, -1116599.5972904486
72, -1047150.8880759291, -1168598.304958433, -1109262.204729077
73, -1022930.8841880492, -1163145.0974921582, -1106885.4939374006
74, -1024504.8122231856, -1184332.0343235137, -1105768.7412105484
75, -1047602.2179281937, -1187336.8874661075, -1102722.5781920475
76, -1037553.2665013913, -1184446.3010946964, -1103273.659683999
77, -1024283.4137355818, -1186444.8167487194, -1102750.0167985214
78, -1033214.463210986, -1190521.0592196556, -1099414.156075539
79, -1030433.2524504452, -1174498.4738862205, -1099873.5701244606
80, -1034107.2520685277, -1169868.9701596703, -1098078.9512332678
81, -1034095.9756220209, -1171501.9993636895, -1098048.2295983233
82, -1036550.1067225584, -1184629.977030202, -1098926.517560096
83, -1024678.045155121, -1186484.509002106, -1096691.21513355
84, -1015480.7473630072, -1155005.0098337545, -1082553.7045236884
85, -1016062.5864221142, -1164145.4797983582, -1077656.3465093493
86, -1011352.1639953537, -1135441.3846623471, -1067938.9960235101
87, -1003067.3513084217, -1131348.8842685379, -1070914.5949598975
88, -998048.4712801168, -1154006.8361529624, -1079733.2445006643
89, -1022436.4258753774, -1149378.3252953505, -1079638.805585646
90, -1023992.8458023088, -1216875.6700681953, -1082801.9305774353
91, -1011657.9447382791, -1159055.7803469119, -1085999.0533617616
92, -1033074.0440790385, -1157136.6973349038, -1085351.051814417
93, -1002088.5803543036, -1187853.2985012773, -1085652.1319614195
94, -1022638.311626178, -1169148.4408417807, -1095021.0129457363
95, -999220.8083006924, -1186438.4744975856, -1095071.9244764498
96, -1018222.5599147566, -1192946.2723183262, -1095931.1236623875
97, -1003009.5690644947, -1199836.8800567265, -1098197.4480616322
98, -1009342.9642934415, -1155426.8700162903, -1083853.950285595
99, -1021449.5209103415, -1161540.6707762764, -1080184.5958935795
