0, -1555469.667364586, -1816290.6388924527, -1685636.7759210584
1, -1544416.185351643, -1807401.9054420488, -1662983.8623461416
2, -1539931.2255956598, -1779270.7101663603, -1644781.8662682844
3, -1492459.6961576357, -1756324.3510407712, -1631569.0508344835
4, -1489744.3485137378, -1797357.1811191891, -1619497.9836896718
5, -1483065.350124393, -1745916.313109505, -1612295.247551983
6, -1487401.8826633573, -1740313.701445235, -1605642.164188297
7, -1464902.5672423756, -1768681.5643355018, -1596124.257486237
8, -1467574.7996094285, -1745369.8378981622, -1587562.0453374179
9, -1424225.0548445715, -1757015.586781023, -1578497.7653784647
10, -1455815.821749669, -1731122.429230684, -1579544.4931367654
11, -1427307.6483862654, -1769213.510703736, -1573695.1584601856
12, -1428568.529288034, -1699480.846123475, -1570201.9822495396
13, -1437231.289606391, -1707362.267853092, -1564168.3113444406
14, -1450708.7728041315, -1728457.3437151131, -1561931.4944773999
15, -1413949.5360730456, -1692875.3546532895, -1559240.3714485809
16, -1380930.877849673, -1676796.1300202499, -1549560.537215713
17, -1366616.7590923838, -1686829.3744397615, -1542354.2472806354
18, -1383793.6827892077, -1704021.781734825, -1535091.7018266954
19, -1409971.0318222786, -1684992.268957844, -1529028.8017728499
20, -1360073.6254064075, -1690247.9098001963, -1516585.6317257853
21, -1368472.5358478825, -1668202.368388218, -1506190.1734775286
22, -1334112.3355524733, -1638321.5909473372, -1490795.114066327
23, -1341616.9363469314, -1650225.9005003793, -1476927.0838462678
24, -1336582.4645343095, -1593639.0744347665, -1463552.0368242431
25, -1325677.0515255793, -1593401.3401489763, -1455766.5333515152
26, -1328432.4146353153, -1589878.7218504688, -1447840.5906387067
27, -1329711.82823548, -1580849.5037802986, -1437159.453814323
28, -1327406.0229550558, -1588699.6691067843, -1430406.399371765
29, -1311255.407096215, -1564973.0046414942, -1429092.7971915193
30, -1320406.8325075905, -1563396.4443082784, -1426705.4257651044
31, -1304237.8083264749, -1585148.1042520534, -1424778.9306590315
32, -1310102.0768803349, -1572748.7758107875, -1427003.9623075516
33, -1310591.5059578018, -1583285.913728652, -1423970.2544610943
34, -1303769.344170503, -1559556.5603046927, -1424137.4256034747
35, -1305473.1877200217, -1536160.9455139271, -1417502.5766463752
36, -1300490.424503793, -1579665.962427263, -1414322.9954814739
37, -1303939.1767540318, -1546297.0323635365, -1412385.3263929305
38, -1287628.9855229396, -1579251.1411440328, -1406169.3663085522
39, -1295011.1962724775, -1570193.0147423423, -1403240.123781229
40, -1294855.136257542, -1525013.1441169383, -1397486.1584846599
41, -1264012.2524758426, -1517154.2743791353, -1393957.7854801358
42, -1264043.6143756674, -1537128.3018750416, -1389383.217599051
43, -1240766.5594032146, -1518102.6556020118, -1384021.3318053924
44, -1250266.4787498338, -1511904.9686398734, -1376500.9983432912
45, -1234623.2307900705, -1510643.1197704636, -1377235.4223094308
46, -1248506.0701946293, -1491936.6960472125, -1371409.845846684
47, -1232734.9001498274, -1554638.8590292083, -1361353.2339157949
48, -1234716.8739411626, -1502837.6249669308, -1361851.118997178
49, -1243588.1661163953, -1523599.3804467611, -1359878.4666908989
50, -1241321.0380875198, -1512966.988021612, -1356749.6767444192
51, -1231380.1398363856, -1504777.653872605, -1351693.7502142733
52, -1234219.0619244694, -1498379.1935858177, -1349306.5278061915
53, -1236700.1412671453, -1483838.041850769, -1347327.944189185
54, -1237013.1502461422, -1476129.613082406, -1340643.2992715887
55, -1234874.3897823999, -1453470.7906601552, -1332813.1004153448
56, -1181005.0875733912, -1492756.5909896484, -1332667.4136350174
57, -1198188.0895558374, -1447578.345312064, -1328198.733460075
58, -1190308.638977767, -1457105.5794703558, -1328464.9888614311
59, -1182683.5745441185, -1455460.1825606346, -1326530.9790806952
60, -1201010.6717847907, -1435930.3875164506, -1322626.9017761243
61, -1204128.7073068467, -1479544.882852513, -1314752.3621351672
62, -1191936.8977636101, -1438883.5975467863, -1307507.0769586575
63, -1185228.2278967802, -1454848.2439409897, -1301836.6733893976
64, -1185245.9318659448, -1440902.4039708152, -1298263.2099988605
65, -1184586.8297836576, -1433533.7362012593, -1294063.1546547324
66, -1201714.4498521595, -1439590.0685962772, -1294872.8598186495
67, -1184882.9168353525, -1416965.1393652789, -1294961.9492203943
68, -1181644.0678621, -1422309.9191970157, -1296428.843161554
69, -1191558.7084044423, -1442365.3113007632, -1298558.1178087196
70, -1198999.4762634928, -1450109.0626999002, -1304236.717266551
71, -1198497.4523283248, -1476872.1282461109, -1306655.1111939945
72, -1193703.9452423663, -1443906.0004212405, -1308894.0467967263
73, -1193029.2793227916, -1449460.0481460064, -1309092.0181744942
74, -1173957.785485421, -1467875.5736292696, -1313083.967044395
75, -1156077.487996663, -1484944.6378842345, -1313843.1344781166
76, -1201013.9104112766, -1471596.836112675, -1311626.9643480566
77, -1173045.0052772094, -1435169.8659938297, -1305625.6028122837
78, -1173546.6585498792, -1424254.0144327434, -1303983.345643493
79, -1150590.072188015, -1469560.4279320897, -1300596.2276628178
80, -1155301.358390913, -1480121.7252074424, -1290579.0910741591
81, -1140728.7536176455, -1418958.8937985678, -1282787.1363206063
82, -1143728.7871369459, -1422564.6797923981, -1272980.1680029554
83, -1139201.9003916632, -1389785.260468389, -1265957.0772164268
84, -1131939.0467350783, -1387570.1221251371, -1255460.6894891004
85, -1142911.6841670529, -1377354.8784926406, -1250363.2720927487
86, -1137524.8368491724, -1372770.693361678, -1242956.1214247446
87, -1118019.812716739, -1362704.8468486536, -1236635.1854054073
88, -1117921.128984911, -1344216.5374558535, -1232781.1553494646
89, -1095136.560017111, -1358881.6826666528, -1224221.811328256
90, -1108754.2102000893, -1336560.224287846, -1220721.8069392382
91, -1087201.6689971841, -1335562.2121470717, -1219192.508730216
92, -1094100.3422711063, -1345741.2658408054, -1214634.6513028622
93, -1094231.442030084, -1329444.1443272007, -1210132.697128511
94, -1100728.0498776457, -1347976.5459260673, -1208927.600140048
95, -1082478.7899209375, -1346379.527753658, -1206692.2077768003
96, -1090729.0071546636, -1361852.4028490544, -1202796.2399347057
97, -1082937.6877375406, -1336470.3974595529, -1194698.3571976754
98, -1082226.9463506758, -1306472.0770695747, -1188528.823599214
99, -1099608.3025401623, -1334105.8743697535, -1187177.7922054383
