0, -5226608.212299234, -6029285.641590774, -5634929.687329599
1, -5150032.477235255, -6116760.282710297, -5544192.984140868
2, -5096141.866694521, -6232421.020203096, -5528422.864908641
3, -4980961.976282348, -5968651.579864079, -5444247.547957671
4, -4835233.782777196, -5864445.652052863, -5371146.092345929
5, -4832007.794027077, -5688893.419104271, -5305732.498851558
6, -4673758.338482993, -6027692.476022194, -5250639.494793933
7, -4663162.038835606, -5770372.054063134, -5162056.633417992
8, -4666702.98608646, -5661571.60027875, -5115083.993013508
9, -4625569.507544782, -5719027.805200233, -4991992.008734208
10, -4628146.322894041, -5427027.490624002, -4901710.221773927
11, -4596240.841622017, -5266246.442403369, -4835675.764987442
12, -4511707.178521784, -5388995.787390218, -4831036.302325051
13, -4453836.569848836, -5366326.370892864, -4798817.830551916
14, -4408962.375836984, -5272476.406244374, -4806687.615501956
15, -4363335.3268607585, -5219758.817169237, -4770715.734182648
16, -4369004.337012602, -5200206.889315005, -4726138.877972279
17, -4299265.333910118, -5116639.137160611, -4684525.744221705
18, -4320927.790320607, -5170188.857111468, -4613962.823555629
19, -4343573.951411437, -4922266.48815298, -4575184.012693423
20, -4250494.414506194, -5141107.05861928, -4558732.531486926
21, -4228570.621042602, -5215401.2572415145, -4490591.847795743
22, -4233361.648717639, -4930465.708026496, -4461945.841501669
23, -4158004.1580922306, -4857779.961723266, -4448585.487169048
24, -4114247.1629214734, -5032638.854547566, -4401274.914019864
25, -4043293.0839206325, -4881064.245731453, -4349064.776032306
26, -3914587.0716145756, -4576584.285861393, -4250041.492009916
27, -3913506.37685717, -4683593.4023056375, -4178594.0217484217
28, -3887616.6376442537, -4574563.009074343, -4124152.8106834767
29, -3874119.834965458, -4498949.604213335, -4091189.5326851066
30, -3883735.560551419, -4506822.808809459, -4073550.9033309333
31, -3813106.845654645, -4430329.414207384, -4046320.6101470916
32, -3822125.925880557, -4487019.472738404, -4042768.7687287754
33, -3817489.054451934, -4406498.047179935, -4038412.5034005726
34, -3801549.6614358188, -4540544.617098198, -4027763.1988424915
35, -3736954.876753644, -4339580.059734661, -4012734.1155527467
36, -3729554.5086817215, -4268854.2079239, -3990738.540054647
37, -3731539.0041305474, -4342711.807936429, -3970715.8492364204
38, -3728481.673905512, -4181284.53855778, -3931921.306908925
39, -3653730.279938153, -4239981.9268021565, -3927967.874838206
40, -3569089.424723174, -4211248.930246721, -3930272.263816368
41, -3557287.4614022085, -4393623.193533441, -3895133.9009887762
42, -3584899.3417955237, -4275565.762289345, -3886846.019486255
43, -3582655.7905804524, -4230521.054062003, -3864629.4843652057
44, -3647711.0195481293, -4147059.646343504, -3878244.8717328967
45, -3639081.7472791662, -4240830.147642369, -3885234.3474530308
46, -3578494.3174576876, -4141208.0332347024, -3863477.192686883
47, -3625241.5842705867, -4138213.867135943, -3848868.985495768
48, -3583997.322698626, -4243032.2975830175, -3836933.817066944
49, -3573599.763200982, -4277626.74305809, -3824964.26238291
50, -3567546.9092399604, -4152535.238860583, -3799900.8180776136
51, -3580474.613721524, -4275951.397181826, -3805632.851473166
52, -3534515.7599102743, -4220755.176729767, -3821872.8905630354
53, -3549832.4026213335, -4167691.1476919446, -3804252.2361285673
54, -3545176.539894994, -4227261.130208042, -3797991.859522647
55, -3556465.562532467, -4039734.1096600303, -3751582.8304378022
56, -3551986.3273330578, -4109491.032632948, -3763795.965051682
57, -3498301.6171098696, -4081806.1274727443, -3756135.0713154245
58, -3500731.9692318942, -4238589.663639802, -3734847.1834598724
59, -3464955.40858326, -4319651.559197536, -3713633.4278890295
60, -3472524.951747121, -4126802.3148874594, -3704271.78675718
61, -3478824.525543187, -4144266.35185757, -3681949.4466679757
62, -3417353.7397282664, -4121491.896481869, -3668256.6823321255
63, -3490200.8756803693, -3987679.0792260403, -3669181.8658148516
64, -3457962.1681414763, -4074063.686671718, -3690892.8186491127
65, -3447431.112894835, -3967905.890544137, -3662497.8961045737
66, -3411959.4227562966, -3889434.2899332847, -3648853.0869037556
67, -3376748.3341773185, -3938983.3132676, -3649428.695817464
68, -3431288.30369479, -4051860.087998786, -3650148.4571756353
69, -3384800.5599950515, -4009358.8712595655, -3634142.795816577
70, -3377782.9374434347, -4079545.8780160286, -3611786.479287462
71, -3378592.9573806613, -3998740.3877135003, -3625550.9024027884
72, -3344623.2306694924, -3936653.9119538898, -3618291.906264523
73, -3367334.391966534, -4056943.9540999634, -3595370.7253606785
74, -3330664.6169033325, -3999824.601814146, -3598669.167000845
75, -3194918.631340492, -3938332.378739235, -3578982.7047830764
76, -3179197.132678268, -3960156.8381328015, -3573201.6147033763
77, -3195146.1602651146, -4033887.584797955, -3542985.9692456513
78, -3162453.843083932, -3815707.4308191314, -3435895.973841678
79, -3178274.051639012, -3866144.3700345075, -3435899.169012575
80, -3170265.6192398467, -3760174.0300699184, -3398532.8169838283
81, -3179141.508053856, -3651218.3483965104, -3369950.907848997
82, -3157414.16645077, -3621869.641885355, -3330648.0669258465
83, -3165285.846566437, -3681108.0058877165, -3341435.1076317304
84, -3182711.0685884226, -3591158.8914933805, -3330420.27269065
85, -3176873.8810307817, -3675126.3513773074, -3337272.01348815
86, -3193965.3803552156, -3675674.1218501884, -3347854.5859809197
87, -3199453.4135572216, -4015769.214375548, -3364742.927777454
88, -3191235.245180163, -3635177.3033801834, -3350187.148912815
89, -3196433.1930721565, -3748812.658769041, -3360273.5912940805
90, -3187866.3017051187, -3796452.692293522, -3368168.9020337095
91, -3196202.81329718, -3692880.1388909426, -3373968.9395691645
92, -3124860.3389538466, -3712521.611280608, -3354186.6384694534
93, -3124860.3389538466, -3604530.9603543887, -3342576.0294489544
94, -3141229.452155914, -3637602.48187789, -3354204.372037728
95, -3144629.0195760955, -3723263.324038391, -3370849.586052926
96, -3127282.5970980497, -3676386.9012348754, -3355801.002632384
97, -3159673.470317203, -3615303.164709181, -3365853.90390028
98, -3166701.1988627277, -3651941.081044074, -3346124.1051809494
99, -3171712.9094558866, -3636144.3878363674, -3342321.703501288
