0, -1692988.6541346684, -2030255.2998495456, -1874144.9836918954
1, -1720115.8934122473, -2005970.6581561067, -1844801.2232443537
2, -1691437.585905825, -1972265.853842915, -1825421.6970660659
3, -1674412.5961729928, -1974467.310862848, -1812897.4909087857
4, -1672871.526770848, -1954536.0306149377, -1804318.992447619
5, -1652473.442361624, -1962836.769166818, -1796100.8622416256
6, -1668226.574710674, -1957295.9859862318, -1793827.093154812
7, -1619409.7690252347, -1975007.8079433078, -1786412.2834103706
8, -1637632.6096250557, -1946809.1658220356, -1779242.5176507402
9, -1622182.4245481652, -1944520.8822252085, -1772939.4628212852
10, -1587323.512493482, -1974513.1823571208, -1766536.6954521749
11, -1587550.0497290345, -1909037.7865008619, -1764274.7493124828
12, -1623233.1507040756, -1923488.5981646352, -1760942.8037132449
13, -1611811.5596937237, -1940475.8097596467, -1754078.5582952164
14, -1618172.1023562637, -1915777.4182032566, -1751534.272926466
15, -1595118.862170366, -1942847.2675099797, -1752419.1046080021
16, -1560986.3868636638, -1912511.678378594, -1748624.5806256628
17, -1602810.2736397637, -1930226.091802413, -1747327.0186570836
18, -1603317.6440561633, -1907648.699296353, -1747571.12100678
19, -1577430.501457685, -1926651.475203663, -1742750.025937045
20, -1592146.8345866373, -1910888.1909946618, -1742661.5423310823
21, -1557235.3772453575, -1907311.7321731164, -1738129.607846185
22, -1567240.1075171414, -1921493.6833795775, -1732192.4093465784
23, -1558508.8090242527, -1927210.205526298, -1724741.0881520621
24, -1523335.5132223656, -1871065.3757035164, -1716674.1471559177
25, -1542840.020193424, -1905719.531664027, -1711414.750677804
26, -1519038.5290096935, -1867068.7614439176, -1706931.9086077546
27, -1555673.3282123904, -1868413.1417936091, -1705380.3019398989
28, -1556649.2616664197, -1874562.9826175072, -1705073.568638829
29, -1534656.746640009, -1882240.1439007008, -1698691.8080432918
30, -1556389.0805942318, -1866511.871473744, -1694393.8160509053
31, -1542648.5841943617, -1858431.435293944, -1690289.2756872105
32, -1525870.1681336658, -1890360.8136753715, -1681719.4418481265
33, -1527719.7486891109, -1845924.0070459764, -1677359.792628629
34, -1530274.1965518391, -1859955.9455242688, -1675162.4265759077
35, -1532743.601068851, -1883197.9872127352, -1672694.8110380403
36, -1527845.2642692649, -1842089.140644433, -1672149.3761418436
37, -1524895.6735989924, -1887221.498170577, -1671927.5867312702
38, -1534966.4523993651, -1836340.591711605, -1670605.6894550344
39, -1511327.101861716, -1858337.0732525806, -1669139.7797380877
40, -1510882.9682437829, -1832780.2389161661, -1664620.9413557504
41, -1508663.9137623345, -1838830.7804362178, -1661579.2330559618
42, -1479772.016517782, -1832363.2715101345, -1652896.8818841747
43, -1489933.1828843972, -1841722.5696634077, -1650283.0381404124
44, -1501978.8855685252, -1817450.1956601134, -1646472.0223548347
45, -1487387.094428714, -1804607.1976088425, -1639784.0168690681
46, -1501315.3698136485, -1858567.660282521, -1641466.9111116698
47, -1496524.9983829432, -1808580.7143299468, -1637070.6510515884
48, -1479479.8903014557, -1785871.9593647257, -1634888.838967914
49, -1482985.898676369, -1819838.277481608, -1634338.6350848475
50, -1494782.8255992658, -1784320.2928174133, -1628342.5766061563
51, -1459773.4668645025, -1810546.782919425, -1629345.5905793814
52, -1445676.4760291697, -1821716.1415946055, -1625287.7795148504
53, -1476903.3255602883, -1768948.1897644778, -1618461.818775702
54, -1492067.8998537865, -1792581.5132141183, -1621513.8117845869
55, -1477394.3441899174, -1814074.5434654327, -1622061.467480288
56, -1459200.69634747, -1815265.5812069005, -1620705.8784546978
57, -1454810.1621734174, -1781512.6624409002, -1618863.9465103603
58, -1458444.2369302372, -1807126.183360774, -1617420.7891126962
59, -1454361.139565518, -1782556.4978482523, -1609350.6721597752
60, -1455764.9417488114, -1805119.1092955256, -1610421.8997622398
61, -1448431.7998537295, -1818597.7712728856, -1608820.086142928
62, -1468179.2433012389, -1836421.6892520054, -1611722.0979291382
63, -1454993.6493274109, -1806181.2566149994, -1608753.5968585466
64, -1442321.4596615317, -1819088.8253404042, -1606431.548422995
65, -1435496.6391358858, -1798225.6641460825, -1608060.623075534
66, -1447593.858312755, -1809839.785013061, -1609999.4212917972
67, -1455877.5114787437, -1781017.1505362447, -1605690.662939764
68, -1436088.1042470052, -1803294.2401353554, -1602558.8501527885
69, -1408240.5248105575, -1802267.5511840875, -1596674.3156214943
70, -1408282.3177811806, -1759409.7566238604, -1586775.1458630261
71, -1405990.328200475, -1772250.874528634, -1578467.9122243982
72, -1414395.565591229, -1795727.0034533516, -1565443.7066426836
73, -1430835.8617081668, -1749806.8387688869, -1557967.1214535113
74, -1403325.7874375216, -1742605.8499380453, -1549399.7239558445
75, -1425752.5825091808, -1706931.8329422711, -1540808.1444374286
76, -1407116.6025427664, -1689303.7036414198, -1535620.9184271963
77, -1387076.142920043, -1690851.3451539355, -1530424.249981998
78, -1383983.8411484314, -1690688.8159587195, -1523876.515125939
79, -1365098.085693291, -1687420.5834453492, -1514482.9271590004
80, -1379236.1091830514, -1691154.3069772935, -1510762.7733395796
81, -1391741.2887028053, -1684515.3257121851, -1509089.5335890332
82, -1373382.717334862, -1671987.7321436056, -1510381.818650085
83, -1384590.6700718747, -1678818.654359336, -1512815.0693977007
84, -1378241.36885824, -1703265.0644648909, -1511920.0549166796
85, -1362999.430343726, -1708153.3438748196, -1507149.469491898
86, -1367877.1764828723, -1669722.447131927, -1511458.4542998888
87, -1374386.039246844, -1662832.2508688143, -1508872.9080755147
88, -1377901.6397758524, -1670008.3193846731, -1504222.9590109114
89, -1372003.7653843458, -1670987.6154787254, -1503958.575064881
90, -1367830.00229216, -1679604.0358046617, -1506586.641441512
91, -1357111.7890755893, -1679742.221611389, -1507404.7821011697
92, -1351237.049941639, -1695692.3960415048, -1511833.8157871692
93, -1354214.8953477533, -1688361.4417016993, -1509551.116054525
94, -1358234.3883713705, -1695829.2616969533, -1512137.7220464924
95, -1374369.881181588, -1669434.7440811913, -1517583.2197376706
96, -1375749.2991029855, -1671232.8292305693, -1518802.3300353226
97, -1390294.6334555713, -1671824.6466991217, -1524232.1789346961
98, -1358006.3280180134, -1714478.9473441695, -1527348.585507545
99, -1387853.731990067, -1698500.3750845785, -1527967.5626107606
