0, -1726439.848312893, -2014568.3942586817, -1871480.0309467826
1, -1706471.798396774, -2007457.6297374107, -1843688.879809088
2, -1700907.7970914613, -1969679.2691978654, -1827893.388770214
3, -1686933.7045529175, -1950062.5891889068, -1812562.3449752016
4, -1666268.5417463407, -1953435.3835456707, -1805787.5709424277
5, -1650450.2316533257, -1966384.2121612555, -1798626.1659382165
6, -1627847.1549398082, -1948195.2956180507, -1787130.1375029073
7, -1626940.872940355, -1948006.011787346, -1780572.013071556
8, -1606644.3997216017, -1929914.6825777674, -1771163.1588263249
9, -1583299.5187629384, -1935629.134354006, -1759697.4893159803
10, -1595942.6160818455, -1923273.961526303, -1749333.9543601922
11, -1602117.1187793484, -1904791.7885349505, -1741039.2881566104
12, -1556780.8368394289, -1874579.0272933366, -1732039.8062434655
13, -1580821.0579894101, -1890658.8269142364, -1725999.661392925
14, -1560425.9327376806, -1885432.29746866, -1720022.2714983188
15, -1577908.3124098235, -1877413.2505551595, -1716860.056799979
16, -1567581.323327826, -1892222.9575759852, -1713808.6077379575
17, -1554961.1378726547, -1888145.5917723528, -1705962.2119057907
18, -1574760.8883788616, -1882888.7351880316, -1703006.281787526
19, -1550908.4473811318, -1875881.1052417066, -1700522.4484707264
20, -1566817.7546715725, -1857026.3848546855, -1697080.5085637325
21, -1540257.976400531, -1867384.508540453, -1698702.3934050521
22, -1532244.180667206, -1852780.246703079, -1691646.6280198582
23, -1546205.8054401507, -1847405.1058556112, -1690525.4386383167
24, -1540703.141691679, -1900401.1182307522, -1688840.1442784383
25, -1537155.9992251275, -1861535.0305867633, -1685913.4993493815
26, -1538391.6243331952, -1870926.2162286495, -1682898.4430420042
27, -1541499.5106707527, -1858112.493224678, -1676760.0654023632
28, -1526557.0386654064, -1837829.272826165, -1673672.3602699
29, -1534500.0443484618, -1861459.1852054629, -1672709.340254638
30, -1504698.5301469034, -1844993.9232107964, -1667257.0281380992
31, -1501573.8607491644, -1851030.0175050441, -1665939.2722484164
32, -1504512.2952463413, -1828887.4877750599, -1657946.1993655793
33, -1510018.4183763196, -1855945.6172408154, -1657179.568601269
34, -1482986.4342790216, -1860351.6465002927, -1655656.0525756066
35, -1493871.0388167729, -1831771.511836145, -1652775.6931771303
36, -1482053.9478331637, -1798919.1203840435, -1650969.6169362646
37, -1466666.5403452811, -1801246.1046754662, -1649089.4662419898
38, -1483248.0682328034, -1815269.988317314, -1646646.1202011763
39, -1497245.4514375832, -1862229.4337655646, -1643752.4868542175
40, -1505174.6144412397, -1813680.3239318859, -1636540.2630324443
41, -1490970.0022244854, -1808495.0463640676, -1634586.4162541644
42, -1486508.017451546, -1820903.7107577422, -1632935.3324133966
43, -1452538.0725387176, -1837891.845307705, -1631075.9410664116
44, -1496947.2042170078, -1817324.7423148425, -1633245.1204191633
45, -1466553.019239445, -1815395.1746009914, -1626950.9644464627
46, -1461385.1439864037, -1792023.6148032784, -1622756.1537131204
47, -1480813.3348731063, -1808487.4297327297, -1614769.622361838
48, -1473579.8698486863, -1785591.0412178137, -1608049.6943599696
49, -1463731.7243296436, -1872853.117942609, -1606069.6369192435
50, -1468706.8471633175, -1783464.1483503417, -1605296.3335060244
51, -1474769.61378269, -1767005.2446172903, -1604776.874444846
52, -1446946.3514039654, -1751312.8349170797, -1603885.6826227102
53, -1441470.3356877204, -1757799.378817474, -1602242.578581856
54, -1443285.38524819, -1802076.089898449, -1596675.613936957
55, -1442677.2831932707, -1775989.0112262554, -1590728.0651699807
56, -1450261.4889678047, -1752176.476238023, -1587147.0103174306
57, -1458805.701968937, -1769764.0898600416, -1587410.4512670697
58, -1423659.8780125065, -1756869.7604234568, -1585478.1973587624
59, -1438847.4761659692, -1771742.9040415771, -1585713.027335844
60, -1441020.8073696778, -1757801.969414719, -1582524.6015692013
61, -1412632.9337042659, -1752944.0616536415, -1580734.5666525774
62, -1411203.3627229852, -1747627.8000188223, -1583781.6594346603
63, -1430133.0743128043, -1813528.7029104796, -1582456.460667482
64, -1432662.7937072243, -1743285.8529641004, -1580683.7398139294
65, -1407629.5126423864, -1796919.4740132997, -1576672.090062477
66, -1391248.657480269, -1772858.8670004052, -1567722.6215056367
67, -1391596.9151703087, -1718980.5032422068, -1559985.3032362442
68, -1403341.0284862982, -1729659.0472040218, -1556839.7802028619
69, -1394598.4774745214, -1768350.5287816785, -1549415.9602078467
70, -1367926.7931047445, -1754100.7776110745, -1542823.7097834812
71, -1394213.2818483128, -1723705.2509663515, -1536650.3725097615
72, -1403600.218592841, -1680782.6533494797, -1531596.7764153276
73, -1396333.1608995455, -1708036.0523287607, -1530324.6048630518
74, -1388146.1047078099, -1704828.2409488899, -1524630.3222647985
75, -1394853.4422884316, -1698364.5595391637, -1520879.081840924
76, -1393421.847833222, -1682321.9660050063, -1519397.9302972562
77, -1383165.187481549, -1684960.593358134, -1520161.7207750492
78, -1361960.374679702, -1684218.0555030643, -1517343.7304879706
79, -1368406.6320327658, -1732405.3002789207, -1515868.6350050126
80, -1371939.8584981961, -1694229.6136808845, -1513093.1994382604
81, -1344726.6203925957, -1698388.2362617922, -1509053.6965736279
82, -1362652.6930437668, -1740454.0362470374, -1504229.4124099375
83, -1331754.0245688567, -1679752.4514376118, -1498375.069234393
84, -1339897.2120160211, -1693861.7929485242, -1493121.5486044365
85, -1318902.3842559813, -1683404.9210212168, -1489869.393103393
86, -1326967.8278766782, -1643590.2239212678, -1486180.5555010804
87, -1333554.804185599, -1675605.8052894827, -1483383.7305299186
88, -1320796.6143540405, -1662248.1285187507, -1481978.0537897025
89, -1336901.6747444598, -1631654.858176665, -1482559.077695962
90, -1347797.7034902626, -1652817.9435453508, -1482327.9013099838
91, -1353879.0374693116, -1639265.5850333718, -1482902.6343706914
92, -1350112.0440981532, -1654698.6379553513, -1483993.809213531
93, -1329232.6271712254, -1648228.1399441329, -1485868.2033551566
94, -1308359.917418554, -1632252.866800813, -1484950.9892626954
95, -1305923.559453548, -1680201.7458600695, -1484166.4527580624
96, -1310150.3822876024, -1671141.9523277746, -1482015.4214341904
97, -1331764.8895042245, -1676214.3763546874, -1480040.8597299708
98, -1320689.299643876, -1684194.8215881365, -1480372.5751756313
99, -1343727.0277619022, -1649927.7730667226, -1483711.3362636622
