0, -5021821.521080838, -6270046.791476036, -5616176.015045877
1, -4846486.898308727, -6186509.037192428, -5535207.686411813
2, -4784516.8162061935, -6027357.842615163, -5429591.363180656
3, -4780730.225822723, -6031626.316280636, -5351933.671378943
4, -4709335.958498228, -5982518.940159815, -5318215.593003793
5, -4631776.893580239, -6004541.477678769, -5297596.056913004
6, -4696593.815971469, -5843133.939199641, -5250703.86317121
7, -4601823.529313161, -5837279.164794798, -5206090.683814646
8, -4618585.462945353, -5799379.7755717235, -5161888.429026258
9, -4635303.272268274, -5695607.300992187, -5125605.207432065
10, -4543651.388965234, -5746007.091477606, -5075236.379708277
11, -4453883.040015662, -6110449.744295898, -5047128.734664823
12, -4590443.186770029, -5821001.0168337915, -5079603.483810228
13, -4582185.0731007755, -5760723.630733836, -5053229.017749844
14, -4468084.125285746, -5702590.726836721, -5059935.560701818
15, -4483965.846422197, -5664906.305323189, -5001380.873431659
16, -4400654.365887015, -5607618.692609341, -4986086.384337021
17, -4390602.691018803, -5919835.011637908, -4944711.965245626
18, -4436581.206727642, -5564690.709861327, -4855856.892936914
19, -4364374.414451972, -5408657.781439963, -4799310.265841343
20, -4326062.701419529, -5362600.744864222, -4700250.085292925
21, -4344656.50747509, -5186428.70636579, -4593929.048916099
22, -4136475.3311929405, -5064383.757929894, -4537621.624099153
23, -4129495.8455788307, -4932690.853748238, -4465485.6838631965
24, -4099316.668633422, -4925870.688167835, -4396657.146072557
25, -4004259.8062772946, -4853731.205352195, -4333738.329082436
26, -4001021.733707659, -4724205.863131689, -4286951.405895985
27, -3922799.700900986, -4577915.964741075, -4241635.408008484
28, -3907943.010809331, -4750798.908694244, -4227635.482914529
29, -3886607.345459315, -4536558.043887206, -4183123.9902711073
30, -3780227.12715828, -4692301.348387348, -4148280.898528035
31, -3799581.845382522, -4537189.72623144, -4092210.6751237763
32, -3799134.5628448897, -4524223.70781198, -4067168.233499929
33, -3780163.935609523, -4408078.006833213, -4053437.8106875746
34, -3745308.321375772, -4502467.370818056, -4010511.8340544067
35, -3676866.933839032, -4338326.546330763, -3984448.823858706
36, -3709497.172170728, -4391479.676897433, -3970287.942730982
37, -3596452.608293477, -4381138.029149735, -3971012.114020475
38, -3565692.6158063733, -4507230.231038236, -3986164.655760038
39, -3666913.117056561, -4514409.645382409, -3992946.662942497
40, -3654240.6251523998, -4600775.359510051, -3997355.643735673
41, -3572610.7100808523, -4514532.153249229, -3960454.728295121
42, -3619552.6131993765, -4569208.482942713, -3931939.8508554334
43, -3537722.9616520563, -4418299.512802409, -3960921.2306450633
44, -3552244.5911206673, -4464727.228254995, -3936708.8791263914
45, -3550115.18080682, -4387308.88275603, -3946640.4399543717
46, -3548637.0953330547, -4435092.703628591, -3951607.9774758453
47, -3569722.7843260383, -4534541.47589451, -3946513.8842865136
48, -3558682.1992998766, -4383796.081036297, -3943773.037503187
49, -3596825.6494897613, -4352039.070541547, -3925523.2180970716
50, -3625173.100496733, -4365513.238883188, -3925079.5758438427
51, -3558053.880776183, -4519554.133273613, -3921115.1647114763
52, -3558244.4600280286, -4423589.636207302, -3921977.291179369
53, -3530857.396153918, -4391530.9686634075, -3905667.2116221916
54, -3570117.107664051, -4361357.513459131, -3891912.9119998678
55, -3615888.307892178, -4445698.921663417, -3913349.234556991
56, -3607447.583518636, -4403527.156934327, -3918386.087606008
57, -3580386.7175006093, -4432726.901927868, -3893502.3982991083
58, -3599801.022094534, -4315230.810977055, -3856654.813090571
59, -3588404.1585982996, -4364814.843312838, -3864030.513325638
60, -3567762.500109275, -4393794.274644721, -3842218.8213903178
61, -3535555.1292053717, -4513242.988426067, -3842118.925799834
62, -3504921.359542284, -4316896.948237727, -3862135.8116920423
63, -3515840.9240593, -4361253.890475274, -3842640.6277259043
64, -3544897.783220911, -4377944.9365796745, -3838446.008121568
65, -3551924.5580475777, -4391743.662174404, -3844998.7088105595
66, -3553192.6919941725, -4252619.132251131, -3824850.668075965
67, -3546421.2724972256, -4680205.181276625, -3873526.7864764375
68, -3475032.2763521043, -4404059.384768705, -3859423.5107851936
69, -3455761.7546825204, -4340411.780976878, -3853032.1648300886
70, -3482234.1510051587, -4424743.300079121, -3868330.1970035783
71, -3475283.967906621, -4741616.790978679, -3833622.4700383665
72, -3432627.18810561, -4548514.417775736, -3846672.2959751072
73, -3462957.989041864, -4381369.071241979, -3813443.0468031475
74, -3483937.0130322557, -4299432.413592736, -3787153.3518705675
75, -3419579.704894068, -4169055.4791287864, -3763044.022644951
76, -3387534.202690235, -4318090.365893913, -3749037.0233503967
77, -3369763.711031733, -4300461.854691082, -3731743.8886327697
78, -3373589.205897335, -4462636.343899622, -3707411.4989412907
79, -3402165.910795954, -4190882.289754241, -3711187.6821350334
80, -3412866.2509491052, -4180811.7253378695, -3706051.458531166
81, -3355977.199270009, -4160166.142690018, -3688921.8899217537
82, -3344861.9064077525, -4306283.069597495, -3715508.011043503
83, -3336760.1578917783, -4282291.720089991, -3728249.6748421285
84, -3365158.533499521, -4207721.042576656, -3717262.1968779867
85, -3395559.8678898583, -4204178.083665149, -3705738.3216328905
86, -3405591.8179429923, -4302642.0267764395, -3767014.1702200864
87, -3399750.715099038, -4373145.549657297, -3778347.8736077505
88, -3446305.36097339, -4458103.235243342, -3785584.141861963
89, -3433157.0910978676, -4227164.372952779, -3782610.2892476195
90, -3367277.0189587423, -4266573.38435501, -3814999.066168863
91, -3412747.1947769453, -4267350.415547406, -3791784.084190714
92, -3438785.5863962206, -4382041.811837669, -3775188.7247883044
93, -3467412.201278651, -4385528.033628017, -3766120.764791283
94, -3438180.1092178235, -4336172.164998904, -3736939.6332607833
95, -3299062.412599562, -4205846.047986422, -3715552.451613805
96, -3299993.2184820147, -4250748.0048160115, -3702751.9649251956
97, -3235529.4192505744, -4070144.704265101, -3681204.7035749275
98, -3294531.188497077, -4381842.532684186, -3681101.1518624374
99, -3282597.4915929637, -4215392.096453085, -3658622.6796700507
100, -3226031.85343648, -4061318.325680498, -3608040.4133950653
101, -3185391.2800314985, -3922232.247066836, -3550930.869659597
102, -3229012.6726936433, -3931408.949214233, -3533774.6500000693
103, -3136304.937070362, -4106957.806617569, -3534967.941823571
104, -3218543.9908860964, -3955834.365294275, -3538526.3731191517
105, -3228367.8466114653, -4029352.7948930804, -3535022.9049170436
106, -3192518.737294478, -3919168.3294607783, -3553479.0511513837
107, -3179648.1074028863, -3960637.027597634, -3558602.939112631
108, -3234685.434099628, -4088089.1403182726, -3589712.754570378
109, -3237473.695516939, -3994611.104818356, -3583022.2057659235
110, -3298200.535851007, -4117458.308268697, -3629815.956598936
111, -3282192.8563954877, -4125256.512750577, -3625010.9163845195
112, -3239782.558727344, -4190912.6532114185, -3644715.9180345787
113, -3257403.3626842294, -4170901.992883795, -3654039.7747563496
114, -3303654.9087414015, -4240849.892502645, -3657211.7058837833
115, -3258992.6678023874, -4142645.16690942, -3627681.017454563
116, -3279091.7558182618, -4035855.3193143774, -3580491.9005324887
117, -3260538.2108085738, -4000682.55250966, -3546928.5773466337
118, -3245867.8160493854, -4084053.915930954, -3526855.679027613
119, -3225351.770528506, -4047094.4073890503, -3505313.0431278627
120, -3240870.644602286, -3926121.6022494733, -3476516.6266603977
121, -3245637.5384121374, -3863069.9020414734, -3471032.6321399556
122, -3191083.558664787, -3927813.3001513174, -3486578.065678013
123, -3198698.071799337, -3877020.431132382, -3503832.1564767854
124, -3200912.4222096987, -4050217.5825880636, -3526777.6526555996
125, -3192159.3772084448, -3997181.3480330072, -3532692.7045650994
126, -3197000.540444182, -3898561.9544670815, -3531054.538694812
127, -3202006.8117815987, -4157939.3382485006, -3514457.8180296556
128, -3184170.5727427956, -4116954.9450864308, -3518435.476048721
129, -3213601.6652385313, -4051451.1499302983, -3517832.2043683715
130, -3142383.196819104, -4146107.6842457205, -3514164.72034225
131, -3108766.675065456, -4086423.7914175605, -3493486.631847072
132, -3235953.301865155, -4088512.8574403515, -3520891.80296543
133, -3230111.481202654, -4152107.0890044086, -3534699.7598868045
134, -3161949.1011249823, -4111712.347729355, -3572604.985439879
135, -3236270.9652183857, -4177612.2443165667, -3570413.3385484125
136, -3239804.786121732, -4132736.1703402456, -3581216.7199943964
137, -3233103.29603274, -4174157.0943037122, -3596091.7817728757
138, -3226697.0689681633, -4014702.022412438, -3585828.791054777
139, -3241977.365546706, -4025261.962327813, -3579289.4652066077
140, -3214414.281415011, -4217768.725128075, -3605013.1918507693
141, -3213357.207945139, -4116384.7826171434, -3589579.7909089113
142, -3252780.7977647013, -4177226.2013340658, -3593207.4149135896
143, -3279328.0891583073, -4121888.8423280055, -3608200.4081349405
144, -3231475.9685763745, -4173392.9453409724, -3603729.5709064766
145, -3226098.5819731075, -4124646.900026881, -3600704.2781683807
146, -3260159.1576842773, -4138701.6628750637, -3630522.2357595004
147, -3328158.4051206238, -4115192.749778038, -3648425.09383303
148, -3343228.6810732842, -4229172.818313416, -3703264.897405193
149, -3271479.2026571375, -4484287.748829026, -3735152.5780744767
150, -3328322.790201156, -4604418.465562604, -3740968.135157136
151, -3319954.7633217797, -4350302.198421128, -3778489.6447125194
152, -3357019.256206381, -4507663.168111622, -3779858.657816296
153, -3382428.8660338502, -4462156.042113255, -3785109.7392127467
154, -3356610.168471928, -4519265.1110090995, -3813086.109162923
155, -3276309.4527705316, -4489078.377243799, -3853165.989609247
156, -3386338.211392066, -4594072.240468844, -3848445.2260262766
157, -3387308.387096912, -4633361.389653484, -3915259.8724432467
158, -3378763.6127813538, -4720167.728933543, -3939052.2922244365
159, -3359755.6607211595, -4580361.354467984, -3934872.8096636273
160, -3429856.199486646, -4700139.6387235625, -3961408.31982571
161, -3492675.2533497144, -4728463.657744589, -3966529.44038814
162, -3395092.8546692543, -4489719.084125241, -3940494.9035647972
163, -3445179.473111439, -4598541.25207654, -3937796.6933085755
164, -3441314.900006785, -4726612.773034693, -3921737.6462407885
165, -3393683.379145401, -4727257.131703445, -3860510.8106057895
166, -3411111.6772886086, -4550139.036397475, -3773978.715813449
167, -3409211.885438344, -4383297.270203079, -3743657.352614142
168, -3412423.2407969874, -4346971.739416414, -3697445.475410304
169, -3419702.5741477087, -4358745.986735857, -3676631.0104218274
170, -3365833.9038636223, -4092368.9388231738, -3674297.162509257
171, -3377578.0818890873, -4161310.4042283967, -3660162.5038395557
172, -3346687.8175625266, -4079970.038641152, -3677916.0536810732
173, -3366682.228874979, -4340633.894537761, -3706009.2972142715
174, -3343190.901810642, -4295340.860741839, -3734777.8055939507
175, -3304519.756746131, -4227023.140642011, -3740861.0519812363
176, -3376535.904777246, -4329040.229195305, -3756268.4183181394
177, -3397544.316479184, -4513522.869545915, -3764847.793556468
178, -3367240.491390953, -4258545.844747021, -3781430.54863153
179, -3282899.589856106, -4381610.804603171, -3763553.9055112246
180, -3324747.516295065, -4106448.6066525364, -3722590.5865106164
181, -3363421.0527581926, -4178683.7580819875, -3684163.246442871
182, -3251997.1093079634, -4099956.0793432845, -3640522.503618979
183, -3349334.104273527, -4115936.710293918, -3602078.9609317486
184, -3282530.12167374, -4032364.194100938, -3588800.91639865
185, -3261954.8236744585, -3952407.4197806427, -3553576.52924398
186, -3215412.2870282456, -3974724.648245435, -3536713.464819434
187, -3255019.6622054446, -3897971.3915583584, -3535600.0714015467
188, -3269934.2656422053, -3918978.8811955396, -3537716.5135642807
189, -3211973.4194522095, -3931021.1496269656, -3533167.6680666246
190, -3249013.9124442684, -4233592.829624951, -3524868.0644372846
191, -3236188.9097488043, -3939921.2384951552, -3533589.9142309143
192, -3224673.0834131017, -4119040.1596156415, -3518166.215750449
193, -3245360.0417333604, -4023047.720502346, -3531549.3037055153
194, -3180867.397763397, -4024304.457375151, -3549856.3021798357
195, -3239923.2380562513, -4103274.584153287, -3579252.7329957723
196, -3261274.1347399843, -4157373.4073775997, -3593093.7257650243
197, -3274017.5650817305, -4062938.2797505893, -3626430.9031038624
198, -3297219.811666395, -4233507.24593148, -3663968.8245027075
199, -3344216.035888987, -4236046.176515238, -3696544.2070900793
200, -3351577.0433441894, -4244068.189389655, -3707770.0641930113
201, -3385631.3007765827, -4256361.819501157, -3721980.6921567544
202, -3380894.69628575, -4313694.522505935, -3744335.9794149743
203, -3387856.5364920767, -4647820.92511654, -3760100.499401022
204, -3412650.064793317, -4475054.817074768, -3778802.802348817
205, -3239893.2997053573, -4547690.649298783, -3782516.1009814087
206, -3263025.617277034, -4374062.945128567, -3784876.52643379
207, -3401483.7686129026, -4487113.229825183, -3801898.632858689
208, -3375347.8605219447, -4458208.225343977, -3810596.203038554
209, -3399620.074030146, -4330658.179660839, -3813913.77755066
210, -3397981.623634731, -4388882.947265072, -3786864.619364885
211, -3376709.3112474247, -4654482.252537103, -3775092.2916634274
212, -3361284.1444597985, -4247984.629207277, -3769921.4872953785
213, -3322066.1438771593, -4239062.48355787, -3751961.6718891566
214, -3356056.225185037, -4317246.453148271, -3726723.24245028
215, -3359972.6411097324, -4392469.03251515, -3713021.520367323
216, -3350165.7944708606, -4300134.854667182, -3704126.5870000822
217, -3365898.6561985426, -4121952.5393878585, -3704858.6360600423
218, -3368355.2295464748, -4145486.388000968, -3686336.44963685
219, -3365933.6309470264, -4212975.683652132, -3696385.381163893
220, -3388631.4316907376, -4292948.124746457, -3703130.1427944717
221, -3406010.8303851914, -4168609.838377486, -3697170.021736334
222, -3336120.1171094375, -4147077.903680877, -3691253.3479651343
223, -3333553.167879492, -4171836.0785208866, -3687217.157465845
224, -3376863.854687057, -4155860.1247755587, -3697094.8324801195
225, -3369875.8334569065, -4260416.5114234295, -3699980.310041803
226, -3328592.8330877754, -4210196.788657394, -3672396.630052535
227, -3300477.6843196913, -4073187.599750354, -3651074.8693050775
228, -3259716.7642889973, -4056235.765438633, -3623021.126094051
229, -3276096.8975342396, -4170177.250850035, -3599307.8074358846
230, -3289732.4046179727, -4032431.7503018007, -3603933.800522858
231, -3233473.495268935, -4155773.7166714584, -3584075.9676799183
232, -3183278.0130675966, -4136018.8574935338, -3584309.423975869
233, -3201301.9308305443, -4035520.477237691, -3566145.608546939
234, -3167693.559432662, -3913171.5296768174, -3514481.7458769465
235, -3169525.270979418, -3998732.7901952444, -3496758.131879203
236, -3214590.5058287904, -3893805.514609417, -3480537.9460825603
237, -3180480.4076728155, -3872363.3477957565, -3479323.2739348873
238, -3181064.5322785387, -3775558.140394886, -3456139.5129678114
239, -3189062.4724160605, -3889260.5459492803, -3454028.945851044
240, -3217407.138722894, -3914498.874279378, -3469602.6330435085
241, -3187379.8008675114, -4048524.84949735, -3486353.5699961036
242, -3212712.1005666675, -4138145.968818766, -3491636.2756258408
243, -3197531.8737949003, -4135907.905630977, -3495999.3058347274
244, -3204894.270059561, -4143951.124470954, -3520641.494338732
245, -3222433.553831824, -4072018.1183049344, -3544625.2098974227
246, -3214330.7475312743, -4035051.488302636, -3545291.8126594797
247, -3246910.0178560102, -4156380.696691066, -3562628.3040580684
248, -3242300.071394779, -4331952.4067953015, -3559330.177282735
249, -3215857.3691859418, -4112511.3162749754, -3567262.739726208
250, -3224605.758076071, -4045640.699757643, -3567631.4776862003
251, -3194852.3957720613, -4077336.479849727, -3584250.1044776496
252, -3221108.689681916, -4152758.760252009, -3583643.0795182106
253, -3205548.156259208, -4165720.059474217, -3595986.6317921504
254, -3175222.925941885, -4246592.916289632, -3624581.6307107257
255, -3127339.1586405477, -4303988.433580686, -3620791.76328253
256, -3229106.7660786104, -4244775.529276291, -3599513.278574557
257, -3172939.848855946, -4130883.4679797497, -3560738.6696856776
258, -3142668.1217236514, -4026297.376186218, -3532335.662978434
259, -3158212.3603410386, -4026851.344979504, -3527125.491302986
260, -3173019.765370105, -3947241.379546676, -3494956.4789974857
261, -3153522.0442836815, -3908170.896249025, -3492976.39555075
262, -3146751.258786997, -3899786.5404965132, -3472293.442128594
263, -3158082.6756326635, -3966464.863554295, -3476696.9145407495
264, -3192943.5248881862, -3945037.3173903693, -3460704.7191316923
265, -3111865.8896241323, -3849694.6945668897, -3457589.4942229684
266, -3112450.066556484, -4026192.0614872808, -3426998.9817694533
267, -3110846.0006953483, -3768939.9876476047, -3406673.1807376794
268, -3131360.001041267, -3800176.1346111824, -3390003.871352332
269, -3157348.0738123935, -3905181.333723644, -3390684.015346707
270, -3128670.076648372, -4008623.1146724913, -3392907.026655924
271, -3153881.1738664545, -3904468.2807431268, -3415289.678517299
272, -3179568.4595851596, -3916361.315909382, -3420051.700587154
273, -3150970.3796101767, -3913417.8415688816, -3449513.0178094436
274, -3085136.614114146, -4004581.027923137, -3467501.704413109
275, -3139534.274459365, -3997906.0465056784, -3477722.9740490285
276, -3139862.357307585, -4046934.736421696, -3467745.748457997
277, -3200913.421884129, -4014752.795491456, -3485629.991588774
278, -3202423.598975849, -4091602.806973448, -3511251.7406617133
279, -3186999.582349968, -4109527.7543604607, -3565260.708977591
280, -3173687.593106664, -4094076.7225800473, -3545610.95728086
281, -3232904.6317290263, -3942932.898303887, -3532673.4986824444
282, -3236623.6826994307, -4013156.394852792, -3543794.498439047
283, -3242872.1877837316, -3995319.1647790903, -3554076.6437941543
284, -3172386.2652427764, -4324665.915175612, -3561166.8301960547
285, -3178239.745606247, -3986327.515888002, -3560126.889500066
286, -3255990.6686744825, -4073366.165931873, -3564123.7928219126
287, -3225665.2060572845, -4084886.838074249, -3567757.858031523
288, -3269355.326859386, -4007787.9132544575, -3570623.4162965245
289, -3309056.375887267, -4001652.470792085, -3588586.93608578
290, -3321868.674478505, -4220708.389970588, -3630476.4470767565
291, -3333550.2689642194, -4258238.811663037, -3649239.345427638
292, -3242779.3224567627, -4216079.003888875, -3688010.3861796283
293, -3233389.106212364, -4308560.73689508, -3694961.082410285
294, -3369627.6916022976, -4182096.4465831434, -3714289.98201519
295, -3290321.2658824227, -4311118.162622981, -3690926.6367173195
296, -3339083.8427349413, -4292491.422934813, -3711583.6413303744
297, -3341583.340578459, -4352463.342170325, -3723213.906215699
298, -3410187.6971238353, -4174866.7599180005, -3744165.39467207
299, -3375399.736321079, -4300074.244913191, -3757816.0405915836
300, -3423276.5212983056, -4417881.30813768, -3793314.535929482
301, -3443946.890707353, -4437918.337735705, -3813693.1193198976
302, -3482389.4298115512, -4423617.31110323, -3804087.0757757532
303, -3433489.8413856896, -4266291.271977295, -3808572.9768711645
304, -3479252.413162526, -4315349.205893322, -3832045.393720439
305, -3472811.765386977, -4375501.60001032, -3874685.225505399
306, -3460147.167742668, -4541858.416058433, -3909670.598095697
307, -3497247.5339882155, -4568082.975093337, -3933596.2716775322
308, -3558698.5958924843, -4488474.737139623, -3932699.928959264
309, -3550825.7034221375, -4475396.700539944, -3971193.8121552486
310, -3580179.1528147757, -4609118.423378957, -3981675.7021732647
311, -3548652.876505164, -4628576.731248192, -4017562.1735132257
312, -3609885.5597528424, -4566299.456496497, -4032790.517078057
313, -3603955.694156679, -4701167.351828497, -4055366.6166417026
314, -3599020.96310437, -4665566.668908705, -4023084.8538638093
315, -3549728.862309362, -4620383.771754595, -3997309.2705697175
316, -3591284.7058649445, -4674874.686347647, -3963980.4837638875
317, -3574330.5957805496, -4503816.849168838, -3908480.0176019617
318, -3555319.48422439, -4771705.110048864, -3858161.1450802265
319, -3515481.04854195, -4458683.999740343, -3787628.8760021036
320, -3494594.3452785723, -4161781.3002978032, -3772179.653118435
321, -3479825.7484625415, -4262250.464199076, -3749126.798269553
322, -3462936.1155648106, -4073007.9019197393, -3741456.5070551573
323, -3494841.712425196, -4109588.7581065055, -3729182.579821178
324, -3432902.066395112, -4181108.0142770372, -3719880.829392503
325, -3424545.308470453, -4156050.4507127935, -3699612.6522110165
326, -3420390.843757855, -4128721.208783173, -3670641.253644456
327, -3370981.620133709, -4133356.744250547, -3678498.7053281916
328, -3347819.202957702, -4089715.899243311, -3657689.508863552
329, -3345358.3442174457, -4128681.562137384, -3644728.0648783646
330, -3206201.6599317268, -4159816.789866185, -3624986.2723838054
331, -3288428.393478846, -4139118.5596981626, -3635058.9891710775
332, -3278303.444871539, -4177651.387892641, -3609077.36414455
333, -3278759.805957521, -4069299.6220451267, -3613801.3197806077
334, -3247403.106336836, -4185039.936124456, -3618310.7426882195
335, -3323802.6500117537, -4070235.8167596133, -3643898.598529529
336, -3368039.203211697, -4345493.360510997, -3641524.8331946013
337, -3340864.363230083, -4154091.2695368687, -3672761.5990822716
338, -3314028.8193521914, -4153400.5540298102, -3660435.28856978
339, -3276054.508321822, -4194257.83640367, -3689456.843597432
340, -3325716.818213928, -4340070.477583406, -3675138.674631602
341, -3368226.0584829007, -4232043.787458407, -3688036.4718098203
342, -3359679.6421184703, -4222285.810840934, -3718843.455156807
343, -3267675.704407835, -4553956.94575812, -3761749.446551115
344, -3257599.0533599127, -4289247.830946593, -3742687.6655267477
345, -3287206.007595212, -4300441.207569301, -3750123.558853862
346, -3263387.6057935953, -4358236.12865761, -3733014.3180048973
347, -3279808.643689735, -4406735.363805597, -3713409.146598242
348, -3216711.3113483335, -4280272.230503285, -3636919.564240849
349, -3177950.7690417306, -4322185.161579117, -3596405.3312601205
350, -3240913.542121242, -4447137.288371403, -3583479.1044494477
351, -3176059.1934339977, -4114660.8654847546, -3551767.1797554647
352, -3164869.5978574543, -4145170.978957978, -3520939.6288774274
353, -3229959.9304107507, -3975945.537911688, -3493348.128902853
354, -3192639.0389242107, -4110957.073672414, -3488782.2103144745
355, -3201803.132384656, -3868494.996292362, -3483696.1895056255
356, -3164573.644307511, -4095802.162810403, -3464658.8926993604
357, -3127054.1319900407, -4076782.6943670306, -3500117.2155711865
358, -3137825.9780024397, -3973313.284062787, -3493887.1260083485
359, -3140035.4016177324, -4075711.741371222, -3486514.38847723
360, -3150832.2183691156, -4167613.353158692, -3481591.947949413
361, -3154637.750012474, -3917257.1614402663, -3481247.814448763
362, -3132224.8368170084, -3873539.4736090032, -3468738.8648058097
363, -3172884.399775624, -4039749.866478836, -3489127.6296653184
364, -3100550.3803460374, -4216822.017232402, -3463319.61186606
365, -3175439.2572700917, -4245852.210189789, -3488052.0585241606
366, -3195375.8818089757, -3903152.199138996, -3450338.738334946
367, -3117532.844439526, -3996574.3669405077, -3479068.226906334
368, -3084887.2738325037, -3940873.7801330434, -3491579.3077878216
369, -3187565.2831817674, -4002007.600964302, -3482943.450742837
370, -3110259.079084715, -4031245.922048281, -3484144.749033371
371, -3148209.756680683, -3949447.2763696536, -3475196.038962505
372, -3101853.137435561, -4095376.3299974576, -3466122.41751866
373, -3149865.9905567183, -3975450.001927454, -3483339.586478924
374, -3148068.303629849, -3888356.8071992015, -3471817.9000848513
375, -3132589.489770153, -3936403.633873, -3468116.216781331
376, -3148338.848251561, -3895894.828682973, -3489165.481688878
377, -3194857.4962756527, -3891445.1438374007, -3504820.2952602063
378, -3167700.3987454674, -4104989.703181509, -3516596.632832114
379, -3142034.2917935764, -3975853.140615699, -3522189.246905281
380, -3209712.752899046, -4070481.0475929733, -3561581.553053762
381, -3171107.3844390954, -4115562.9504628647, -3543459.0819180966
382, -3185955.0548538715, -4103234.4035305995, -3511772.212705904
383, -3164333.9649204453, -3968503.415445025, -3487934.941390715
384, -3228809.909777773, -4198166.298843294, -3490708.0855094334
385, -3128162.0622431957, -4088107.7794963922, -3490793.290261275
386, -3156923.3085250603, -4042106.18933319, -3479871.968631551
387, -3171594.4165761303, -3976164.1795412824, -3477553.695732893
388, -3143632.677625527, -3914958.2905619815, -3478129.5870434227
389, -3105026.976129297, -3972396.180289883, -3473483.165545644
390, -3128063.273221781, -3870203.397329836, -3455007.715767052
391, -3127771.5808389504, -4037311.6988968113, -3440302.2547431746
392, -3126580.960909089, -3954164.5467879754, -3432730.975386516
393, -3074757.46393786, -3910448.1663435, -3425414.6679872912
394, -3139567.661527046, -3957676.6382355774, -3440782.334084487
395, -3084075.371783184, -3829929.690617811, -3419640.164343658
396, -3030495.5801108647, -3856127.8737671487, -3421797.882811224
397, -3062284.652789283, -3943431.6856235424, -3423164.787672462
398, -3134953.5390228783, -3901757.701968723, -3426416.5355469324
399, -3088723.3423881023, -3876063.2005960885, -3427058.3661451605
400, -3089625.75235615, -3833119.0713675153, -3437061.2125387937
401, -3119386.126979193, -3895576.439500114, -3449813.1664575194
402, -3129410.119941772, -3960099.4009512337, -3451619.0625348287
403, -3087903.2380186776, -3942989.5728629064, -3467033.930102165
404, -3136528.5300301146, -3921910.426850752, -3464493.1066649384
405, -3151162.7917450625, -3942689.9206852466, -3473139.3677860717
406, -3190295.201008554, -4070254.7971934034, -3506838.8424255885
407, -3152398.0442596213, -4005273.106352344, -3506707.1874888404
408, -3107057.9874782735, -4269253.531788097, -3542416.582313178
409, -3105372.1874286644, -4091559.5899180127, -3544847.725837712
410, -3052628.3978046724, -4125904.254666361, -3538082.5655106194
411, -3166516.495767194, -4116959.3500471646, -3543238.028665689
412, -3056184.7459961576, -4213112.052711427, -3551189.677225932
413, -3070108.0072712745, -4248783.634951242, -3549583.5810474297
414, -3078886.899788605, -4252584.399834969, -3560679.977978719
415, -3110267.7492955565, -4136021.1839051526, -3536108.78481596
416, -3107007.994863961, -4380123.669817329, -3550116.163260575
417, -3157281.4787535015, -4220958.56643795, -3541214.6363065215
418, -3105398.9843355673, -4054773.2795843566, -3560696.145901824
419, -3212255.6453812323, -4208130.569739602, -3545831.6608535377
420, -3185822.7491844497, -4115210.460046348, -3559725.779725906
421, -3165814.721280972, -4118336.775569042, -3537186.209813383
422, -3181798.3857676163, -4025765.7795760827, -3530592.9318803623
423, -3184455.550687714, -4164056.43584014, -3529482.4416371253
424, -3256498.7596669374, -4069415.6020634566, -3556164.6466586543
425, -3178506.8756451025, -4181773.4198949207, -3575705.8262649947
426, -3213127.3476459156, -4581225.4974980755, -3600789.28093513
427, -3225024.6487161005, -4267297.453319688, -3622881.906449865
428, -3187213.913681011, -4172843.8627157137, -3615749.442033433
429, -3133908.810075833, -4371769.69719411, -3639917.869103544
430, -3140615.1277986127, -4320556.865483745, -3653449.4312499296
431, -3133288.155979086, -4234028.217999389, -3640973.172497045
432, -3231696.655432335, -4193053.411949766, -3634912.5294595147
433, -3249136.937608134, -4242006.342627036, -3620971.4430078375
434, -3288725.4351095087, -4104883.6274366705, -3619650.312865464
435, -3243890.4833152965, -4140297.7711823974, -3627371.055093839
436, -3251484.58645619, -4243100.053158826, -3574722.1135675577
437, -3195518.374743098, -4188447.083638862, -3543438.3310601227
438, -3232810.8287036833, -4077126.174125471, -3502907.412845505
439, -3160048.0589473885, -3960439.059798655, -3502004.804599108
440, -3192662.429789462, -3901328.8416395085, -3495937.8646280873
441, -3170491.431443432, -3889645.1712239385, -3495848.730508261
442, -3161111.668791578, -4063386.499773429, -3508046.9090670357
443, -3212719.3445656225, -3976001.2648117375, -3519668.3412044486
444, -3247824.0382354064, -3953772.376236206, -3525221.8544431888
445, -3275282.6131369653, -4064573.0737425797, -3558022.7423178353
446, -3304620.891946213, -4033649.30559644, -3555741.424339266
447, -3216217.844312295, -4021562.0037880335, -3563780.594853381
448, -3198340.792174007, -3882252.2256289674, -3549104.6601740504
449, -3193083.8703383994, -4158440.1343659433, -3561815.82089363
450, -3214613.934844779, -4014826.108425906, -3560504.1909894417
451, -3231148.9071134357, -4171129.956984412, -3561684.8495862763
452, -3220618.8917746036, -4087796.0667069014, -3565612.7997800056
453, -3208767.833126445, -4182402.836359579, -3562491.7136397837
454, -3238004.3321820535, -4171576.7989446064, -3589076.7015951583
455, -3172658.1806530324, -4255072.428612596, -3604643.1320025045
456, -3191781.2546751965, -4240923.731054324, -3629592.764706055
457, -3178853.8294431292, -4137310.1134476056, -3638209.1679906826
458, -3162423.02914038, -4324696.071318302, -3656758.9164012815
459, -3151195.2989759613, -4209023.10043779, -3655789.1030480885
460, -3221188.43164456, -4321575.870394317, -3667714.711944766
461, -3281228.7926818607, -4354320.352006004, -3680217.912579985
462, -3264269.4945568265, -4384046.9981946265, -3668437.710615199
463, -3319660.170679833, -4231870.353047219, -3676655.852545253
464, -3319162.972040607, -4431302.090477299, -3677310.852498821
465, -3304364.743144335, -4501072.950254171, -3707067.375766462
466, -3297882.5925139245, -4277772.194461149, -3702874.500902275
467, -3242768.1034275605, -4269442.114027363, -3712662.002156365
468, -3216271.949197817, -4219150.768489939, -3697276.4878749354
469, -3317241.24467896, -4537059.982384994, -3713676.576722874
470, -3325879.4601647262, -4407504.606896208, -3677342.197093673
471, -3295400.338658695, -4345894.922212815, -3681835.4989299593
472, -3234041.5509740915, -4202234.783741308, -3640747.1041351827
473, -3247128.577544302, -4472874.340048168, -3653341.9173720498
474, -3149647.4905525213, -4146236.3651966825, -3623971.886873929
475, -3231819.2353997016, -4073087.8849582374, -3612232.065441717
476, -3237381.6666599796, -4079144.523599239, -3608323.58086412
477, -3224868.618310215, -4030563.177019608, -3592105.3346696445
478, -3235851.4413757958, -4062252.336737601, -3580585.8731657695
479, -3219554.649579449, -4148632.6339951167, -3581756.1840142678
480, -3081103.614986458, -4028317.3184183, -3572310.711967984
481, -3098428.9745451766, -3977942.4886580976, -3564034.8083052197
482, -3117906.6306673842, -4174041.600997747, -3572377.929921829
483, -3196089.063153794, -4028764.5136834094, -3591069.5530514196
484, -3221199.9159563216, -4113819.1102913646, -3590114.637431676
485, -3254910.0359967025, -4015542.5183213092, -3589087.9582063304
486, -3301369.5522753736, -4054126.0431317342, -3599060.5956563377
487, -3256251.241567516, -4225261.975077847, -3626876.6685198746
488, -3195264.074051794, -4183821.0298143188, -3637624.8815772794
489, -3209917.750592189, -4263920.346369754, -3644502.801084636
490, -3251922.757258656, -4390554.099168976, -3617047.2079090173
491, -3192357.7441942324, -4199493.15433751, -3623739.401135664
492, -3166977.319479003, -4449687.171060677, -3619872.9939855896
493, -3240900.0060981, -4200581.805246706, -3639201.563369083
494, -3269125.540511141, -4212029.295091792, -3646238.0643349504
495, -3236111.440259815, -4274543.176505798, -3623439.814368389
496, -3205211.4215956, -4184005.461844097, -3599355.733554885
497, -3203976.0372365625, -4168422.5521711763, -3570136.2648732155
498, -3271349.4708578293, -3960932.0844308976, -3531267.3533325824
499, -3247533.101801603, -4089324.2319741417, -3499000.002590435
500, -3233066.6345185763, -3889972.2386903632, -3471529.626519852
501, -3219785.366094903, -3820967.8146025934, -3458114.451059321
502, -3206722.7924116747, -3919316.996009892, -3445612.2872806485
503, -3210774.5726750037, -3943759.564230036, -3436954.987273424
504, -3198340.396630456, -3906830.048665086, -3442062.0563309398
505, -3187969.3135948367, -3838852.854164577, -3441737.8284000615
506, -3167772.658442874, -3792330.800249283, -3432124.698831309
507, -3168800.5868037813, -3919884.517865181, -3424288.602583929
508, -3183054.434902212, -3757996.4370254255, -3417758.3119467325
509, -3174272.566838678, -3775753.8507941146, -3426508.226439559
510, -3153022.274036157, -3972167.822193154, -3449544.5336444997
511, -3088943.919405074, -3947088.556811232, -3451660.8432743377
512, -3108036.2852726514, -4045136.265309816, -3447745.0077385698
513, -3090428.283325916, -3995819.8241592096, -3446191.6350252745
514, -3129045.491170465, -3863633.0327403275, -3447290.2780979415
515, -3066341.638089377, -3883348.5511097526, -3450891.370029798
516, -3077557.9681600025, -3886622.919057416, -3446267.692578372
517, -3122964.418985861, -4083751.7834027614, -3421917.498719568
518, -3087214.8663518433, -3954704.4186442792, -3443160.070544043
519, -3124553.945217795, -3997371.4699777076, -3432319.974521363
520, -3138764.578477607, -3890757.148565405, -3425739.7859845604
521, -3095115.1874179794, -3890735.45827055, -3416785.033905817
522, -2958037.2761057927, -3883185.8568898523, -3420629.1016188506
523, -3112488.6216691937, -3939829.926251035, -3447520.513795158
524, -3093230.179210516, -3954759.475185427, -3441522.457690632
525, -3108078.8191207354, -4102865.099390907, -3450905.588251167
526, -2990937.9122553924, -3903053.7553792885, -3468527.0880407
527, -3100944.508661421, -4041071.8559772056, -3480118.081879261
528, -3134569.7060070247, -4066116.3258367507, -3486488.51220307
529, -3157454.8863453483, -4306952.493687211, -3479062.9844987183
530, -3076151.6917053573, -4123232.7988318196, -3468800.394107396
531, -3019323.2858458785, -4043961.825488884, -3476736.63429805
532, -3024561.0757088065, -4035854.3297681157, -3514264.069617174
533, -3106023.8024568544, -4082031.304864089, -3538481.9168140832
534, -3153234.870460712, -4207861.017599174, -3514365.6048325347
535, -3152861.4303470836, -4217209.445706658, -3523499.273562967
536, -3170326.57183493, -4319309.432378121, -3517620.013072462
537, -3148264.85690034, -4021546.399864968, -3527242.219929882
538, -3147955.2691774582, -4116595.201383451, -3486456.462752061
539, -3143399.7165303095, -3910121.5903675966, -3462248.484856384
540, -3087233.693222979, -3890610.3115107995, -3449152.429874592
541, -3133929.051152956, -3816668.390814452, -3445438.2662221524
542, -3125447.6527339933, -3944475.9761067918, -3444743.401470766
543, -3094937.183638587, -3906306.2694681603, -3414240.4682697593
544, -3111300.4603640665, -3882392.7494585114, -3433782.8341667014
545, -3123395.7376155844, -3989351.260638848, -3410048.065123641
546, -3097252.7194947097, -3893397.489859121, -3387529.694781933
547, -3064667.9066710593, -3988202.172745183, -3385230.6659948006
548, -3040989.7859540824, -3727385.030043061, -3368462.4852659274
549, -3034211.5599254514, -3796023.976124837, -3338717.2154222243
550, -3084646.475403041, -3829194.1900626514, -3329548.1349472646
551, -3067245.1165537713, -3735061.3969592256, -3336281.222236722
552, -3080930.7896389803, -3967337.643538799, -3348336.9809630667
553, -3058011.8224428575, -3845124.243179543, -3371914.3529509758
554, -3062816.397076282, -3801283.0074568368, -3376759.8748873444
555, -3090852.401067687, -3883181.4077916974, -3390885.5147614037
556, -3046652.0589562464, -3972626.4462501835, -3404747.4402050828
557, -3089030.6964485934, -3979935.563228732, -3415337.3309014565
558, -3095001.8099843306, -3841474.4784588674, -3435370.2484937897
559, -2999594.774668435, -4012746.0358637758, -3434974.119850552
560, -3083444.945236253, -3900290.991457952, -3429015.7690157024
561, -3097806.0373560563, -3990866.9240479777, -3432730.3718387824
562, -3038899.70243827, -3966925.0719396733, -3418804.47610025
563, -3118551.067898201, -3928201.3822566317, -3425148.881061182
564, -3101373.0361868558, -3923280.386959442, -3436068.9046777952
565, -3097250.095794877, -3953559.2378622415, -3457609.9874831773
566, -2992132.4164703917, -4018091.3601897005, -3466016.795586292
567, -3020874.6569209946, -4068801.1053909715, -3434876.671869049
568, -3020649.3807728495, -3976376.5260288445, -3432870.8685378362
569, -3068797.201883738, -4209192.889251716, -3438258.1035488183
570, -3124717.354153022, -4007086.7340037283, -3409967.9931181115
571, -3111874.2624840247, -3926780.275574292, -3403252.5735465894
572, -3084228.3034801977, -4008499.4603593973, -3416012.901752333
573, -3136476.6088253725, -3958011.060816855, -3435737.4981144783
574, -3147314.305052844, -4309396.887646541, -3472895.029743735
575, -3074827.867810049, -4002053.0740067167, -3480728.917298177
576, -3072549.337710822, -4055203.4883061154, -3506554.837158093
577, -3153792.298694781, -3951030.1312299278, -3510995.4198334436
578, -3153840.078884662, -3986757.195779861, -3523509.920626782
579, -3212485.1015168387, -4087717.114198978, -3571819.7856927426
580, -3196766.9350892175, -4205278.703679908, -3603291.646563123
581, -3210385.000829937, -4246608.805031865, -3639983.368725337
582, -3153881.245067034, -4382930.916411024, -3663628.3981785397
583, -3268000.2891944107, -4325333.684510568, -3630778.6349093844
584, -3245027.879869017, -4175035.1140763517, -3654843.0178825236
585, -3229370.3364281333, -4458188.951745532, -3676638.590579153
586, -3211150.3541834103, -4186274.6073481105, -3661136.2978584757
587, -3314727.8408597824, -4270976.627879569, -3638299.205582679
588, -3220449.9823244885, -4232612.787067919, -3637579.9453290994
589, -3251779.4186010878, -4328104.811066266, -3629853.5175757026
590, -3266500.2999684685, -4239360.471168924, -3637677.986838577
591, -3257402.947180629, -4480044.966981007, -3670476.9736035834
592, -3293394.8563064025, -4269831.705505717, -3656868.9980821265
593, -3248482.3517574714, -4252030.584028044, -3688523.2086897227
594, -3271345.216954354, -4167063.6850972, -3648253.29526859
595, -3294422.46509151, -4236026.44958967, -3648926.6646545357
596, -3276364.317104971, -4187101.4084752062, -3657821.1514045657
597, -3291735.36929811, -4268252.919367094, -3677314.9543294166
598, -3231835.166445916, -4278403.163910006, -3682074.4333426496
599, -3274036.623551452, -4343639.689108175, -3668595.9732087743
600, -3253571.061283418, -4460971.789554452, -3696209.4224061193
601, -3289787.326650128, -4566968.085884583, -3713427.124682078
602, -3286937.4731022078, -4262963.008017288, -3689675.831028718
603, -3245159.3196952688, -4372628.48198083, -3676206.5005716598
604, -3209276.476589712, -4223687.105103188, -3666989.186871273
605, -3265171.498607624, -4271546.725559634, -3675114.7036121693
606, -3211711.0209456515, -4470180.2234915765, -3682159.939497987
607, -3223275.1329910266, -4323361.926253731, -3684438.622854729
608, -3254627.237246762, -4343411.135057825, -3709173.267316406
609, -3253084.062024286, -4373989.808886028, -3694316.3205672675
610, -3295707.0342864585, -4265094.257712834, -3719401.101300234
611, -3333030.1462924895, -4463504.911250253, -3747175.052366261
612, -3278883.9378859624, -4337901.127818836, -3723643.4397643614
613, -3288369.2136463737, -4227673.299748499, -3702894.515382588
614, -3309497.0345260627, -4347282.170577568, -3717168.3577583153
615, -3269126.9956159, -4256040.928448474, -3682827.063859476
616, -3261376.4585150005, -4263351.541545417, -3660750.9825447197
617, -3204113.0715667014, -4089726.2776432857, -3628808.3078933796
618, -3286986.6510453564, -4126927.6731474157, -3639529.6889373
619, -3280129.6460445267, -4129119.3874862464, -3642649.279311468
620, -3186407.4366840827, -4208710.578408389, -3669901.8428979684
621, -3213801.735012523, -4345700.872086947, -3668858.299548026
622, -3234262.9775219634, -4156618.3522075377, -3659209.2067336002
623, -3298408.5134114427, -4185967.4007029906, -3665502.422283671
624, -3297236.3990788897, -4260802.291114278, -3658064.41442895
625, -3222743.918736065, -4050092.8833855316, -3661802.214843084
626, -3305651.9995030845, -4211611.559543924, -3632208.9907069188
627, -3299703.4475463605, -4250943.162893209, -3669449.050716301
628, -3356846.0471147527, -4140677.737667801, -3693432.5129943695
629, -3322780.457202398, -4175198.3670002026, -3691089.245619935
630, -3320432.0099604563, -4294210.166005839, -3715414.013762631
631, -3355049.1198368063, -4322998.673674668, -3716202.688936677
632, -3312059.5557261035, -4271139.550727865, -3739533.6563274465
633, -3309343.46840046, -4266753.980080746, -3746403.7061796836
634, -3273361.967703766, -4352769.388826116, -3755093.8754123575
635, -3281428.5888830316, -4421356.7268996285, -3741911.7593605644
636, -3297975.0227093445, -4415059.249538977, -3706204.909545405
637, -3298151.9344420717, -4236062.859529848, -3669488.958572356
638, -3287621.7361552655, -4188229.6563751986, -3619419.3753801095
639, -3323833.2878749436, -3981753.4185850695, -3579324.714918763
640, -3308198.0390587286, -3962842.009543068, -3544642.3721298706
641, -3251773.2553064204, -3911232.5353291733, -3547456.200684501
642, -3226973.6048531146, -3972029.0156812426, -3539223.941661293
643, -3201313.535730582, -3890196.087884737, -3508079.604669854
644, -3216162.40808901, -3899184.5234012194, -3479732.8698637164
645, -3239112.0354367304, -3897287.0006795544, -3483807.5484654563
646, -3192648.0147465644, -3817202.426324978, -3468505.518839841
647, -3189004.7019936466, -3895422.638389215, -3467360.849891104
648, -3172985.799949214, -3879714.9535672544, -3470051.447828245
649, -3104352.701599044, -3919253.553497876, -3474403.620697601
650, -3193094.5932770353, -3873634.225211734, -3463173.0803116933
651, -3192408.0253642905, -3952948.335564672, -3442677.2052637455
652, -3124822.1044814824, -3857524.5278327838, -3432189.4095345265
653, -3156482.1575995027, -3857927.424315325, -3449996.988836619
654, -3181556.3060213653, -4108100.799455651, -3490391.6978032943
655, -3197360.657708825, -4049670.394235909, -3517419.6142087406
656, -3224470.97561959, -3965890.8028817726, -3510340.5117016747
657, -3199363.9792002, -4299105.847565784, -3507594.3395559345
658, -3202823.8953321115, -3963569.360009793, -3528239.9113066797
659, -3202881.754120736, -3961441.4189118743, -3551705.053943716
660, -3147392.011303172, -4155105.3539842693, -3591839.3704750594
661, -3204895.8374560336, -4141763.294095141, -3579813.3201148803
662, -3208581.444282415, -4245916.377249847, -3580456.9167510024
663, -3172639.2408848475, -4004031.7143354705, -3579199.371437989
664, -3240641.189452838, -4038315.961214979, -3587260.353108617
665, -3187206.555525103, -4204816.024524407, -3603964.359358465
666, -3249307.50224175, -4116229.115357196, -3604770.8693894693
667, -3212278.60170374, -4297278.279330643, -3631221.3563127164
668, -3244676.3756089327, -4108767.0259155417, -3611815.0702127866
669, -3255924.8101630984, -4304074.783218502, -3617008.6172296363
670, -3235628.21571495, -4237566.459181727, -3628271.082100354
671, -3305883.874941475, -4132058.118193011, -3624010.70091186
672, -3306553.056757969, -4249590.037047257, -3674309.3494963036
673, -3345895.3672748846, -4183595.208556168, -3680568.825008176
674, -3352867.1556021534, -4202227.752516257, -3701947.6084236414
675, -3329686.136777458, -4294871.237268061, -3717523.7028257973
676, -3301538.028452966, -4234445.636436321, -3714896.0257723816
677, -3335024.122190042, -4352783.808649751, -3728283.445683486
678, -3374581.190763549, -4374542.3983142525, -3738099.9358138666
679, -3350750.1972640385, -4395373.441849931, -3767848.5806458998
680, -3443805.934390054, -4336814.363826298, -3784993.7741402695
681, -3418261.7126962794, -4442380.567506017, -3803317.605788545
682, -3415144.6979600014, -4536042.437512656, -3815466.6876595174
683, -3402122.8544611405, -4412107.618559147, -3818200.062104532
684, -3354833.083665955, -4381681.58341933, -3846107.6637780657
685, -3268320.7253928194, -4473792.162343798, -3848964.9270098926
686, -3408229.7173860325, -4355026.984095085, -3858693.51881749
687, -3399158.0848778295, -4549337.566254617, -3868928.637151007
688, -3435945.43437917, -4539309.570165602, -3845459.995294925
689, -3353792.1773548513, -4486410.034358988, -3834523.1332128653
690, -3323978.219066305, -4245428.348261712, -3757152.6659992286
691, -3384329.4136046004, -4358955.397950958, -3729298.955776227
692, -3374649.40318238, -4434147.4164094115, -3687364.7604099666
693, -3350233.0861712564, -4156366.904621223, -3661410.999625195
694, -3266796.1029898496, -4059452.124782106, -3640696.5365098435
695, -3329903.810301864, -4223078.356208296, -3628761.377252536
696, -3292255.741485302, -4065049.0069075525, -3617884.0543110375
697, -3313165.84512835, -4181169.020927199, -3611905.5836625663
698, -3280381.5546030463, -3970576.966185378, -3585370.41362038
699, -3306996.6183761954, -4041071.4509768067, -3602727.8251834116
700, -3297992.863679954, -4033798.6943246983, -3609446.1437063683
701, -3344227.1859727837, -4101215.4443888552, -3614194.1322026723
702, -3334740.072599431, -4183859.407323356, -3619815.7641982883
703, -3285891.9066530876, -4097441.1856370633, -3609008.1293584583
704, -3305684.3747918457, -4140137.7377523826, -3634239.4270536783
705, -3323213.2350505516, -4138626.2083682492, -3633991.2430782868
706, -3320037.4491772647, -4152094.8057127604, -3622894.4019892938
707, -3305054.552259549, -4096769.2110409215, -3630580.5678880964
708, -3323936.180122081, -4037215.3906497387, -3632477.3990121195
709, -3304961.778980506, -4261037.548549279, -3641550.193020288
710, -3275695.906727993, -4107305.5767680826, -3636523.263791266
711, -3270895.8932740474, -4133701.5111271394, -3635506.7153488016
712, -3228408.6331626615, -4125068.8138537956, -3628417.608516178
713, -3289447.7895725234, -4170784.9092117483, -3651496.8461853187
714, -3302140.7814739305, -4250593.710802577, -3670562.9741584416
715, -3333229.560521096, -4135346.7177826175, -3662904.748430789
716, -3333579.696751513, -4234375.884837841, -3684690.1089101983
717, -3252499.9972080356, -4140056.751473928, -3689086.1439200654
718, -3312796.6527550006, -4456350.317295215, -3697412.3854737305
719, -3266638.4561742865, -4262690.450292629, -3690348.9714675816
720, -3286434.73776751, -4354116.439375564, -3660599.5101032257
721, -3139341.665318536, -4197201.4414140275, -3649830.5742078787
722, -3073727.1565639065, -4264382.139258452, -3615404.3405370032
723, -3236092.2688487777, -4305072.073950736, -3595591.877241787
724, -3207357.9685097462, -4123841.955182506, -3574586.0282233534
725, -3196133.805021198, -4148552.065738464, -3579701.3118572696
726, -3219826.0522481813, -4094840.0293850377, -3551187.277006806
727, -3220653.3108645347, -4010906.903014142, -3549973.985182692
728, -3203427.478212317, -4232864.4638160495, -3576330.0123799774
729, -3179827.2056335784, -4208715.3946755575, -3582255.93771402
730, -3076743.2358529633, -4094624.3710294366, -3590156.8850702294
731, -3085355.796587692, -4009596.48041771, -3581901.8612374743
732, -3132323.3947061407, -4194195.5953263193, -3600897.805883168
733, -3186853.728260625, -4037768.518447567, -3566560.0082761063
734, -3177811.8273549415, -4348086.165829632, -3586984.188595336
735, -3205417.5418988895, -3987712.187569171, -3578936.1556251086
736, -3186063.9618917787, -4074252.735505211, -3589783.1211668043
737, -3065744.040534204, -4148037.902230978, -3589723.4047870506
738, -3204264.0509978095, -4019233.036129227, -3588219.5939337066
739, -3164625.408250465, -4095007.5516474666, -3569647.8174372236
740, -3201214.5399664906, -4009104.8736960115, -3575894.9910878027
741, -3174644.9375771564, -4177937.1550299684, -3564267.555515119
742, -3137781.1739968304, -4214514.186807424, -3555594.229447201
743, -3177095.339642562, -4088602.7672604816, -3541331.644716751
744, -3172447.4623407642, -4190178.98733811, -3533567.2450392474
745, -3161062.459388647, -4045395.527737921, -3516542.448491842
746, -3174835.3547291546, -4119564.8417456625, -3552771.3561109216
747, -3134955.8465267853, -4178692.003590365, -3524008.227741388
748, -3155711.2941239686, -4007897.7476317165, -3534005.4290624624
749, -3177561.330969945, -4105822.370207237, -3555701.9740466746
750, -3216192.881087728, -4318916.996376331, -3569466.6111839404
751, -3194810.77210247, -4247921.574496852, -3561397.542165881
752, -3212947.910031607, -4235445.681170098, -3562332.7655189983
753, -3207744.4800979253, -4097755.5182329025, -3554349.9124986907
754, -3203496.176850357, -4203734.099515717, -3558976.362220332
755, -3208456.8927669097, -4193310.8867373634, -3559349.633219173
756, -3232657.918741266, -4121995.0030527227, -3564580.5299760685
757, -3204435.1286609024, -4206412.845145631, -3548181.97907393
758, -3153333.6894527753, -4112300.4218580713, -3530099.602183575
759, -3143760.7960286336, -4012647.8226795075, -3532812.211776564
760, -3145316.312205182, -4129625.5718130358, -3521462.728614889
761, -3191919.528004647, -3975312.0057665315, -3513373.5028147087
762, -3210593.2783806887, -4010713.692298216, -3501789.3419937533
763, -3174174.0130466744, -3963267.5584934773, -3522233.7889705235
764, -3121847.609211704, -4084533.971672479, -3515971.1147935647
765, -3155061.2646887316, -3987914.4329436077, -3486587.2908509606
766, -3163380.859274297, -4069021.287714863, -3517406.206774013
767, -3153816.5733488346, -4218024.409523262, -3525196.074211784
768, -3167277.8012754535, -4097774.75487554, -3519685.677550229
769, -3129396.2189626843, -4062952.8677486433, -3533877.9589897124
770, -3141198.775926609, -4130394.5916702924, -3535362.8600559034
771, -3243161.6943586795, -4136856.568719617, -3549702.110479762
772, -3178345.399540208, -4093342.17516429, -3565119.202322922
773, -3200846.1351781855, -4107535.478094817, -3592681.8512800056
774, -3267311.7118975343, -4166009.5775921997, -3622439.603568263
775, -3252100.008107449, -4081790.4585829694, -3625800.110695567
776, -3216928.6362836524, -4114416.0307774646, -3625578.524760665
777, -3285070.616221217, -4304716.328403334, -3636031.813415818
778, -3264881.5306555317, -4225844.608361039, -3643564.052043704
779, -3145169.130313157, -4208218.695277533, -3670338.445602654
780, -3147508.0396274477, -4252186.731656446, -3697331.66619621
781, -3242115.043057511, -4248774.892279004, -3693055.2807281003
782, -3267746.751775996, -4228762.382008831, -3702308.3589089545
783, -3266749.363708306, -4281152.39797104, -3704575.8263901747
784, -3320069.868350225, -4357236.321232961, -3706620.5258199736
785, -3329819.2315059733, -4298258.51820484, -3729349.0050656134
786, -3144779.1844634484, -4312131.826635244, -3727357.8673390313
787, -3352951.0574520337, -4569471.104938792, -3731908.966308958
788, -3377812.60966776, -4251513.178139131, -3743637.904733341
789, -3393153.832035925, -4377818.031396875, -3757642.4090604256
790, -3393806.7423200165, -4421715.425513289, -3789721.4713504105
791, -3397551.379814134, -4483903.999153496, -3787699.852278075
792, -3374811.1288964464, -4371220.87901145, -3780655.872865964
793, -3329496.540594655, -4447988.099425746, -3799815.595169797
794, -3411541.854863247, -4377681.669679719, -3791181.4224424968
795, -3380470.9146171818, -4299469.78847197, -3783540.5231759003
796, -3324990.360922163, -4281224.012705572, -3783647.6797033167
797, -3302160.287307119, -4524720.664118778, -3763996.919435994
798, -3343806.632849592, -4238914.446058478, -3743469.8547036066
799, -3342055.4910161905, -4209046.46697429, -3719227.220206311
800, -3293864.2467032135, -4306801.58529307, -3731595.2670193254
801, -3339826.979108172, -4421008.720284881, -3741610.921686458
802, -3330902.023491413, -4406456.027238946, -3766728.227978979
803, -3374579.6649878924, -4237612.859179299, -3728685.5497827465
804, -3285288.0338237383, -4341086.803158846, -3697989.7051205365
805, -3357724.411530598, -4527912.569266653, -3669964.698959407
806, -3328085.1574664707, -4186693.1826580297, -3661153.0702977106
807, -3319764.6373793148, -4112879.096603073, -3634201.3981944392
808, -3284225.4673621873, -4221242.478984141, -3636981.396828619
809, -3320066.2625889685, -3986712.0979885254, -3644231.59981679
810, -3281365.376024053, -4076889.825852601, -3633866.712703633
811, -3314899.85652467, -4082542.3424993185, -3619060.6160936696
812, -3355970.7342572236, -4090227.1277729096, -3622331.1260775435
813, -3339365.6220913385, -4063764.4919065135, -3621507.452745062
814, -3291344.4035604037, -4077866.4604748534, -3643441.6485356293
815, -3248203.3774967818, -4116521.557646456, -3635857.3774885014
816, -3303077.6929787626, -4074082.0572461104, -3622081.8807583572
817, -3303235.9247938595, -3985025.645913909, -3618631.1157584325
818, -3317098.9199490044, -4235133.58833814, -3611294.548605003
819, -3284905.968495775, -4045028.444272872, -3602952.391523241
820, -3263688.0160826477, -4066020.805026332, -3606423.4035111237
821, -3301981.2884224984, -4071720.3206329374, -3587537.6308421376
822, -3154032.117923509, -4256301.530843519, -3595098.6843268597
823, -3236228.8203501296, -4070831.6749821845, -3605796.397347138
824, -3219061.1766255605, -4184303.8140395163, -3620050.011341162
825, -3218375.9064826467, -4457284.964516694, -3610218.854300644
826, -3173337.83127732, -4206678.307579674, -3586748.95905244
827, -3234454.7294870783, -4218088.767283349, -3597039.1358283763
828, -3282639.4922315166, -4222742.58745112, -3601194.4999070014
829, -3194302.051414015, -4073940.7096629636, -3612200.9450917207
830, -3247498.9982705326, -4137026.2590031214, -3594870.5752860014
831, -3235716.1887208875, -4129753.024375437, -3577494.2833091286
832, -3249503.481491921, -4092813.196895818, -3588468.9537507314
833, -3279550.8100822396, -4098225.9902231935, -3590384.9340505945
834, -3287262.8253989164, -4393995.390927906, -3588674.5633561737
835, -3187494.4046933874, -4165826.3691436276, -3629560.757545233
836, -3202124.8538293485, -4441195.992848933, -3654347.365348338
837, -3247791.1770234825, -4295703.399210342, -3656319.4204990454
838, -3230464.7553370604, -4215874.3250867855, -3668487.0623149252
839, -3297359.8470889134, -4337665.00619111, -3659223.1245130557
840, -3271979.93357172, -4216788.127746497, -3680444.105918452
841, -3284267.934233887, -4484772.280508058, -3707559.0420875386
842, -3367796.688628707, -4349605.187777244, -3729092.079612217
843, -3259752.2762028296, -4416737.068547164, -3739630.063478604
844, -3202663.826776122, -4271827.301735605, -3744855.033013668
845, -3227436.0774140186, -4438089.264359773, -3739154.375073097
846, -3216863.341321606, -4206466.958318057, -3706717.771622157
847, -3214286.1566488743, -4454856.796047802, -3666478.658796576
848, -3109993.599978967, -4325572.503074891, -3628517.552846
849, -3249634.759695602, -3942116.398054962, -3602530.5694191135
850, -3271156.6111502447, -4095365.7792868232, -3611741.580114642
851, -3206219.934811404, -4058631.150860481, -3587480.6302789315
852, -3226161.034443037, -4082187.3973008636, -3582251.5398598397
853, -3219961.5036150734, -4042032.7441483904, -3584665.498484728
854, -3227105.351278414, -4319651.474561391, -3560235.2361692702
855, -3259215.189057399, -4087682.180183663, -3550388.8859642474
856, -3224247.5600264203, -4059294.0564707452, -3540860.312729922
857, -3180980.942376174, -4066378.8147387467, -3540706.978758022
858, -3195800.1752551645, -4027942.9906667015, -3520636.4336226853
859, -3234997.9693626836, -4107076.763865119, -3545831.725875191
860, -3247027.101982598, -4167684.089057233, -3545563.380572483
861, -3253687.157774831, -4093184.489937977, -3559910.5221786825
862, -3242004.0141292913, -4140070.3940129867, -3586540.574733964
863, -3278982.6603449057, -4252827.254135619, -3584711.0208044797
864, -3311316.3024896686, -4264996.518237809, -3642549.862469664
865, -3320865.2673020773, -4297463.03172463, -3646213.260651423
866, -3223891.8296615486, -4108135.755910177, -3627061.753481863
867, -3235582.8305627117, -4042897.1817225097, -3661064.8168380205
868, -3307772.639870689, -4291346.542869166, -3670708.748057336
869, -3351798.0990802497, -4380534.598401892, -3677795.074780692
870, -3295420.9625885077, -4199520.217086906, -3691218.478871432
871, -3295471.4975226554, -4220882.651581281, -3696526.3749618684
872, -3342183.5379132223, -4418570.2303797435, -3732273.1576781925
873, -3248272.693675936, -4358593.020906449, -3743658.5721282186
874, -3243987.3346324842, -4592057.851994233, -3796150.671972021
875, -3334982.973019218, -4510803.82641704, -3785170.6346471603
876, -3313064.8642098727, -4542176.298517125, -3798348.735730877
877, -3323402.5215861727, -4510220.706036636, -3836831.282851339
878, -3386558.6490196562, -4513342.435612234, -3810369.890763053
879, -3312805.1835891833, -4739541.621053781, -3828903.409107179
880, -3437945.251883254, -4474765.044764988, -3823030.908264914
881, -3384275.794470194, -4480850.855040631, -3803507.334057987
882, -3424864.9906270998, -4572637.236088392, -3829911.7443235554
883, -3385427.138279331, -4507766.723726389, -3840197.0276938383
884, -3313826.657210185, -4587902.078191021, -3822891.1681122216
885, -3405079.1822097, -4541892.115544101, -3843607.194636408
886, -3388962.858628181, -4467879.593168716, -3861607.2656300063
887, -3434319.967676755, -4458546.648501582, -3834530.34002059
888, -3383222.163522707, -4468090.461782411, -3829458.5504287016
889, -3361422.6540362965, -4438002.574636351, -3797089.955312576
890, -3353206.62596683, -4368777.9664276, -3778761.7283326
891, -3393413.013536677, -4345847.722235037, -3737781.916359046
892, -3365971.6100926492, -4279317.6793349115, -3717820.3316872534
893, -3358186.31156685, -4463286.265250919, -3700586.8014987833
894, -3280405.995777918, -4200528.567731853, -3691421.385894144
895, -3209921.02599056, -4185617.7376379753, -3675548.086096433
896, -3253632.4871447715, -4333895.853716275, -3646367.6561759096
897, -3241118.9811599758, -4226998.371577363, -3604103.4882840165
898, -3182395.3472507345, -4087244.993177225, -3540552.6154481717
899, -3230586.7423113524, -4013142.172177337, -3513753.1808583564
900, -3202478.8725811536, -3960626.720901088, -3474883.489859856
901, -3143387.3186305976, -3793979.687229435, -3450111.965972285
902, -3127719.0344749214, -3896870.2213893253, -3441691.902477959
903, -3151221.9926989437, -3812631.3459110414, -3441547.9683836643
904, -3187038.863833747, -3764060.0713147917, -3436615.5086111547
905, -3165655.1403803946, -4101313.295530335, -3435132.926292867
906, -3159144.545265635, -3803411.6120193624, -3428840.541759135
907, -3172708.7473350707, -3975768.9446339495, -3436859.210080951
908, -3097590.434556049, -3747561.9059222974, -3413413.758617118
909, -3128232.5783204786, -3799177.2286872272, -3420783.8303236365
910, -3114629.7670635595, -3887975.122802032, -3422714.7697715
911, -3051484.1335329404, -3822796.558608042, -3418660.93661507
912, -3148717.765724559, -3889231.974981091, -3429059.92667696
913, -3167555.813424244, -3975806.489069054, -3420632.252055937
914, -3116572.519767692, -3921632.8515273724, -3462170.646066908
915, -3200019.5900534075, -3935625.840412705, -3466299.7503204276
916, -3141979.262752458, -4046361.093223201, -3484772.342389415
917, -3193148.069511223, -3939085.624224323, -3487711.2000884707
918, -3224707.3074652506, -3970460.6443849364, -3528542.9826069437
919, -3155396.384569122, -4073135.5074922172, -3524569.0562456986
920, -3195708.997095086, -4060427.809877539, -3552129.421857823
921, -3208626.808452892, -4052202.299348769, -3554323.5435955515
922, -3189487.112131536, -4089504.138677992, -3544014.309366676
923, -3241124.373791496, -4208229.991913012, -3574138.892700361
924, -3244309.492086562, -4093925.866605115, -3588534.722939991
925, -3237867.6996857426, -4094728.25787789, -3593561.7947440683
926, -3232819.533567516, -4258800.244658241, -3607283.412937212
927, -3223736.606483644, -4183554.5298762945, -3606415.1212650775
928, -3247426.9925511614, -4174476.445364585, -3646218.1401942703
929, -3309317.903572812, -4248481.178158434, -3705487.700006771
930, -3250737.7895938517, -4427180.704048813, -3730839.604801591
931, -3322375.322933406, -4408661.318017815, -3718877.8131523794
932, -3345521.976081167, -4219557.393655628, -3715489.4325061506
933, -3336436.3440632075, -4183121.301452891, -3709862.880505132
934, -3380219.6329128942, -4196784.904244039, -3738436.849187235
935, -3402564.909827481, -4366994.14394162, -3793347.8482049378
936, -3358092.1797899427, -4339502.951044408, -3785972.9977022302
937, -3348541.779846266, -4297972.95075391, -3796269.923338812
938, -3346475.6955582076, -4451499.705938759, -3787025.1772872326
939, -3395688.118303706, -4404120.63779782, -3804295.8885347317
940, -3370664.2034702627, -4385530.887611421, -3778695.6573497485
941, -3381679.31657833, -4324001.191093273, -3803382.3998333197
942, -3370238.7783721196, -4305972.73372311, -3816654.472241727
943, -3365667.9754915396, -4364868.719188533, -3830896.481404663
944, -3455725.8681031303, -4564924.116046465, -3861125.2941583837
945, -3459475.1169364084, -4423091.202287368, -3850635.969458209
946, -3451031.054224196, -4425946.765744653, -3869686.4567935485
947, -3449591.16608655, -4449359.965827612, -3865689.0806897515
948, -3502023.677504026, -4497734.15047595, -3859962.5733201024
949, -3391538.362900249, -4399807.605816461, -3856213.2368099224
950, -3440323.953413, -4459925.759359624, -3861550.34655007
951, -3507331.020186761, -4474595.613224616, -3873049.6621780503
952, -3510215.272256865, -4564485.399681647, -3910710.873230441
953, -3489936.965696428, -4677831.093143564, -3929314.9201092394
954, -3480290.970597001, -4595794.936974764, -3945295.3468689704
955, -3497244.912585555, -4623369.908938132, -3935520.887950513
956, -3387556.322946816, -4461331.857481, -3927077.4281291408
957, -3538114.10083654, -4564907.861979361, -3963565.10349392
958, -3490101.049917314, -4479007.0081472015, -3928238.1224413556
959, -3375834.2774975905, -4571238.148897085, -3920593.011512308
960, -3497820.1717008944, -4575072.357195356, -3907397.7012442797
961, -3483395.7844797033, -4822643.148486401, -3872980.545239382
962, -3471708.75961845, -4437685.6012423895, -3803417.829664921
963, -3436771.071698592, -4151715.6942601753, -3726723.9803811824
964, -3410651.29399027, -4088907.3894441267, -3704116.9783286983
965, -3436293.212467521, -4043667.7465680987, -3691595.0267112637
966, -3382493.677941453, -4052870.6140734656, -3680422.6976993973
967, -3388948.482231192, -4091874.816434455, -3656511.4986722413
968, -3320240.5438271617, -4112869.6814161716, -3646143.015629872
969, -3256192.5841037463, -4021907.0687018093, -3641069.844977073
970, -3283372.0445668064, -4012282.051963266, -3606338.195581941
971, -3266572.3849346824, -3985758.7635604255, -3557679.4285656973
972, -3233657.9107036777, -3983492.467394009, -3562701.303497419
973, -3249637.167546693, -3942311.147488286, -3545487.806164293
974, -3193711.869263855, -4120076.1014261805, -3555091.1580778
975, -3224632.7597965254, -4050653.100847875, -3542268.5704237698
976, -3199069.0443151314, -4033392.554453741, -3525680.420420169
977, -3244242.505378654, -3958182.265026426, -3508948.66878614
978, -3240715.3006743873, -3905464.9506412847, -3528664.0645465245
979, -3274947.6932162456, -3991608.6598018175, -3534222.51641522
980, -3153771.801169941, -4002902.433626174, -3537522.8459008625
981, -3245292.5600336445, -3952492.4607533077, -3534291.793210827
982, -3136816.2523692576, -3960309.52258859, -3532589.7428061906
983, -3230941.721380932, -3869541.243144093, -3527829.037927383
984, -3250846.3739833627, -4183584.786982189, -3518831.9990512067
985, -3255537.105344847, -3948302.5117272437, -3515505.670020168
986, -3190459.333768803, -3972131.8734070426, -3519005.486750047
987, -3180584.31972071, -3921869.9060733253, -3514278.1415234758
988, -3184638.3680205834, -3866939.8004091755, -3521405.759611804
989, -3172223.7545735305, -3836366.561941484, -3503679.0282305195
990, -3155283.948865591, -3967316.003461254, -3495395.279650922
991, -3121067.2367234216, -3912651.401496295, -3458828.1665813075
992, -3144794.73178259, -3979000.4817102347, -3451063.1479494628
993, -3078508.3724184018, -4034585.7199969376, -3433097.474619487
994, -3076072.0740756267, -3775553.6826426717, -3430804.4918213855
995, -3111334.257811601, -3733763.3956832145, -3406684.692459238
996, -3006049.175346145, -3991765.6046690075, -3397558.4634271013
997, -3002122.875285801, -3770004.301091099, -3376055.874179608
998, -2972700.2008447386, -3878395.899708027, -3361234.85491994
999, -3113128.5235011773, -3719588.7598242, -3357841.5468224916
