0, -2067408.5801282492, -2375703.459576358, -2214702.125489973
1, -2067943.2794136666, -2371101.654709442, -2210648.1437574043
2, -2042259.1974430867, -2400653.6199425966, -2211909.7000637045
3, -2033448.2729958664, -2368464.692096115, -2207070.835216321
4, -2069145.2535526874, -2374335.7086033686, -2210846.7741689566
5, -2032980.295579574, -2360540.9583957717, -2207056.354109088
6, -2063755.6294264249, -2371184.379580577, -2211684.331270118
7, -2021462.1047924333, -2385284.9480806417, -2201511.615353535
8, -2052630.900826821, -2390315.6839025216, -2210764.88967022
9, -2013528.830005724, -2395327.63721889, -2213699.4134509726
10, -2061006.5004759878, -2368849.900512685, -2207650.9673217027
11, -2042631.026987074, -2361760.365412546, -2203342.2335001244
12, -2021464.8920117682, -2330259.7466919743, -2204458.4989041127
13, -2050209.3097397792, -2358609.4514999148, -2205801.2109403554
14, -2056335.641317376, -2395911.171636929, -2214340.056825578
15, -2038171.4532264033, -2357637.887878351, -2205506.121977053
16, -2053465.324113835, -2356723.6817110004, -2200858.384897142
17, -2038684.3074020245, -2338795.193113897, -2198693.519122981
18, -2026994.6389919887, -2350957.1186323087, -2202854.5312670832
19, -2047999.4033237514, -2370529.9955211543, -2202932.50361114
20, -2015734.9471340715, -2355219.04899909, -2202688.872110549
21, -2002409.2985616927, -2400516.432854064, -2211304.8483642084
22, -2047286.1663736324, -2354297.6594053446, -2209469.1768904305
23, -2005402.9095121287, -2393639.2204252267, -2208124.360755599
24, -2070214.529759542, -2367113.458170758, -2214775.8606630405
25, -2061091.7234620033, -2349708.3465389353, -2215274.1858847872
26, -2055897.4898009389, -2362590.356333334, -2205368.5343556707
27, -1999131.5358475763, -2392322.4948184853, -2213886.168355208
28, -2021305.8275653762, -2392183.8129705647, -2212169.323331001
29, -2064467.4758161427, -2395989.9180098725, -2211506.8177664434
30, -2046382.6233671862, -2371388.236621639, -2205665.716530647
31, -2040244.0366163705, -2354386.240013928, -2205048.417754518
32, -2049274.566228941, -2407806.8569453023, -2210003.3347622394
33, -2045924.384130884, -2369868.254993873, -2203569.5637754076
34, -2069900.8055846365, -2368462.5244255653, -2204511.612331312
35, -2017733.577110589, -2330982.315995914, -2202842.0625269962
36, -2056148.7188690552, -2348029.807660579, -2202800.2319522197
37, -2034042.2831508182, -2369959.685221414, -2203383.745531919
38, -2012234.2024041247, -2399755.148827306, -2201350.157889638
39, -2053427.8576174802, -2377324.625467683, -2201435.651601757
40, -2067791.5362555105, -2379426.524211115, -2206966.3907648707
41, -2058135.946775454, -2338585.8193025356, -2209495.851806474
42, -2029361.6384447506, -2368353.583218149, -2206297.8892437667
43, -2019063.9993392252, -2375424.165074711, -2206053.2188340835
44, -2034410.1720557315, -2379165.234191844, -2211770.303326899
45, -2050576.2889616652, -2353297.481625234, -2211070.7708811727
46, -2043371.8547404753, -2374976.0892057884, -2210035.9398980355
47, -2040115.2909359927, -2382153.357465565, -2205163.637885273
48, -2073510.853254049, -2338991.027767807, -2215414.654759721
49, -2009731.5429075188, -2376149.775803228, -2212514.7010686323
50, -2079306.4021986565, -2374813.0421883534, -2214666.5739969346
51, -2042451.9831526955, -2354091.7233155128, -2209565.622067318
52, -2062763.5272301096, -2359675.770993957, -2213123.8891433347
53, -2040659.8493016865, -2362453.828413561, -2209064.7474962063
54, -2038328.0098814815, -2368948.0130298953, -2204236.4179639025
55, -2059450.275219916, -2345412.356705027, -2203673.731429465
56, -2076073.9952443922, -2351130.5367781, -2211828.49590528
57, -2024371.462401044, -2355964.262059445, -2207157.0208572038
58, -2003698.3941356293, -2354028.6894574026, -2204104.384204662
59, -2041738.5971079734, -2401744.5716118026, -2202697.189073194
60, -2045390.2076422675, -2352172.0067154057, -2203227.9366070814
61, -2059360.0307134576, -2344307.8569086, -2199895.4044042206
62, -2032543.6803660854, -2342269.996892043, -2205322.9428404197
63, -1982556.3553823787, -2370891.269065176, -2210490.9563940736
64, -2057974.8508578157, -2344268.2048029155, -2209528.1142777647
65, -2035595.529706271, -2391728.0737147126, -2200359.32008076
66, -2042402.6167993844, -2415115.077759916, -2201878.04859989
67, -2007358.315568169, -2361797.40416668, -2199410.3343299446
68, -1990560.0620988132, -2376624.703751747, -2212987.7267233115
69, -2045138.752637084, -2395680.9673001245, -2210127.8571343087
70, -2009288.3884055903, -2362518.6081128097, -2197431.812993428
71, -2027661.0121642943, -2397738.3483893797, -2204200.0631789383
72, -2035903.800714706, -2374725.7017953247, -2198740.251130953
73, -2022868.9367192201, -2327927.565622063, -2196971.872369325
74, -2016119.0893968153, -2376296.4061903125, -2208059.9558076183
75, -2057989.0140402857, -2397035.5109427786, -2208967.287681548
76, -2039520.9031008664, -2393530.6783822062, -2200630.4042777796
77, -2055774.6187480222, -2354780.887200829, -2210039.637015661
78, -2044665.0835658293, -2364521.9666959937, -2208992.5356830996
79, -2037101.8478886741, -2367219.0250253966, -2200786.1244914746
80, -2043473.7161379317, -2359680.714910451, -2204304.2500036885
81, -2050887.6975783948, -2323566.6072073043, -2203866.603138839
82, -2016948.2166310577, -2401579.781171775, -2212752.9175425936
83, -2046903.3355647875, -2349437.5684888773, -2203941.463112545
84, -2033577.8586681364, -2349756.9142023907, -2201966.206238412
85, -2075419.9164164965, -2357527.362580552, -2203414.6699786875
86, -2007722.1646001353, -2382689.822267888, -2211379.027838725
87, -2029244.900758891, -2354284.7930624043, -2205172.7060911553
88, -2053782.5658485466, -2362953.2275944506, -2205597.332182579
89, -2046836.492257753, -2368215.7393102497, -2205245.5203911113
90, -2057696.7590013053, -2414205.451566359, -2211125.444941599
91, -2059063.09528059, -2412164.7438733913, -2212867.0811301363
92, -2050929.9687180612, -2398397.600164962, -2209211.9301389493
93, -2012906.461438042, -2326254.2868157323, -2204372.208939127
94, -2024635.2640540316, -2350784.1234164974, -2200789.531282707
95, -2046493.967340421, -2419885.9049447766, -2202656.0097064725
96, -2072395.0597507148, -2357365.291749609, -2209776.104869082
97, -2053238.139216329, -2398195.4642859483, -2202480.0831207405
98, -2045119.310903816, -2381662.332916976, -2208694.2874292918
99, -2018395.8901093728, -2383977.9334547515, -2204352.0203269213
