0, -1621351.9350892, -1895157.490021082, -1753048.42237626
1, -1583515.132743345, -1871182.261084699, -1722732.082515349
2, -1606164.1419143612, -1820973.154415554, -1710306.1887088104
3, -1589024.7535961014, -1840133.2775512855, -1703351.2037669662
4, -1559568.5965737365, -1830905.8113190844, -1686006.2558033164
5, -1566200.5671897526, -1822188.8842880935, -1677011.0997654274
6, -1543286.1256736736, -1810039.5822476945, -1666058.650368321
7, -1554066.4495348735, -1805997.1086853975, -1651063.385829398
8, -1500052.841227929, -1756500.6725359056, -1641799.8004631614
9, -1524281.8278867786, -1785500.2050070819, -1631733.2496507554
10, -1529820.4312204106, -1774465.4153255727, -1630492.6006111656
11, -1491701.0172907019, -1761438.4956949428, -1622565.6494677537
12, -1506132.3754160802, -1709854.1369683933, -1616524.9675049991
13, -1497453.590397601, -1760939.3036661, -1613571.4004272008
14, -1484802.028373239, -1744337.058721512, -1609478.8248823076
15, -1497211.973262359, -1746669.2135057086, -1607165.869823969
16, -1450265.0366198067, -1726333.1762846299, -1598973.747349296
17, -1441173.985437708, -1742030.7744841073, -1587617.2903516407
18, -1453301.8601831216, -1710818.0905281357, -1582979.9783314988
19, -1461747.9868419396, -1711233.5904354192, -1565799.3274799914
20, -1432617.449474365, -1683199.1004493416, -1557160.0342800107
21, -1422752.3396697403, -1722927.5875814399, -1539921.2485716
22, -1421973.4386484015, -1651967.0618043607, -1530224.0574001644
23, -1421371.8227536867, -1650088.1166858699, -1514473.259362123
24, -1359254.195413752, -1622629.429079402, -1499615.001929206
25, -1354497.2442596534, -1596434.1093162105, -1481533.9711725446
26, -1367212.4070611899, -1622476.0612786016, -1466989.0909904249
27, -1363563.4062384483, -1553715.1256426782, -1452569.1187104858
28, -1335454.9726733854, -1552224.1737023366, -1436484.920373901
29, -1336322.232620481, -1523548.9606951068, -1420186.6606059265
30, -1330363.099642698, -1489731.9592944484, -1408299.6695979114
31, -1326229.0330832552, -1487685.484997878, -1401527.3596405417
32, -1321810.557348503, -1558012.1521550743, -1398629.1762271037
33, -1303421.9546604878, -1489310.344768312, -1390581.794740398
34, -1304371.3837592916, -1477266.8037859513, -1386221.5022084317
35, -1282307.6176486865, -1476012.8470879314, -1377596.8905604463
36, -1285883.0952543102, -1493688.6703616001, -1365770.1350054494
37, -1273967.4721938788, -1510292.0319540482, -1354460.3304755436
38, -1271389.1141391927, -1485175.983118208, -1354456.7242255735
39, -1242997.720501614, -1447714.9299094249, -1347755.7400784867
40, -1242542.921291921, -1463500.0184641622, -1344614.358300967
41, -1221832.3042519242, -1464652.5330143715, -1340546.1777890702
42, -1253319.9544597622, -1454177.8053758263, -1336839.754126605
43, -1229067.0886479276, -1468168.7413241582, -1337854.3834043937
44, -1255781.20476701, -1451858.3800903577, -1333187.738986754
45, -1257883.7588423293, -1432533.854032392, -1336726.4929938621
46, -1248747.3733872746, -1444687.3193614294, -1339362.3111149622
47, -1222022.2023273737, -1437064.2603401707, -1337531.2233209237
48, -1243530.264775926, -1441344.0491776012, -1343018.0300282808
49, -1256457.0935491875, -1433255.303623078, -1338202.5592880219
50, -1229404.1563048468, -1411129.903359632, -1327849.9792701923
51, -1243644.5269393756, -1491654.8263767697, -1332147.629935135
52, -1251487.35206303, -1450256.028240842, -1340077.3137005009
53, -1229846.4442052373, -1456028.1933806634, -1336183.0196521224
54, -1218123.223599945, -1460310.2714398305, -1332596.9683655952
55, -1213448.5600341407, -1459316.5374254966, -1334769.8771336796
56, -1214829.3627201614, -1489605.2343077362, -1336132.8778902655
57, -1227760.1839798626, -1438238.7249924943, -1326741.3915951594
58, -1208728.6058914263, -1501989.2040065515, -1316687.190532536
59, -1218791.5893056907, -1422146.7793041803, -1313473.2046388579
60, -1187745.878664826, -1426132.3157977262, -1302720.1744668698
61, -1199625.8033498283, -1410449.8440743762, -1299015.5123959172
62, -1190403.8343805538, -1389570.6150073989, -1287282.4457411417
63, -1190395.4122310858, -1420112.2139734589, -1285369.1326313966
64, -1191369.122162629, -1378614.284891315, -1275181.1459455902
65, -1193623.0873107517, -1387022.4572483911, -1278387.9895393276
66, -1170185.163332497, -1408775.92556853, -1276440.9052610053
67, -1181296.1092954231, -1381779.6702374495, -1274124.338408955
68, -1150216.997440574, -1368053.9473426007, -1270582.7324829926
69, -1168661.6842149238, -1391638.0652322464, -1274084.141597956
70, -1151512.0278054853, -1431033.9028331025, -1275329.847603418
71, -1148574.3498064606, -1403510.4228063123, -1265745.0734589887
72, -1170290.4877043895, -1403387.4249152371, -1268102.195204601
73, -1160408.0216513558, -1400009.955126751, -1271994.8551718942
74, -1170341.3103754378, -1428621.480912972, -1274847.261923903
75, -1187033.0788876433, -1363952.899026021, -1267813.8901297622
76, -1176387.6060336435, -1400370.3490689406, -1268102.8403541527
77, -1168670.0391305005, -1380260.8184159296, -1262335.470141066
78, -1162920.8326353414, -1392815.3662779396, -1260950.4901141913
79, -1175994.3069563755, -1372690.4507698838, -1264084.7231586433
80, -1161514.061137807, -1381984.206418007, -1267149.23775001
81, -1159649.6300331864, -1409897.8098575356, -1264869.594182664
82, -1167039.8620843673, -1430118.0617317758, -1267478.114999462
83, -1175538.6067620802, -1406359.6534490818, -1269326.058610908
84, -1164920.2514131959, -1402392.708433162, -1269245.4787956264
85, -1152614.9964835052, -1366805.5160135517, -1264956.2743856546
86, -1153909.5631700163, -1374734.8200754256, -1260124.4347742223
87, -1154006.2168689577, -1389237.9181285193, -1253839.2172010548
88, -1150743.2235246934, -1404263.5467807716, -1256363.3345580485
89, -1145248.0354969942, -1379200.1130475707, -1248385.7485940915
90, -1148019.7033237512, -1380361.0167100623, -1243921.6521876135
91, -1149631.6282101737, -1423684.894212539, -1237389.1240740018
92, -1138740.03417215, -1360400.642099538, -1240691.1261181103
93, -1110252.6714818405, -1360960.6316429616, -1237093.4755700824
94, -1134672.6119802934, -1344673.651413511, -1229316.1230626078
95, -1141961.2672349773, -1320170.027316139, -1231026.4366073727
96, -1130648.8981348516, -1356369.4909127038, -1230274.975333406
97, -1147394.4903555403, -1336022.5661917406, -1236002.7899916316
98, -1142942.6126590103, -1355528.873421279, -1234324.3377054236
99, -1121157.634854549, -1354140.6981240218, -1233533.2302384786
