0, -1646891.5799672198, -1879947.9891398, -1776192.71942489
1, -1639962.6132766146, -1896365.6196724186, -1767564.1498009497
2, -1626242.0785530417, -1891822.1208979478, -1771056.9074812268
3, -1662453.9894377969, -1890451.7542068176, -1771995.6524899076
4, -1631673.6178304122, -1879788.217090845, -1770073.512091508
5, -1648849.8785408095, -1891289.717498986, -1767120.986324797
6, -1647196.7924328588, -1876314.9039049079, -1766619.974207635
7, -1624052.2241674145, -1916531.5815180428, -1771707.8555820098
8, -1632226.1264343518, -1951558.3902097945, -1776430.2577012326
9, -1644149.3875707919, -1930708.629613364, -1774750.579641749
10, -1652667.5336799575, -1910518.1085989494, -1775176.3656637468
11, -1642132.7152862211, -1893540.9298897968, -1772020.3801699646
12, -1653785.073638541, -1897884.4367477135, -1773180.177788866
13, -1662595.9682287914, -1899992.9483868442, -1777763.9633167796
14, -1640001.5147222604, -1904746.5471881302, -1771855.107552708
15, -1658852.8869442616, -1893890.210604838, -1774512.3919088151
16, -1629274.8387739141, -1893962.9727895427, -1770083.7011340563
17, -1625025.8821096874, -1890020.6465211487, -1773052.4755982088
18, -1639394.3181680262, -1890849.5134105836, -1770665.9073578378
19, -1652287.8021936344, -1893303.7614013175, -1770201.861477218
20, -1609214.3525841315, -1906520.3622152796, -1776319.64149796
21, -1640200.5249651321, -1922202.9948493438, -1776794.8914206834
22, -1625282.5628495708, -1894325.1344930697, -1773746.5872241836
23, -1607423.2024497774, -1908823.4409143724, -1769395.0936611432
24, -1647514.910506749, -1936771.092717688, -1775391.5606016193
25, -1647494.428782396, -1877858.516161115, -1768767.5056521439
26, -1641278.4097339327, -1887656.8057857794, -1768431.5555982415
27, -1639596.2107760718, -1907964.445348008, -1768623.8886414755
28, -1649393.0152111633, -1889839.5596007737, -1768159.5633185273
29, -1644345.4353710364, -1904318.0429287883, -1772633.4384842124
30, -1616059.4526037236, -1861490.1505295346, -1771618.352808336
31, -1641421.3735722038, -1927944.5029007313, -1772590.2403761067
32, -1634609.1828983973, -1909528.369408229, -1772938.49050598
33, -1652741.6556391853, -1918028.9830899579, -1768627.3587578058
34, -1617119.504561265, -1909084.0860298914, -1769168.0653276239
35, -1602562.0624295848, -1887031.8521833778, -1770971.1837814176
36, -1646295.01123273, -1910609.7578709596, -1769164.246348742
37, -1639078.502065103, -1926641.9717767062, -1771221.6922913983
38, -1632468.7780180553, -1911157.1565863988, -1772577.7541207722
39, -1660413.7832393905, -1879219.3398648682, -1769371.0319532582
40, -1620364.7297242966, -1890449.3796041142, -1777164.8093532405
41, -1636025.0448377538, -1901566.6993756643, -1768863.9177594827
42, -1635524.6166966911, -1902736.061046571, -1765193.0751049428
43, -1640062.9954321336, -1937914.5446153758, -1768572.6117063262
44, -1675947.2895585743, -1878047.7123591392, -1777669.9810690898
45, -1641519.8200732698, -1906684.2445419803, -1772433.1438424364
46, -1663468.1425384604, -1907853.125019563, -1780683.1004128521
47, -1637875.5701348041, -1945671.9319088776, -1772897.6341649091
48, -1642975.3254402769, -1880460.748088419, -1764535.640295015
49, -1618048.5677236717, -1863436.8250009432, -1768980.7140213638
50, -1636776.0122444315, -1885424.9398428272, -1772057.225501134
51, -1636961.292517795, -1880557.2746606949, -1771560.1547540599
52, -1660810.684177716, -1874952.310041435, -1773136.1164039888
53, -1648064.9254207744, -1917355.3774981499, -1771839.801572828
54, -1647354.0571031747, -1858110.3448291821, -1767312.9444461393
55, -1651096.1311301696, -1905999.989937663, -1771712.5091559957
56, -1660632.5761063588, -1898621.660038651, -1768088.738106152
57, -1595201.8656030984, -1892265.73810435, -1765596.9198921171
58, -1646618.0891072913, -1890394.5402137348, -1766641.5680173326
59, -1610938.801135914, -1889768.2224744605, -1764574.3680795936
60, -1625842.2773478443, -1890572.8799846862, -1771217.5699932717
61, -1660513.0624554434, -1891350.4525008793, -1772301.3988110286
62, -1635053.5465095628, -1878606.3515821877, -1771089.584138582
63, -1639166.043963945, -1889499.3843706595, -1773455.3825322571
64, -1645565.3959280844, -1897684.0931987031, -1772567.332278749
65, -1666289.746371823, -1883372.077391907, -1771415.3681752018
66, -1632707.270551027, -1904315.692446174, -1773652.628395669
67, -1632957.6175502057, -1903210.8511834983, -1775625.4604234463
68, -1659099.4060918207, -1900244.9312958769, -1767205.244293264
69, -1635614.8331254742, -1886209.0692400709, -1768265.4444884576
70, -1626635.0276881168, -1941906.904597607, -1764761.0273235922
71, -1647130.8657133249, -1897204.8782351557, -1768262.9913906758
72, -1668644.6877908818, -1885957.7084589442, -1775309.6368302559
73, -1633899.4623554626, -1883249.0912112705, -1773878.2081452452
74, -1631038.858181241, -1902189.2678286438, -1769395.177918106
75, -1642015.2896536326, -1874606.771702582, -1772047.1538871895
76, -1623223.78416554, -1891055.8028541286, -1768190.8504284893
77, -1642067.776048031, -1888653.5376715013, -1765560.1640976402
78, -1627057.0175855758, -1914944.0043293592, -1770845.6524862319
79, -1649165.5658787, -1890846.5442646523, -1770539.0625403987
80, -1632015.862600694, -1918056.6486176392, -1772463.3449810478
81, -1642344.3828112362, -1910044.7064805278, -1772685.83871837
82, -1662534.127489396, -1901719.4085933245, -1770780.8022416546
83, -1648056.5592337577, -1906299.9324297532, -1771637.0316260841
84, -1655573.7587457208, -1917765.2999838325, -1778206.6717282287
85, -1666748.7818974804, -1912633.1790610733, -1775748.5831748662
86, -1663382.6284115824, -1880207.849276674, -1774916.6628027663
87, -1637892.5612872378, -1884812.414476965, -1767404.648454526
88, -1665103.5192116736, -1885655.9954686793, -1769508.6497315555
89, -1621992.1524595714, -1912993.958698168, -1768780.0935042647
90, -1661971.976807131, -1889541.551116007, -1768605.3593267957
91, -1647144.899812241, -1888974.9378684978, -1772748.7144896598
92, -1634780.738334522, -1875047.3996119872, -1771021.2123850284
93, -1623447.3059436367, -1913950.3061641771, -1772475.6231807852
94, -1651669.5398364111, -1892755.4820337058, -1773000.5627952272
95, -1629192.2010818112, -1916001.544702645, -1767875.11722255
96, -1635506.4377951997, -1896517.1138365646, -1768778.1870719136
97, -1654179.7964747224, -1907272.8911907296, -1769445.6325222
98, -1611934.2765676707, -1885894.0592688625, -1770092.2041878807
99, -1620636.7513641496, -1912145.1699850224, -1778522.2059260453
