0, -2029763.9615354203, -2351400.1656577685, -2199250.5173794325
1, -2025277.9506912655, -2355018.947221812, -2184740.5689095194
2, -2048895.7358561475, -2326460.6354248985, -2179797.85803584
3, -2008260.1919409018, -2332426.911767651, -2178038.97621126
4, -2011277.5237338734, -2337295.273262961, -2167381.466742349
5, -2016637.626929427, -2342448.317530602, -2169672.8012511386
6, -2013023.4391937512, -2362164.9652308016, -2167557.629293746
7, -2036368.3648929633, -2348994.372584631, -2165328.5656941137
8, -2031919.0584581867, -2310473.8864671066, -2162788.8847690546
9, -2031908.0721532633, -2339292.8791721286, -2166473.101454914
10, -1984630.4020611402, -2328981.291368602, -2168645.156638978
11, -1988360.0093304543, -2309931.0913629076, -2166690.3349386873
12, -2011650.92679686, -2316057.621741821, -2165400.5378082916
13, -1987831.9891112037, -2296957.503922286, -2164182.0924408417
14, -2028141.188880512, -2298583.1315718275, -2162523.828211235
15, -1996085.251505619, -2313383.0159844323, -2160345.576709681
16, -1999476.654876626, -2313897.9314894453, -2157719.548158193
17, -1964950.8912132, -2303060.7238993784, -2161124.292249441
18, -1980124.2126218216, -2278133.2433203035, -2157568.7404729743
19, -1956564.7722501745, -2309866.763713545, -2162415.2009788402
20, -2016341.4689358003, -2340695.4548589094, -2167528.5798917306
21, -2024586.4420579723, -2303634.2853007084, -2159540.8481243267
22, -1993378.7418497694, -2325000.8866205844, -2164276.2950599766
23, -2019702.5762203317, -2328432.005375884, -2166665.435342502
24, -2023332.5440154462, -2351351.432243857, -2165190.638239708
25, -1939647.6944530965, -2318432.2522786413, -2166856.4750889377
26, -2006184.1581145236, -2327926.0708843824, -2161227.1972555285
27, -1990799.0177666768, -2303812.3326313016, -2165144.442050897
28, -2002583.9650123348, -2331704.1298464416, -2167471.144821801
29, -2005209.516206327, -2301139.2074534777, -2158405.7167597027
30, -2001398.1842232472, -2321200.4503156836, -2158930.3162300196
31, -1994772.402740243, -2326154.4561274983, -2166443.7436598404
32, -1998688.109812628, -2338549.0249255896, -2162043.781843112
33, -2002495.1522629694, -2342858.5785496617, -2161731.2719210978
34, -2004581.3397223838, -2345573.8115530275, -2168621.6099717095
35, -1996051.3424791656, -2340643.3612627997, -2166811.8026365116
36, -2036964.6661341796, -2353669.2650008206, -2163919.538901507
37, -1989066.5479027685, -2328593.609754449, -2163926.211284056
38, -2000687.4247438507, -2318672.7548479103, -2165047.7833490144
39, -2001654.89984971, -2324113.0589225222, -2168934.1449785396
40, -1974118.430618254, -2307157.2275406504, -2166428.748979667
41, -2014145.8779582274, -2305796.0341932247, -2169797.635799803
42, -1948233.9072091682, -2322408.5286667263, -2163887.9666661844
43, -2002653.403675721, -2317268.6246830625, -2158173.434125599
44, -2027831.0373693923, -2311266.1439797534, -2156649.202324232
45, -2003055.9333273326, -2307906.3206651653, -2158608.2815409624
46, -2034286.86724112, -2316498.718376455, -2161094.3745840015
47, -2021162.2486987626, -2313215.229360976, -2164372.04565622
48, -2008390.089178523, -2330176.6351102353, -2164986.4588240786
49, -2004044.5125267762, -2325412.4757017684, -2163794.4019722873
50, -1952462.1016604323, -2317736.131377065, -2162926.890196867
51, -1994745.9261062033, -2348524.725437064, -2163982.081767703
52, -1965635.1232949519, -2308454.0668698903, -2161954.0459541073
53, -1988647.5582133122, -2332079.9321578722, -2154121.8662590818
54, -1991432.7185085723, -2340356.803394659, -2156679.3680389053
55, -1990055.1782737281, -2337283.155681564, -2154398.9350360017
56, -1993018.2313908772, -2326408.261509992, -2158620.8136203717
57, -1987636.9933930943, -2348663.650177151, -2162241.5054303203
58, -2016709.4396950775, -2329160.8780915067, -2156794.1307081264
59, -1997694.4758769246, -2307491.890689317, -2157021.528038188
60, -2001291.0768947103, -2324899.5905216355, -2155207.2061917554
61, -1999462.058986439, -2336302.9851767593, -2161868.675474983
62, -1975832.796106902, -2335344.871674464, -2161085.1210286003
63, -2012236.3704054463, -2406331.3820608915, -2162266.4626771403
64, -1979162.6078290069, -2326710.7580972775, -2166783.641308711
65, -2000355.5013858783, -2328680.563628513, -2166759.7936259983
66, -2007102.6295302347, -2290808.2383269053, -2165650.247302079
67, -2005037.7317952635, -2303181.146371216, -2161529.9627731163
68, -2028527.7592299902, -2333655.9865193823, -2168169.599685518
69, -1946571.5209467243, -2346834.5911254347, -2169989.5101003274
70, -2038504.188126166, -2342247.6319273505, -2166852.1527451472
71, -2058976.6534801885, -2320424.0673537645, -2169138.769933141
72, -2026855.360452375, -2290646.8896130878, -2165856.8864127663
73, -1972980.0037895394, -2325292.615225975, -2160043.4233637513
74, -2021923.1544914297, -2353873.0610396797, -2162136.1861387915
75, -2020842.5137228882, -2305562.6804001587, -2163756.3950328655
76, -2006512.218410079, -2357658.4709883146, -2163016.4745001267
77, -2028115.1295287055, -2301281.6713000243, -2166123.512060176
78, -2029504.8227868215, -2350630.484708933, -2165232.672517357
79, -2024495.4447352798, -2313802.090876456, -2165250.93492325
80, -1987983.0559037183, -2338289.0519070704, -2166599.2333458224
81, -1991156.9087603875, -2293748.0001595765, -2160721.894391669
82, -2002806.8678596122, -2328513.2421068354, -2158800.3309331937
83, -2021788.7978463387, -2289114.973152048, -2161016.4837673064
84, -2001010.2216147818, -2323802.317804674, -2163735.246914381
85, -2001034.1053611077, -2313391.029767893, -2158682.006911774
86, -2031697.8372743572, -2314435.3078388465, -2166782.6475518425
87, -2026623.0438149553, -2350282.6741205608, -2168435.7020203127
88, -2007136.7411593236, -2327180.255205661, -2167593.3650558842
89, -1995357.527409709, -2359232.718811541, -2164892.235346955
90, -2011296.0845889994, -2368127.615525297, -2168036.649764942
91, -2002740.0254075774, -2325377.1494337483, -2162940.7185811093
92, -2014266.6983978064, -2328597.8366483725, -2165517.601287305
93, -1995693.7716436186, -2331265.0058264206, -2163903.975846145
94, -2014648.1147260638, -2322232.2418399956, -2164445.6663411283
95, -1983574.9957468095, -2311576.92965991, -2162856.5615359573
96, -1955292.6355639216, -2322811.2590724435, -2160249.139571574
97, -1987097.338229836, -2320582.0307931383, -2162390.005602046
98, -2004647.5756319817, -2346614.5389575865, -2162376.9143207856
99, -1952815.9005714064, -2335142.7774824356, -2162614.9513074704
