0, -2047726.253149428, -2359892.7423145827, -2211098.7445725035
1, -2030480.9603023813, -2356910.929207945, -2208357.9216919458
2, -2008305.0898593743, -2357710.287234474, -2206354.0115684653
3, -2063855.714858693, -2379549.072808927, -2219221.215433571
4, -2043370.2169499625, -2377618.3332593557, -2206004.7478716117
5, -2047673.8689260264, -2346530.5856203586, -2203659.9948425572
6, -2053088.6140124067, -2396277.61359799, -2211477.1299543204
7, -2045359.9682214768, -2393481.9262421275, -2210224.4021813483
8, -2046485.4619834474, -2345301.6842356487, -2214906.685277173
9, -2059491.8281312645, -2339052.122187066, -2210130.773753246
10, -2032412.2789187273, -2365383.110535206, -2208639.0942167873
11, -2042634.820774787, -2366442.366606251, -2209065.218856062
12, -2015263.6533042719, -2358730.4871649006, -2205459.8761286656
13, -2072038.6163126328, -2405206.3688204633, -2208261.1482530134
14, -2036576.734254389, -2378635.3525575288, -2213133.41696235
15, -2034693.9658290162, -2387614.8141289717, -2205695.0924296044
16, -2048377.0713508497, -2371474.249849926, -2207181.8250135933
17, -2037790.3180738636, -2345120.6205440285, -2207292.104866565
18, -2065993.2246341784, -2386818.0509871147, -2209139.4865006516
19, -2042997.768068798, -2369514.4158763434, -2208127.4404413756
20, -2026996.247097067, -2403642.730998883, -2197573.0007743603
21, -2051083.6929098507, -2360799.4167212844, -2196747.391856388
22, -2046282.3083861251, -2371843.4088800317, -2203254.2405498484
23, -2042962.9512332394, -2348512.8454485238, -2205580.347788828
24, -2050404.5117917717, -2370634.382797809, -2213187.883894147
25, -2063325.0824381895, -2351826.0423094714, -2204568.1980883474
26, -2047303.951699839, -2341845.8450441877, -2204589.769157336
27, -2036193.2455258197, -2381016.3100227946, -2208045.699572892
28, -2058701.3361736983, -2397203.278014509, -2212305.3348350837
29, -1981190.9120090576, -2365141.091623662, -2206095.9788444596
30, -2043459.7585577918, -2372079.9125632765, -2204765.5912926486
31, -2056519.5968528716, -2384663.7278381824, -2209250.5165482378
32, -2010679.5650706193, -2364311.711290369, -2206373.284018645
33, -2047833.1339790872, -2383380.7951453114, -2209221.6250545615
34, -2022386.2049645702, -2350766.6030503996, -2201739.109466487
35, -2035065.5730424542, -2363233.8620061954, -2203427.362981567
36, -2019798.2132883547, -2360400.6955648805, -2210868.6261275196
37, -2055405.593692089, -2346741.698633778, -2209169.926756604
38, -2069437.1170029044, -2361625.0281357495, -2210597.3878494636
39, -2015921.9200061122, -2394122.3124796, -2204906.8075027675
40, -2026271.6506393058, -2357207.7407646235, -2205796.503158718
41, -2053765.3805341534, -2374951.4714185144, -2206505.127321026
42, -2029287.652315273, -2380296.1926878337, -2200724.3959827055
43, -2017198.697127535, -2389161.982424429, -2207033.003807531
44, -2041314.9652720755, -2411432.456076166, -2209275.5311058518
45, -2001175.9617702886, -2354086.8237803904, -2205698.472475322
46, -2033870.9690636443, -2375443.668762769, -2202260.446155627
47, -2008457.851908891, -2388201.1895151488, -2204246.885254113
48, -2058530.873012897, -2411076.266557688, -2204200.848349806
49, -2040470.6795469131, -2355583.0925408513, -2203585.136376674
50, -2056098.9737667656, -2396811.084556922, -2210460.857164772
51, -2054172.2995438422, -2350282.0556750554, -2205027.9867030596
52, -2040666.5563821392, -2362046.9780597324, -2198309.0589981414
53, -2030120.0714467359, -2432419.6336488323, -2196550.3453611173
54, -2062115.2969521014, -2362595.679698614, -2202630.029641342
55, -2081306.5466203154, -2364047.627060868, -2214320.6813985263
56, -2039129.7982273395, -2382947.7882365356, -2208654.898553003
57, -2068592.209722471, -2404187.861168656, -2208778.6933418703
58, -2055299.657344114, -2376294.666450939, -2200576.0113429967
59, -2027331.4373863237, -2364954.442086362, -2207851.84572907
60, -2028398.2483303654, -2361026.7194244126, -2201416.79198304
61, -2066019.0652799518, -2375949.105729332, -2206131.7996865036
62, -2034838.9064975725, -2385915.1954939812, -2204697.6997207557
63, -2047646.8930259845, -2347695.963051043, -2207730.1477585663
64, -2072524.9772288008, -2363753.486018186, -2213725.6192726297
65, -1973089.4128632457, -2370068.074618229, -2207934.907624614
66, -2015891.430254669, -2385058.8090050416, -2203606.77226508
67, -2005497.0127737033, -2369436.0970525136, -2206333.098050797
68, -2069159.5166033045, -2356660.586937003, -2208848.192989669
69, -2051670.219065112, -2423416.026407978, -2211001.087132568
70, -2059330.768416862, -2352398.7936329725, -2203134.8092583865
71, -2065362.9270695518, -2387574.121906227, -2208184.1683853287
72, -2041082.8450430813, -2387784.5157043245, -2203373.034441633
73, -2075367.492641497, -2331129.107593841, -2201060.388299438
74, -2030890.1840417767, -2327609.726884098, -2196987.925432604
75, -2052698.792962933, -2369814.201346221, -2208495.281033481
76, -2009741.5314028724, -2346545.4438096224, -2210125.7214569557
77, -2059784.5065001608, -2329950.2267126846, -2205971.0031068274
78, -2054799.4808142907, -2365333.758457852, -2211900.084088974
79, -2075796.1303882664, -2363005.4453691086, -2213625.3270161143
80, -2034335.5451297183, -2411475.057935816, -2210440.9091846067
81, -2028987.3002103698, -2400764.05825696, -2203835.50588985
82, -2043542.9744067644, -2365993.6196300182, -2209452.656775143
83, -2066382.399681753, -2401707.859077777, -2210290.8246336756
84, -2058841.292670513, -2362999.2610876174, -2212973.3947482836
85, -2069167.1669074437, -2383582.1518229856, -2209444.813540633
86, -2040494.015355695, -2367231.1500770766, -2205370.609593693
87, -2073159.3997821286, -2340980.9575157464, -2209882.8161614607
88, -2033898.1730806571, -2347942.569859553, -2210094.3855666323
89, -2040762.4177520638, -2363617.2001610026, -2212044.5600846526
90, -2058520.1673394223, -2431192.6498357747, -2209139.5817270353
91, -2042001.7022985844, -2384001.7224605177, -2206235.113918319
92, -2033732.4267417598, -2372843.012366425, -2211915.440451793
93, -2064966.6710062805, -2351411.6749953395, -2211000.2821740257
94, -2058830.9945809282, -2377696.763485243, -2207182.2595369234
95, -2057280.622857402, -2377295.0009767883, -2207371.8581917128
96, -2018924.7394589698, -2377873.7417894127, -2199261.053282555
97, -2068938.93595711, -2341854.833163261, -2202141.3585681086
98, -2026123.2651404976, -2355295.0014021727, -2200936.00844946
99, -2055805.803809076, -2356654.982932585, -2207182.057952466
