0, -1514282.5381390043, -1772518.6295296494, -1646924.9603564974
1, -1499121.6853694993, -1716433.0057708025, -1587994.4591540685
2, -1459362.904458502, -1668335.6005751346, -1519198.9766414165
3, -1410731.768468579, -1563814.0523988758, -1484252.0191333904
4, -1388522.447472514, -1511236.4440087455, -1444123.061104693
5, -1365505.42920336, -1477742.4885178844, -1415699.2848456479
6, -1343747.8477042909, -1440521.1563570485, -1389099.307163506
7, -1324111.052810307, -1424400.8852471581, -1364618.713085749
8, -1304933.7514849065, -1406542.1074634725, -1346237.1159442107
9, -1288608.0391063795, -1395758.5960335503, -1332370.9359860707
10, -1272893.6929076673, -1378250.862848183, -1313362.6303294983
11, -1242257.9277914034, -1353546.1162801392, -1299965.9402124786
12, -1221378.5229988582, -1348327.351239295, -1275170.7888469424
13, -1197327.0035662719, -1341509.6340643754, -1252205.5570068122
14, -1185570.2724665178, -1318255.182098715, -1231219.7037803424
15, -1165358.1997053358, -1287895.6559161353, -1215634.2925301704
16, -1148340.0095123195, -1270791.1834056, -1196519.7078462637
17, -1113668.8340195105, -1252230.876000499, -1175087.6765433187
18, -1100387.4557751955, -1224995.0523602578, -1153863.110968864
19, -1084631.7747473365, -1212530.9634396702, -1135649.6952909376
20, -1070555.1353046312, -1187619.559406672, -1122705.6215348651
21, -1059666.4554532433, -1191638.7154719674, -1107035.3765473128
22, -1047984.6717952655, -1150490.9386915201, -1094375.9988297895
23, -1044002.9935830703, -1169226.8643744395, -1086151.0786055976
24, -1023815.4345632598, -1138176.3421227902, -1072930.9450243323
25, -1012922.273163751, -1151454.2067109514, -1064568.5460626646
26, -1005202.0851707084, -1119260.2216505548, -1048774.910739111
27, -998468.2703053721, -1116627.2695373746, -1038133.8491130462
28, -994495.5558716375, -1092437.3649598036, -1029386.5696581935
29, -976783.1976714246, -1108575.2272526335, -1025120.3376700709
30, -975267.9362498864, -1103255.8812608062, -1022113.5467264097
31, -967940.22098355, -1112295.5995320799, -1010441.8455810561
32, -963307.1840245586, -1078859.7488496217, -1003902.1949063902
33, -958464.4195212484, -1072868.859461341, -997407.4356774862
34, -952621.1277783164, -1047468.8397231777, -991727.7274781201
35, -941421.9261337835, -1072541.1676191667, -985851.9305617114
36, -929020.0066759163, -1048467.9165704581, -980395.5850332202
37, -922531.9501583958, -1064755.5409579957, -970233.1423634213
38, -916239.0277394848, -1030252.6953270915, -959746.7393517088
39, -913614.6854096274, -1069865.9169523744, -955393.5416019843
40, -904345.789675181, -1029162.507433661, -952358.2639358768
41, -900522.7711153443, -1039096.927759757, -944641.2348129452
42, -897660.9658350681, -1017720.1408630717, -934678.8169433838
43, -886752.9978138923, -1015387.6137040912, -933831.6260197054
44, -892167.6365309176, -995472.4401477447, -926792.7317066004
45, -889013.4869815095, -998739.071291527, -929872.0408995133
46, -883344.9220788013, -995621.273219358, -923239.9033501848
47, -860151.2085436189, -998857.3882422652, -919039.1220281012
48, -858014.8833883279, -985062.439777374, -908479.3442186909
49, -857139.8057552788, -999254.8510836242, -897571.5410355214
50, -852450.9405595309, -973651.3548857325, -893460.4453864548
51, -849122.1219272383, -994950.9711249422, -889452.6571226155
52, -841923.9971241031, -985055.6381882981, -884335.5143650838
53, -839971.3754212132, -987823.763670055, -883429.9970429704
54, -835023.6271087446, -979135.3429377188, -878156.9123099567
55, -833321.8367915617, -983818.0127883535, -874246.7146202713
56, -829979.6679607229, -963150.3521110767, -869942.369272588
57, -815014.3838270556, -946524.2296346335, -868232.975349075
58, -815833.6750683037, -928678.3813889772, -860377.5346634423
59, -808901.2392913394, -941614.6484259793, -858784.5225789878
60, -810046.2523089983, -929121.0216826757, -852320.2449984953
61, -807346.2498600364, -948763.9785643455, -853565.562258079
62, -804109.6136011451, -929042.7264373293, -848594.2014830096
63, -801016.1704356105, -913284.0234044958, -844398.854259858
64, -795135.1468070715, -905043.3295462378, -843120.5870631261
65, -798490.8351720334, -945663.7470377833, -846270.979913179
66, -792367.8988272683, -974256.476250727, -837432.5118987348
67, -786489.1012517901, -925257.111027274, -836296.7454953354
68, -779764.7802270525, -909748.0086353114, -829107.2165621879
69, -775087.1896248274, -928510.3829124323, -824113.7320742555
70, -774502.536796815, -928682.2518221491, -821598.7714948483
71, -772866.273076958, -879448.3408459222, -818274.6139288433
72, -764404.181935241, -922894.6720543634, -816242.9124398325
73, -762227.8909271301, -895274.1667882462, -808355.613464768
74, -762662.3817557031, -926412.5913215973, -807513.0343107199
75, -765541.1603722246, -891042.2871934262, -805888.19915856
76, -762108.2008345763, -897363.2945933177, -805690.1965198753
77, -761458.3935878433, -889791.9420715161, -805473.6438065824
78, -754555.6811964125, -873391.9025910445, -801029.5613724822
79, -757404.7420186126, -901756.310894208, -798831.4683540359
80, -756202.5749283496, -864468.9794055759, -796629.5275655186
81, -758481.0185761761, -889656.4120577208, -797785.9135011141
82, -749596.6034859503, -882167.2301705645, -798319.8397841058
83, -745277.7683307326, -877361.1526492774, -794290.1093247884
84, -741927.2433796872, -888101.5029336191, -788439.3638042646
85, -736736.0167191767, -896259.013240567, -784662.7531489364
86, -725265.2010838417, -892519.0530841572, -782442.7927178199
87, -731848.1840613675, -851093.0441360257, -774200.8631005096
88, -731565.3861089961, -865234.6981231056, -776530.3206701465
89, -730983.0961311588, -867866.140197814, -772039.3673822957
90, -729179.3735262279, -841578.5139178026, -772225.9997327249
91, -728049.6488675505, -858028.1526069948, -772876.9446344755
92, -724087.7483931286, -849060.9656043143, -769742.0356746771
93, -722544.0241923889, -866757.2574831864, -769457.31084601
94, -719539.7181785137, -842106.14388645, -765810.1637323756
95, -719820.711872109, -842511.8535719139, -764061.5959443516
96, -713236.1270006918, -872077.3527529298, -765309.5047459579
97, -713236.1270006918, -845904.291304115, -758229.2148516371
98, -710636.3996524, -860145.337206522, -755370.8948003318
99, -706880.6313105132, -836605.4702124756, -756810.9894192248
