0, -1650546.6606376513, -1893758.58352309, -1759127.4082538032
1, -1609156.5061930902, -1843511.9816579921, -1734769.918399969
2, -1599032.6639208563, -1863904.673207479, -1711309.9687705317
3, -1574575.2644167831, -1811671.0159454779, -1702101.8204701978
4, -1575005.3172788878, -1808170.775687004, -1687199.201179713
5, -1573080.1007428772, -1795643.845047588, -1677417.6237655468
6, -1531120.2954368982, -1807646.6710665207, -1665135.101976131
7, -1559166.52709154, -1798742.106553928, -1654334.232846005
8, -1521464.420570922, -1771809.3538988568, -1652693.034623062
9, -1533615.4763631963, -1786095.7695767097, -1640879.5715515176
10, -1513171.2550081396, -1759085.8884329344, -1627801.4593497396
11, -1510799.7538143734, -1769753.5141141526, -1619787.7256614035
12, -1506129.351466608, -1732506.6341919713, -1608247.099319747
13, -1479202.5570047314, -1731923.2485727873, -1602844.514864631
14, -1499498.8007880796, -1718668.790995601, -1593047.0956017151
15, -1485337.4603954244, -1722058.0448815604, -1580565.063782248
16, -1472387.716994243, -1671440.3090607994, -1570110.1146539159
17, -1468990.6765672064, -1698363.770977811, -1564118.079306899
18, -1451795.0492229227, -1683007.4375189051, -1557806.975814682
19, -1457010.0601582911, -1694886.1856054491, -1554073.0800670164
20, -1448594.9997470677, -1664622.6087403, -1555103.0297435704
21, -1434076.9435314974, -1679558.9687034523, -1549469.3356093378
22, -1421513.327102604, -1688223.1298091908, -1549529.9604304696
23, -1448596.0808798675, -1672293.5026408567, -1541237.890486079
24, -1429390.0292255078, -1653662.8586456883, -1526892.7137382885
25, -1398886.3608487383, -1628907.1154410238, -1515105.9182554798
26, -1415595.5597710991, -1657090.8652569181, -1500154.175046702
27, -1406308.3136503757, -1610462.2422652969, -1488628.6373596012
28, -1383669.9355346772, -1582053.7108249168, -1482917.7848892352
29, -1377996.6839737399, -1564831.1615784236, -1473311.272674376
30, -1388245.0829750097, -1597559.9210094144, -1466304.3634768066
31, -1381986.2714336412, -1585708.6099682206, -1457391.6961589516
32, -1357628.8267495956, -1553172.0520887033, -1457297.4807311064
33, -1359020.6796558457, -1550740.0031477737, -1455745.5852675473
34, -1363838.2687695858, -1574786.4352954705, -1456908.736005489
35, -1358321.1921672288, -1604176.3714502167, -1458340.8869810014
36, -1370887.7218656351, -1549308.8795062555, -1454687.201978002
37, -1381958.9056600356, -1591611.7680693583, -1461904.003349218
38, -1365492.7196697744, -1583737.9320667412, -1462432.4478868907
39, -1361439.5071300769, -1593333.6809776127, -1457918.6829234082
40, -1357191.3767151092, -1588475.9694273572, -1452378.6785911843
41, -1340429.903677478, -1554673.3143531326, -1438731.7229062119
42, -1339268.2984530365, -1548426.1871767186, -1440638.5859536307
43, -1316589.4182135582, -1537997.4511864157, -1433371.0498929343
44, -1282861.9831687668, -1591742.7353886205, -1425336.9536023608
45, -1320651.7030890882, -1549454.863501275, -1416420.1506544633
46, -1314995.5271484582, -1553478.3409222856, -1411527.3174536452
47, -1308627.4994795467, -1547038.4381940132, -1410482.7398332867
48, -1323133.5684542493, -1532655.4543363273, -1412656.7778440097
49, -1326708.79661299, -1549797.0175695308, -1418628.2238831816
50, -1331630.7365603654, -1548739.7494641799, -1416116.933193667
51, -1324747.5129557087, -1526656.9239313346, -1407961.322045769
52, -1313243.0178358043, -1506747.6032407465, -1400278.2698850879
53, -1297551.1109481994, -1546009.1055562743, -1396188.48741371
54, -1297656.4400729327, -1524329.7176912169, -1392872.8676344194
55, -1283366.8192128148, -1485001.4548641958, -1382073.5926443716
56, -1278785.3897376999, -1478124.4325835188, -1372209.404507164
57, -1279042.7377412128, -1476074.6182143402, -1372132.4801647086
58, -1274805.4725670824, -1486792.235718637, -1372199.3898168488
59, -1253034.9564656857, -1466890.7878852414, -1358021.9369793653
60, -1257321.6736567616, -1447486.6453156595, -1355390.3324181165
61, -1252873.9874442758, -1453570.0762985253, -1354261.242969284
62, -1260827.7451647501, -1483818.4775870852, -1347629.7579296345
63, -1230029.3266001132, -1449000.2444277375, -1343357.5372270087
64, -1231039.364652494, -1444986.9067739027, -1334203.110128653
65, -1231662.0377639774, -1485386.0727631757, -1327950.9311043343
66, -1226997.0571126693, -1458755.4679843984, -1317491.3786801014
67, -1237266.4150340522, -1413807.178143479, -1313022.4450104109
68, -1219610.040907073, -1414369.942217285, -1311724.1153508006
69, -1215846.9611323671, -1433622.7381335967, -1310390.5970454637
70, -1213959.924928246, -1406481.1975782735, -1296904.6756533547
71, -1209767.1163436638, -1409318.0854122397, -1295734.259605535
72, -1205442.6551035626, -1406034.799037903, -1289917.0479623703
73, -1191265.3266662424, -1450834.2410932977, -1285031.3370052418
74, -1193521.282365479, -1405706.9930527923, -1291417.8626261086
75, -1165722.8495382091, -1402948.069858632, -1287024.2551360517
76, -1165686.458689306, -1415763.0001436793, -1286258.3960433397
77, -1183748.8646019762, -1423037.571895136, -1281500.314437973
78, -1193264.9077265582, -1402971.6498880126, -1282306.6672316047
79, -1182441.26667275, -1403933.6365466423, -1283882.9870368019
80, -1196269.2987024826, -1416452.3751490521, -1283931.4365032385
81, -1204679.9479818074, -1419776.8657187975, -1288490.4020986434
82, -1187275.540138639, -1415106.295965023, -1289932.4107735262
83, -1182231.8914996588, -1457799.751780417, -1292312.652785276
84, -1175772.7911844847, -1417955.9777900355, -1293036.1671164825
85, -1202891.5017988402, -1460073.846224147, -1293437.897603003
86, -1187517.4378680428, -1411683.8107102092, -1291468.2128952313
87, -1173837.1599600143, -1426518.6303460933, -1295487.1050204318
88, -1184392.1214944103, -1396579.0458033138, -1288325.4829657245
89, -1196914.2780652358, -1498981.737922597, -1291796.6180920848
90, -1198652.004624028, -1388321.4567872754, -1291679.421517167
91, -1177287.8286439343, -1411043.9866953122, -1290140.108914279
92, -1181635.9884673448, -1397846.2380322502, -1288868.4292764927
93, -1173488.9480593505, -1415142.141905774, -1287958.9648853734
94, -1162715.6863689716, -1411027.2017035983, -1290476.2001494148
95, -1188941.9267387416, -1427487.1763685641, -1292844.399958992
96, -1147130.7912232252, -1448758.521217809, -1291629.4287377424
97, -1188975.4942468365, -1411455.705184115, -1290216.2198160067
98, -1190301.6144566913, -1407028.355670153, -1289560.3917292266
99, -1189200.029273294, -1416600.4112197314, -1296342.8912596095
