0, -1581099.9755310097, -1833010.0536882104, -1683576.8431574025
1, -1551116.810405167, -1784889.2003931347, -1664852.0839553385
2, -1537238.4410671378, -1781087.8470996446, -1648774.028335441
3, -1499530.363308846, -1767252.8315843786, -1633043.1091197748
4, -1507937.9958306176, -1739411.9402652993, -1618474.188193946
5, -1497414.8171554802, -1754650.2160314554, -1605359.0266858349
6, -1488696.695783947, -1759255.0038929475, -1594459.7888130154
7, -1471726.5205131173, -1715042.990691001, -1587385.2340210592
8, -1468664.5995902666, -1697464.3169300891, -1578121.607061846
9, -1454947.1662935026, -1742140.0884456001, -1576063.4882321567
10, -1451835.0215756833, -1681383.9287500372, -1565788.6215738573
11, -1449050.7732179605, -1727402.3199240323, -1553715.7980912589
12, -1431438.1444213793, -1693353.2649321323, -1539155.0045673954
13, -1421757.8435088163, -1641605.6776069358, -1526414.4208437481
14, -1408302.7889874624, -1689203.125199893, -1514318.4815577993
15, -1392342.6896481365, -1596963.4685100806, -1501669.0729997144
16, -1385698.6669972998, -1600607.8421140937, -1491231.641008074
17, -1388498.6298144392, -1603998.1722968267, -1476378.4017546335
18, -1375934.0204759066, -1582836.7938727303, -1470573.783695075
19, -1373602.6403800885, -1584581.7541701754, -1465773.7671845055
20, -1353031.9082671688, -1592297.3446402375, -1457185.9185299054
21, -1361963.2235736698, -1577380.780820134, -1450102.7601969452
22, -1342267.5470595015, -1593158.8328045476, -1449465.6286862667
23, -1335163.2741323456, -1572144.767455673, -1445926.3809184798
24, -1323153.5120349876, -1558350.4888516308, -1445729.1778707763
25, -1340637.400971917, -1561346.5320552022, -1448936.613307118
26, -1337614.2004654657, -1566926.3580405228, -1446908.689929245
27, -1335277.648937836, -1557451.0761230472, -1438657.9944667215
28, -1335640.5508814517, -1550594.5140327644, -1427026.9714069667
29, -1329598.1541169318, -1558445.7500351025, -1424089.0790032526
30, -1327351.2348074699, -1542326.731207198, -1423822.3389820429
31, -1305665.5139666793, -1550691.1221498998, -1418530.8431068168
32, -1307794.2667153308, -1545325.0303876929, -1415300.7957473649
33, -1303890.5795220125, -1554332.2428263428, -1407419.6013258724
34, -1294449.517966638, -1513127.9245219626, -1396052.7907380408
35, -1278942.1595868669, -1522995.001083029, -1379889.5369349003
36, -1266887.3576075973, -1488837.1173093389, -1374139.560284306
37, -1269758.1238981604, -1484720.912041554, -1369849.6267240401
38, -1262937.147597133, -1465507.7131217173, -1363977.3467503816
39, -1260964.0130404264, -1473378.6641641513, -1363482.19947042
40, -1280910.3783083654, -1482345.0049503248, -1362122.5990362782
41, -1270011.8289499646, -1504777.5687697742, -1366668.0082830791
42, -1273391.2225349264, -1519011.272465854, -1371661.8401245452
43, -1265025.4800294174, -1482481.2739221472, -1367859.044754072
44, -1283895.4654174226, -1489560.322299833, -1368796.3242558346
45, -1273456.4188343207, -1508708.5664985876, -1366779.1382119071
46, -1254544.151408815, -1464255.2077011291, -1365684.8568940244
47, -1262942.7518058205, -1475018.46542073, -1371750.4943624448
48, -1263745.54752622, -1520040.7592604852, -1370326.7631215772
49, -1266466.852184592, -1505769.9277833086, -1370013.3909447528
50, -1280920.3419215009, -1506208.8436766986, -1373548.8875336642
51, -1271954.2290222773, -1504877.0784561676, -1369732.986973073
52, -1238711.3783988217, -1528464.493145308, -1366144.111486067
53, -1267922.08731184, -1511768.4665509243, -1376934.6995259062
54, -1257588.9658787341, -1483184.346941594, -1370168.620696941
55, -1256968.7988891362, -1497200.539108953, -1368446.7484290423
56, -1267177.1289319056, -1535341.0209335096, -1368357.5065890283
57, -1231105.4831876506, -1500568.6041355343, -1371750.1941809217
58, -1228294.6743566585, -1489863.1569735445, -1374971.9901684604
59, -1287304.8768044587, -1519935.6293856907, -1379273.5308217483
60, -1297494.664518963, -1482229.0712642283, -1381195.1357688291
61, -1277467.032821731, -1494730.289794504, -1379073.4700706375
62, -1291828.402489099, -1501277.6249976254, -1380631.9365823623
63, -1290930.3776231282, -1521155.0593504957, -1380676.5385683083
64, -1278014.9755605978, -1528027.4406140307, -1380870.9598294334
65, -1267943.413197444, -1505620.5758342783, -1379370.6733685213
66, -1243570.9011991962, -1507170.339674847, -1368932.006034485
67, -1263188.2983958614, -1499571.8063589977, -1361311.566993901
68, -1256091.177931414, -1514688.1105387404, -1348459.8560227577
69, -1265563.937833256, -1476297.3778702589, -1342293.3651630494
70, -1241803.5246366411, -1446738.8339827778, -1328542.9458262313
71, -1251756.8424931206, -1415995.3918747136, -1321851.8260724372
72, -1223510.6111479735, -1421097.294518575, -1316549.8828817029
73, -1231285.3985312013, -1443732.4964503269, -1312705.4584366195
74, -1213369.731738385, -1381663.0517330368, -1303404.809655522
75, -1219927.1225508526, -1430302.1181614187, -1303549.1082163153
76, -1191708.613115373, -1393820.7491662863, -1297476.103554441
77, -1200588.7202934292, -1411002.7741730826, -1296025.5900704924
78, -1190682.810659929, -1398683.4427558482, -1288315.1988359694
79, -1187976.7565075292, -1374714.0425961812, -1280979.634287806
80, -1181152.4440312204, -1393665.6551748766, -1274343.0443066636
81, -1191596.1249039248, -1387187.6811967916, -1268573.4114061622
82, -1173535.1287113202, -1377179.450143757, -1260923.6445407285
83, -1153823.3758632306, -1387690.319759712, -1258873.4660297232
84, -1172590.4197712322, -1353774.5926894357, -1261586.6525804433
85, -1148724.7778595337, -1361540.342320859, -1255963.0836750949
86, -1151380.6921011647, -1377172.8382030772, -1252278.3470236878
87, -1169693.2201739233, -1386486.930909081, -1249574.953669503
88, -1166532.8602245275, -1376376.2544713686, -1252510.2552536307
89, -1162132.3038826168, -1380839.0807881455, -1254957.6300347296
90, -1160171.1132771026, -1363960.902767655, -1256398.6325160463
91, -1160850.4578278037, -1383312.3545254066, -1259924.7044942537
92, -1162174.9596276307, -1409077.4483297607, -1259870.1311765157
93, -1179636.5460321584, -1379319.4842454698, -1266546.0260484733
94, -1174632.8819586171, -1360220.5804307144, -1273164.9278795356
95, -1190493.8318521364, -1394097.6849586056, -1281072.2967788705
96, -1190578.7340971504, -1388854.9985808611, -1284912.0187416677
97, -1194172.1749777093, -1415411.1751768244, -1286765.5663744467
98, -1212612.2484663546, -1402814.8844827428, -1285987.6627509499
99, -1205352.662918019, -1396395.993534152, -1291426.0075712788
100, -1210194.4002636713, -1396545.1207948953, -1293662.1328207992
101, -1194024.8781358327, -1452153.9665402528, -1304252.1938622522
102, -1207809.5336660682, -1412359.6908217075, -1305984.837114223
103, -1190436.831168261, -1421649.2931567025, -1303306.9659714345
104, -1187041.8588464782, -1428900.9522182874, -1297821.2623034248
105, -1199714.87997079, -1425911.474167231, -1289603.2642671352
106, -1183217.9030151237, -1454156.6938166488, -1292564.5582454468
107, -1203106.4069834182, -1414053.1370537276, -1291762.1093806005
108, -1192473.8954316662, -1401685.2372136882, -1293887.075380748
109, -1192057.510612742, -1387990.1830223491, -1284773.7356457755
110, -1190998.5045110965, -1434991.0667219318, -1286726.226390738
111, -1181706.653133958, -1395280.7825692135, -1287809.160458243
112, -1191084.5785971973, -1397879.1173055999, -1294145.5256508987
113, -1201179.864752908, -1431621.597196528, -1293823.6518993997
114, -1182828.71786987, -1390284.5653826518, -1295862.3078568473
115, -1186959.481640654, -1424532.1532238682, -1292365.8997804665
116, -1191303.0423570552, -1416889.5743508518, -1293292.6195170137
117, -1195015.181706824, -1458126.901742011, -1288708.8397334034
118, -1201646.508557486, -1420735.3126103205, -1289052.2458589014
119, -1197044.9039812621, -1456175.606941759, -1296862.463181829
120, -1206292.4290477592, -1443851.9742130665, -1302617.9971333253
121, -1196852.1046830798, -1413532.940624301, -1301797.9805377927
122, -1196481.9711269052, -1399347.140149832, -1297497.4422089395
123, -1200500.1440082935, -1428979.04229606, -1290184.4910614449
124, -1185921.8985469413, -1421029.2392596563, -1292298.722438972
125, -1199441.1806298553, -1416443.3540297511, -1287835.64151426
126, -1206492.044301326, -1387822.5031762589, -1289876.4224154658
127, -1190257.3116728081, -1392173.807984877, -1284939.2124246545
128, -1202594.1746070655, -1419550.484659466, -1281469.5459072222
129, -1186466.966733228, -1404384.016882225, -1284094.8220443137
130, -1176117.309083527, -1417085.2492660573, -1284160.0951127878
131, -1174542.5027105229, -1384325.9477343855, -1276839.3413627467
132, -1136656.7835298367, -1372735.9875855215, -1267409.240639429
133, -1158399.5867875135, -1383367.7753940662, -1262723.0211538377
134, -1125541.3555946946, -1374252.0198812778, -1251881.324889435
135, -1136763.5302241498, -1374950.8006109314, -1243009.6339049053
136, -1140258.7310291843, -1334207.3675514362, -1226916.2972524425
137, -1109286.4667756767, -1386718.305540743, -1221336.7363774367
138, -1102702.9356287383, -1307988.4705223455, -1213498.4837400203
139, -1091224.594325415, -1316666.9561968192, -1201875.283738917
140, -1114891.8666372448, -1304896.505106192, -1192496.989201316
141, -1105354.06357205, -1295071.6201241324, -1185766.6648063562
142, -1102819.0735750846, -1264650.1217731126, -1180750.7035985556
143, -1086952.4775279379, -1304229.3936852654, -1181757.5612441988
144, -1084807.667967261, -1267542.416119983, -1177397.5670545916
145, -1073174.4144728645, -1283128.677248101, -1176614.2709515505
146, -1074328.079555981, -1291907.770066578, -1173182.6303701042
147, -1073259.595448421, -1261834.4105857292, -1175536.5459915386
148, -1081063.8500084048, -1267898.8852133015, -1174489.9926799904
149, -1085019.8804937778, -1292147.8595832186, -1174566.6754311558
150, -1093853.424742934, -1270844.7294610986, -1174343.3879401407
151, -1077713.784477118, -1299557.9739652653, -1182362.4074062458
152, -1087582.3483480427, -1309685.9428131948, -1179825.5625723368
153, -1074574.1072239438, -1292951.5641731229, -1180867.1140543488
154, -1076113.8963275554, -1262956.0901307394, -1178621.5800512275
155, -1063942.4104630444, -1309288.094339554, -1175271.7539452557
156, -1087452.6244285847, -1316612.9365730362, -1181138.1226297107
157, -1075826.150663018, -1304656.5702469496, -1187829.8266037474
158, -1080003.2610434273, -1311612.046212163, -1183579.0780896705
159, -1102728.3889876644, -1327182.2335514424, -1191263.6659307121
160, -1092317.24416004, -1312316.4301791908, -1199741.0309716212
161, -1097924.4665788184, -1340189.9628529118, -1206751.3110386063
162, -1114827.7036400773, -1335883.5805110729, -1210907.9986875276
163, -1096516.0374256284, -1326745.4490224002, -1216572.2625592528
164, -1098323.8858226184, -1367426.5387034598, -1222143.4186738196
165, -1111740.7007979508, -1380108.9507660146, -1222590.939762425
166, -1115452.035416248, -1397337.2281273631, -1226113.1496126247
167, -1125284.574015004, -1358559.085267917, -1229646.439149457
168, -1123283.2488546825, -1391177.9270121723, -1227977.1880582098
169, -1110001.01711603, -1347688.0374476814, -1226514.9132305698
170, -1093140.8863041182, -1367787.5216939696, -1223684.7275385903
171, -1101027.25751888, -1371292.487279522, -1219789.2090868573
172, -1127682.5817289639, -1338136.9044092186, -1218215.0147517743
173, -1130594.0695791824, -1342592.644679398, -1219057.2753963876
174, -1118198.2491841977, -1313395.5155024999, -1208561.6763146163
175, -1122269.369739944, -1344989.4537891923, -1203885.9188691555
176, -1126307.8612240453, -1315740.373345975, -1204833.2956831309
177, -1135582.8413464674, -1326688.0210910926, -1208289.8452875006
178, -1106096.0528669544, -1343422.3789560471, -1215606.79838104
179, -1096737.1501366948, -1316457.4945076318, -1213987.6529929743
180, -1119026.1551221379, -1329645.0656180552, -1209890.1938662974
181, -1119241.4760420679, -1318016.0263774344, -1208705.1592226748
182, -1110060.6220278833, -1330909.875987124, -1212777.5348246016
183, -1113679.439721149, -1316475.411087562, -1211089.1560099674
184, -1125080.9722879524, -1321682.819205009, -1212726.3923769407
185, -1111649.8242746985, -1352962.7122204246, -1215231.3399391174
186, -1129574.833549727, -1342063.4021847332, -1216618.0712986984
187, -1114547.4660221427, -1317510.3535092461, -1216637.2885614464
188, -1125162.6040762751, -1329348.4292891787, -1219325.1679608622
189, -1124560.2682035915, -1338393.3794118855, -1218474.1133691769
190, -1124623.8936342844, -1354056.7451860385, -1215315.3969848263
191, -1132458.610690421, -1371979.3805595709, -1217720.6212715812
192, -1106932.3364945436, -1373239.782337186, -1223080.8069842183
193, -1127383.5610398853, -1359771.0630875116, -1226893.9913737567
194, -1115162.6866981145, -1375446.3322196917, -1224386.2115638994
195, -1137308.644337388, -1342771.070634108, -1223205.2127638587
196, -1109072.25928563, -1358227.0543193833, -1224631.3876106115
197, -1086113.3413926533, -1338379.0200274598, -1226462.4222361974
198, -1107135.3105979403, -1346754.822726849, -1222847.2502665091
199, -1116052.3738946437, -1349442.4531394397, -1218957.9482421116
200, -1098803.9728294504, -1330199.4010209746, -1214605.5841902893
201, -1100497.323743342, -1340072.0637163997, -1204123.5104977265
202, -1096922.090888797, -1352222.0204176411, -1189922.4588483998
203, -1097591.2521636095, -1265499.8932100395, -1178334.3852566576
204, -1091542.1458966143, -1295195.7483171618, -1174780.1410401291
205, -1059153.992320234, -1272411.801376335, -1166632.3590809805
206, -1040052.7666145153, -1259173.3242205877, -1165439.5679343129
207, -1057500.2786376292, -1262134.6991755017, -1160413.777290657
208, -1036012.6465523725, -1277915.2993403831, -1154672.222069364
209, -1058653.3671287468, -1246256.685633285, -1154441.4770102724
210, -1051549.2286087829, -1243370.5929634164, -1150340.5822052301
211, -1043509.2522641374, -1249906.0806077998, -1145452.64636672
212, -1042826.0878547321, -1235534.102310286, -1141418.9447440156
213, -1022295.3698130392, -1239394.7066503698, -1140343.1021885576
214, -1017218.5707560233, -1242103.9548666016, -1138872.9806717539
215, -1056819.4693123377, -1261061.2635399255, -1139502.0320272404
216, -1035851.7042802558, -1252669.049380287, -1136201.8545058388
217, -1042039.187920237, -1270343.4070253412, -1135673.4146564307
218, -1045445.6849396084, -1293773.3637739804, -1137347.9498798368
219, -1059416.934507761, -1242185.0626032571, -1139024.9484032793
220, -1068631.9647234124, -1313548.4221577037, -1142827.343387111
221, -1035268.6158250168, -1245319.1792168764, -1143383.8140591178
222, -1029905.7112674024, -1257557.7662820013, -1144907.788332952
223, -1047320.1115348672, -1274456.3457948943, -1150396.6217718727
224, -1048473.9507239645, -1304197.8206777961, -1147676.9783443236
225, -1012561.1070832505, -1255909.4809935743, -1141045.995714521
226, -1035385.7319173284, -1260177.00195785, -1136031.5058091392
227, -1040913.987227235, -1232097.302505777, -1124158.352180515
228, -1019104.3304744395, -1242259.0464749928, -1126538.3646890728
229, -1044662.0554111223, -1238238.6852190616, -1128061.077775485
230, -1028458.9648252681, -1261053.726616486, -1125982.5313973112
231, -1031916.0790768331, -1259876.7481069409, -1125508.6939947272
232, -1047770.5993336136, -1215634.338404784, -1127050.0193337474
233, -1042898.4182197785, -1266605.949334846, -1125646.926170528
234, -1043100.9384376542, -1213729.2146727901, -1121591.7326554114
235, -1038832.2363550691, -1241900.3705771407, -1126326.4906083737
236, -1046171.1053545289, -1291549.4337198508, -1132264.2146859907
237, -1043179.6987314916, -1221440.6700724438, -1128249.9673672682
238, -1046236.7640256134, -1219705.2884267594, -1126014.3632372408
239, -1019715.8211038811, -1251518.38935129, -1125441.3483463083
240, -1026614.8154390969, -1245729.808191888, -1128021.1817978206
241, -1034993.7808526861, -1268960.561780462, -1132376.1455525856
242, -1044625.919349605, -1224804.28301109, -1135695.4576097897
243, -1041517.3005575917, -1238792.4055717355, -1139896.4005352422
244, -1056537.233440044, -1274774.5465035867, -1146478.859735593
245, -1051679.6359829227, -1256819.1580872033, -1147536.2632197714
246, -1067976.9476628886, -1278021.5320127874, -1151359.5179472067
247, -1077581.0547683241, -1329383.5440023541, -1160367.964309854
248, -1083689.7059254537, -1276624.5909845165, -1166098.6046784963
249, -1065926.3640597572, -1304654.6357767647, -1176551.3334470377
250, -1085029.0284601904, -1332107.5491103847, -1177220.729442218
251, -1058134.8365276228, -1283163.3770033063, -1171538.2789933193
252, -1046537.8942418979, -1312936.448316954, -1168921.474425113
253, -1052260.4597295588, -1344533.3419145714, -1167340.966823687
254, -1065875.5407931926, -1280670.7899216514, -1169662.7029899997
255, -1061292.1173909898, -1290095.4131908133, -1168012.4653509967
256, -1055500.8862329356, -1293533.3420736797, -1171294.7984436748
257, -1064915.2049794765, -1295828.1934360822, -1175879.268135194
258, -1049734.1821630448, -1308725.7630165468, -1175824.6168805857
259, -1076581.3312402926, -1325909.1481140556, -1181337.5118289103
260, -1096430.9695683701, -1302340.335099951, -1182571.2679963326
261, -1080368.7602610036, -1320394.2568903393, -1181417.4731387815
262, -1093243.8869765445, -1307428.6819258388, -1187673.190778894
263, -1102738.0909354917, -1342754.523121605, -1196627.9590635793
264, -1096280.242875275, -1315986.1895429813, -1200560.097957429
265, -1105582.1295399896, -1329616.1306943635, -1197899.2251913038
266, -1109509.0219518042, -1326664.3267549544, -1201002.2183775024
267, -1064488.439338217, -1344053.4747627955, -1198832.2373222876
268, -1095282.602034941, -1319575.2829642454, -1197024.8490929022
269, -1066159.6991574029, -1317740.676773496, -1190684.497094065
270, -1079838.141715277, -1328095.6502358182, -1188589.53080517
271, -1075037.6678456962, -1299287.3470381354, -1181227.758317541
272, -1077820.3944203462, -1311149.4913486766, -1179658.1210622755
273, -1079769.8655973303, -1287193.082578916, -1172898.4415269159
274, -1073212.3116218764, -1293233.5812721294, -1168046.0673617553
275, -1087338.374909926, -1275772.2168469143, -1168770.353986907
276, -1070111.4424730584, -1276798.1914362398, -1162451.7412530216
277, -1066150.8719820243, -1255561.752680459, -1160229.2638447857
278, -1083967.473191003, -1280456.1090536132, -1159088.9031418434
279, -1080966.5619689026, -1273123.5274716332, -1161464.3090405406
280, -1082759.7979795386, -1289612.4325911235, -1162557.6904999767
281, -1079183.4866927771, -1248084.0858889907, -1163471.5127442551
282, -1075961.0563836705, -1302549.8433016327, -1162527.667652404
283, -1047613.8479780254, -1268201.9207120175, -1157993.0852603808
284, -1045309.3007510835, -1254531.4530570514, -1152451.103420723
285, -1071416.2175107829, -1273763.7239412798, -1154621.595168166
286, -1051071.9533117674, -1256614.6580271956, -1156486.6091063942
287, -1053189.8651609395, -1276315.7688523768, -1154329.5496382827
288, -1059200.3878563084, -1281132.5469157577, -1154281.3997780017
289, -1068007.3395307031, -1259876.3563196142, -1156723.1341951194
290, -1055948.189087566, -1269783.8481293705, -1159786.3920267085
291, -1072012.025947721, -1268581.70462029, -1158962.1815398994
292, -1048329.5778208675, -1310292.1498186393, -1161035.0653002672
293, -1031532.570307107, -1257237.1432312608, -1155673.1343048043
294, -1047395.6861165056, -1275253.2922772758, -1156234.8819135102
295, -1029239.4511285615, -1278088.423556716, -1156413.9094177613
296, -1054620.595024188, -1267742.280415066, -1155559.1801139598
297, -1064219.6521924112, -1249842.6893237282, -1152282.3730730414
298, -1048203.4394905809, -1292616.1992757886, -1149823.0345709878
299, -1047339.3317867147, -1273311.260807649, -1146792.189357633
300, -1041382.048490586, -1253956.668497218, -1141941.2744964636
301, -1031850.2665078219, -1246279.7823280352, -1133285.9371393127
302, -1050318.4335322157, -1254734.662852039, -1126603.2356686725
303, -1040548.7971960467, -1225653.354948484, -1127094.2478426357
304, -1044673.4056698869, -1246230.3208417187, -1127168.8355117324
305, -991184.5855751431, -1273636.670952101, -1127056.7677010554
306, -1034186.5698018135, -1218739.0699415228, -1119620.6041048856
307, -1012503.4908803618, -1218717.9566700424, -1114906.43549425
308, -1015812.0596816186, -1211811.0388776364, -1114478.3955035924
309, -985468.1274048742, -1218245.972196763, -1120409.3551141557
310, -1003077.4570627969, -1218638.8215550715, -1113793.3571709667
311, -987113.9512545483, -1255597.436545734, -1117999.6885640726
312, -1005308.162407276, -1256900.4571222, -1123620.2506803826
313, -991687.6075811291, -1232869.2431851074, -1123053.137545289
314, -989386.5001178333, -1245122.2591526022, -1110704.1624330494
315, -983401.6270889302, -1218462.3726369278, -1103337.8513889501
316, -989147.0974090446, -1191042.75823503, -1090412.52256218
317, -964316.1612565888, -1215875.383622172, -1082381.7518136408
318, -1003373.4874225382, -1189385.9320934413, -1077898.2652433503
319, -1005988.5100487457, -1194393.0906850395, -1075681.9215995225
320, -983604.2211667614, -1170137.9494673815, -1077527.3337247064
321, -974982.1679981523, -1164294.213416016, -1078904.825536006
322, -989546.5980004519, -1203300.0839401314, -1084063.1739040036
323, -989600.1112605501, -1191478.5758405644, -1084927.7679453995
324, -998692.3132086203, -1197894.8780275898, -1088501.108931486
325, -1005844.4739438321, -1250783.9786572356, -1090385.2329690668
326, -1009176.7009358695, -1195799.2386145447, -1092255.2296641127
327, -991227.7711021521, -1199994.174619804, -1094723.409289028
328, -1003018.393927275, -1217048.8614408884, -1092148.4104356533
329, -1003463.9094862898, -1239878.4744733998, -1100841.794529099
330, -992344.1053533179, -1235971.1635478241, -1099087.881115395
331, -1008560.9191566701, -1210515.5023343351, -1100533.9726004023
332, -1011181.6664767382, -1202324.026130765, -1098383.7267763342
333, -1001745.8667673683, -1213901.6124310843, -1098451.3425680923
334, -1013053.9339668506, -1218791.372117035, -1095855.034758167
335, -986135.3746354196, -1207659.946825823, -1094629.7899090457
336, -1001228.2855378282, -1210018.385896498, -1097081.8007894983
337, -1000764.1081351468, -1223837.4614677916, -1097175.171129828
338, -1000474.8371750487, -1225403.1229728507, -1100031.2295782403
339, -1011901.6713612934, -1219623.0213900257, -1102688.9799022488
340, -1004424.6744907806, -1191905.2501638862, -1097051.0764864977
341, -986236.2699801328, -1209341.3488369319, -1102993.2992059526
342, -1003653.3655715128, -1241797.616164425, -1102088.9705604224
343, -999965.1445854646, -1236044.3580039965, -1100878.4123152231
344, -994993.8757883171, -1233309.0544797287, -1100369.7330101456
345, -1000307.5550147053, -1199317.2435728163, -1093762.4180146628
346, -1000305.5679028067, -1163455.3206414152, -1089686.8297500224
347, -973510.2585751151, -1219536.0827084505, -1089371.6955919517
348, -974195.69863022, -1209839.1117748877, -1083663.3780271516
349, -982144.8125391686, -1196080.4201262058, -1079666.3944558075
350, -986364.2738253644, -1191139.3686564562, -1074385.6974132834
351, -983683.8791782772, -1195391.4213960266, -1076082.280406623
352, -991945.5020603519, -1211083.44547689, -1084088.4853612122
353, -984089.0130383708, -1212013.1500834157, -1083182.5570673796
354, -977545.0635727744, -1176674.9348908076, -1078803.7990431667
355, -966383.3518717997, -1168226.8300371848, -1075656.6774614058
356, -969808.1806237234, -1207815.990979308, -1077277.1642670734
357, -977137.5310164753, -1171260.6710605058, -1071943.0326325085
358, -982806.7386175413, -1179363.281996985, -1070311.9221129036
359, -997619.4782064101, -1212293.8110938678, -1076142.136684091
360, -974275.5090020758, -1202987.2638384406, -1082943.5381387507
361, -984210.4983185371, -1226662.934892098, -1082652.884937495
362, -982225.807732593, -1195660.7935900325, -1081392.3287149835
363, -993503.1237406859, -1204538.9013872528, -1084525.8050470192
364, -999110.7756765701, -1205860.2467154635, -1083531.1278945864
365, -988802.7522100359, -1201234.1819849792, -1083264.6555636514
366, -989205.9827238885, -1216400.168889783, -1087728.2389545431
367, -988314.3493259335, -1209363.4479616224, -1087463.8798046894
368, -990875.5579316954, -1214395.9343587207, -1093417.0556522573
369, -984650.8759177879, -1293534.0143654908, -1091976.8428105055
370, -953497.3557667099, -1223868.2448206788, -1094049.7254113923
371, -989833.7530920678, -1253504.2414274558, -1091104.580683978
372, -1002249.2622583723, -1199234.2114513812, -1091704.9426503286
373, -981091.7969781291, -1188124.7457281675, -1086590.3194227847
374, -983115.6698034129, -1219829.3477640038, -1090356.3639670257
375, -1004754.8591461699, -1204087.2462457058, -1096301.6773299458
376, -1003323.0201692916, -1206227.9267489894, -1096370.6626562676
377, -996838.5904534571, -1184090.923447879, -1099337.2247360363
378, -996026.4086111779, -1210748.1410075366, -1104472.9044925931
379, -995179.5486915943, -1231113.7657127706, -1107880.6149313266
380, -997799.0721826127, -1231406.541508945, -1103477.7328324737
381, -1004084.428199311, -1228213.7509374109, -1101404.1650170363
382, -968726.0731312102, -1204514.689981639, -1099594.9344474312
383, -994863.2020694443, -1247365.3024002144, -1107991.3288171624
384, -995290.8680139203, -1237900.9164734026, -1105558.4685046785
385, -969153.6452135083, -1272654.5011159736, -1109744.3733344916
386, -987045.210705051, -1266115.3408890355, -1111201.16954149
387, -991478.7096585678, -1258830.99002302, -1105196.8306130094
388, -993076.905570227, -1219299.7938116181, -1102954.1204262397
389, -988916.4096773323, -1213709.0219633956, -1102020.6641531882
390, -986121.1035487684, -1205247.3100764088, -1096222.0428880877
391, -991164.0182799436, -1255706.8759036914, -1093058.7803093796
392, -1003290.4580280543, -1230752.057030186, -1098269.280622125
393, -1002922.7938085387, -1231600.0749414135, -1093473.143269544
394, -1005681.349331904, -1221295.8551335805, -1092291.9937724087
395, -1009960.7654849105, -1224463.1519046915, -1097388.4410751383
396, -994856.5896045188, -1213865.6638196746, -1097569.1262703098
397, -1009626.1649211049, -1201787.125321541, -1095841.7886207856
398, -1007283.9100300844, -1234364.97116279, -1099549.3358297062
399, -1022111.411249896, -1231578.6931630645, -1098738.0598054742
400, -1009915.898969172, -1253642.867393839, -1099992.8961880712
401, -1018137.3891602727, -1221110.6384568068, -1101427.3001747401
402, -1029397.0784523992, -1253938.4032033999, -1108433.186341802
403, -1003219.3201851321, -1208878.2160588126, -1108860.5306026675
404, -1024799.397127281, -1246856.0789615433, -1107347.3325764833
405, -999333.0743239969, -1214888.4077739385, -1103367.8426398963
406, -1000390.2515450213, -1226607.8537950737, -1103185.5756414374
407, -1001072.3034847584, -1232364.879504053, -1098250.161219316
408, -990878.9478009869, -1198606.125292101, -1099365.6681378777
409, -996601.325518036, -1233747.0367621465, -1100610.3243781782
410, -1009227.0719346784, -1252319.036744821, -1104314.5262532863
411, -1008462.8004250582, -1210921.0463084457, -1102522.530851096
412, -974510.4668622925, -1213183.4868338825, -1097088.8524723623
413, -988483.4882310242, -1241533.0537795904, -1101470.4321383473
414, -993405.8059187885, -1231989.929646205, -1099156.6889196248
415, -987705.046228562, -1213416.0318253345, -1096591.5525632957
416, -993393.6057311543, -1223061.978447284, -1095638.4297085397
417, -1005006.2088931501, -1222270.2636656677, -1097861.964790028
418, -1005725.3892501956, -1205255.5781009863, -1093166.285400013
419, -1000101.2822810358, -1202169.4025001905, -1095741.4804476595
420, -1003566.5773677998, -1218661.4910551312, -1096741.437365439
421, -1009570.5571723541, -1218462.6018851618, -1094180.251219865
422, -1003903.0885086074, -1177856.0770311367, -1093230.8094962074
423, -1004154.9394616524, -1190534.7293185883, -1094744.802658237
424, -999433.0928734811, -1239080.1475723833, -1096244.084842629
425, -1005390.3604927678, -1252332.1678150897, -1097481.8311000024
426, -1010677.1909482542, -1244438.9414332912, -1097353.698984365
427, -1014708.2516751259, -1206023.8063057207, -1095502.0733055214
428, -989881.3727585359, -1209827.33525648, -1095268.8812543338
429, -990454.104636912, -1199791.082406218, -1090695.5117884185
430, -997379.1379029152, -1237490.8498386529, -1086877.9691615906
431, -1000095.5595573492, -1215122.8908802448, -1088948.5586961682
432, -1003504.6816228658, -1214784.242990936, -1093272.6675360103
433, -1003332.1265459077, -1251041.9935402698, -1098418.883901352
434, -1015765.7805665636, -1218374.432385739, -1099458.3053493286
435, -1024863.3302910556, -1234301.4070134764, -1102817.4595622756
436, -1029798.4828462966, -1216446.4564261748, -1109311.9194862247
437, -1024558.9712010566, -1226419.366833693, -1118376.5553596015
438, -1039863.3962725275, -1233671.209737377, -1123352.4265431971
439, -1025642.7207928891, -1258594.6324003218, -1130197.2128417334
440, -1026804.6158445387, -1266448.94472027, -1132465.040422875
441, -1051450.7338260792, -1253867.7405682483, -1141852.4646140614
442, -1054839.4573161474, -1254868.1548880246, -1148709.520733337
443, -1056084.5843984634, -1256189.2712331924, -1156504.187982677
444, -1058958.8455528966, -1317614.017098257, -1159753.7826087885
445, -1083235.787565948, -1297484.9222686654, -1162733.175122089
446, -1061612.5533003144, -1304549.1237576255, -1173981.9157220225
447, -1060292.946356859, -1276825.6464690587, -1173283.363523541
448, -1042099.9385204352, -1296523.3101310814, -1179943.7905697413
449, -1079172.1142523263, -1279479.3693839104, -1185494.343800106
450, -1060214.437651099, -1325878.1548333552, -1192863.0454243254
451, -1066377.9254618587, -1323465.9846317354, -1187595.5497733823
452, -1078160.8670207215, -1297800.965020653, -1173828.7142556435
453, -1073298.2039377652, -1277611.0701598432, -1167394.7535203665
454, -1049739.4811447333, -1284929.468934115, -1167594.4584182622
455, -1071254.4121049957, -1265240.2919631996, -1157070.596904378
456, -1066896.305130094, -1270047.3658823883, -1154833.136214374
457, -1045938.2079097382, -1289026.418545536, -1147636.7858223023
458, -1062343.3734799307, -1236104.912362773, -1143627.5960363187
459, -1054467.2111195303, -1225504.1882044906, -1145229.0568231363
460, -1050676.6410363591, -1253045.8068975566, -1136570.0486918383
461, -1047167.7462223109, -1253357.5413908924, -1128887.6425809944
462, -1041153.93573095, -1251587.248981807, -1123287.2569355904
463, -1033702.3335100585, -1202187.0246088488, -1114310.6589786133
464, -1037240.5395577904, -1183233.8868887408, -1112884.0352808381
465, -1032516.140373281, -1206196.4570538872, -1109752.4756623902
466, -1031662.508515289, -1199917.2602642744, -1100804.0980536907
467, -1023489.9161139119, -1207178.590758199, -1098272.6082359178
468, -1014210.87903326, -1210768.0328374654, -1098348.4185350074
469, -1001447.0987846269, -1202688.6023568176, -1097051.725544512
470, -994287.2087165536, -1200429.7081217265, -1092508.9850781828
471, -1003079.4435044308, -1196691.4956650396, -1088829.1956211247
472, -986274.6102331677, -1216605.9436691105, -1079717.9268831564
473, -996218.8862030059, -1201259.7726651144, -1083305.5891916251
474, -995491.9277763448, -1221607.2343831195, -1084065.9111324495
475, -996007.5957573075, -1209895.9583930278, -1085739.6427643294
476, -1001747.9219963555, -1206048.6134813963, -1086279.736831706
477, -995333.9978900698, -1249463.0319462614, -1086897.6626938912
478, -994938.2259685663, -1220721.6816478549, -1096770.3565451573
479, -1001886.482447197, -1235360.7821702948, -1105183.2427468887
480, -984576.9042789887, -1216740.8510306682, -1103285.8916489882
481, -1008226.5049512989, -1206371.53752858, -1108272.892338143
482, -1008958.8883007127, -1237363.3489584648, -1106227.712704748
483, -1004531.8966609265, -1291583.1269761438, -1110021.070848517
484, -998236.7810537457, -1223036.7237320705, -1119673.283186473
485, -1029733.7064719028, -1256128.5619814247, -1131399.095585616
486, -1047219.9671665537, -1270345.7412431163, -1139931.1485412407
487, -1055537.3537549775, -1267643.9617941955, -1145694.7465879777
488, -1032569.4375274219, -1266161.9031826297, -1146640.5607392131
489, -1040544.5301947249, -1269236.6260742806, -1146189.757438061
490, -1026808.5633543155, -1258748.844505054, -1141004.4282598011
491, -1047961.8950340734, -1276502.4372283728, -1139849.1593120245
492, -1024646.4596199079, -1284969.8123035955, -1138959.2781522328
493, -1032966.5172403834, -1261088.1092119687, -1142502.722146556
494, -1040035.915409113, -1297076.3696107073, -1147075.7227222167
495, -1020180.5497018178, -1274981.8507292164, -1143234.816205018
496, -1019014.5938727793, -1271768.921394517, -1142167.1514325347
497, -1042370.8498307157, -1238684.2380197693, -1131643.435969735
498, -1025895.2273569077, -1252740.8098118957, -1132200.1098241645
499, -1010050.5960655767, -1252030.6564168318, -1128123.0276905752
500, -1020372.556839875, -1221177.8721897188, -1125844.1296532555
501, -981130.0559023411, -1250571.499936417, -1126747.9865306974
502, -993595.432804375, -1243825.075263675, -1116205.4474245014
503, -1008156.5880905711, -1238692.4533437626, -1113319.6821250988
504, -1007246.1642075877, -1241113.931227218, -1112503.9310801139
505, -1010410.5150627552, -1231156.4472271802, -1115479.197718585
506, -1025317.1551599284, -1210131.8689448922, -1116171.1385429627
507, -1021784.4274611499, -1222812.582793997, -1122212.957410087
508, -1030823.8571190685, -1231929.2263038387, -1121828.2055857303
509, -1010256.908160127, -1230391.2738822163, -1119840.656501282
510, -1025295.4705807839, -1219764.0499964373, -1116196.9392285838
511, -1008833.0787518038, -1239515.4320189531, -1117338.114333531
512, -1037730.846808153, -1254062.7153260931, -1115222.6298649574
513, -1036104.3080194823, -1211818.5425143938, -1116904.6251566326
514, -1034502.8646535096, -1294313.795169224, -1118164.5461641608
515, -1039179.8558811897, -1206301.154772244, -1118750.1779092227
516, -1013550.7292105106, -1257362.3431480255, -1124691.739621255
517, -1019817.851966813, -1248415.6102152872, -1124279.7593917851
518, -1038668.5096364338, -1246762.3772653746, -1125436.6802729082
519, -1035096.1654656613, -1242921.781815974, -1132431.4777352023
520, -1019578.1948143952, -1244681.5927248688, -1134069.519231203
521, -1043601.3472730101, -1242132.125867606, -1135354.2181521454
522, -1042339.3771271808, -1302252.5694003028, -1130109.2272510757
523, -1028890.4636477008, -1268422.7277329294, -1136224.131696777
524, -1051595.6205431484, -1241829.469858474, -1135944.436595398
525, -1031578.3226343805, -1249324.759392308, -1137268.769142062
526, -1038325.487332731, -1283190.5585459718, -1141103.5391449912
527, -1042235.8003809045, -1250826.4205497296, -1140788.5451378615
528, -1013942.3562819539, -1262189.6837607846, -1144109.63909343
529, -1020609.185308553, -1260728.5234068697, -1138965.3974761816
530, -1045972.7695161211, -1253575.215999359, -1139500.056486605
531, -1049208.3577913453, -1272486.9551977352, -1138995.0383219526
532, -1039493.6522021391, -1247523.2955032673, -1137594.6912943556
533, -1044538.9913956784, -1274737.9994546713, -1139239.0378091868
534, -1034074.4209293295, -1234060.558567129, -1133576.6688014327
535, -1035334.5922019437, -1287444.704418733, -1136075.6691649405
536, -1039782.6137886911, -1252391.6902206666, -1137602.720316091
537, -1043348.9985432229, -1271873.0655927535, -1144392.6796661464
538, -1062520.1887350143, -1270259.3751228908, -1153953.5856499295
539, -1051254.6825460077, -1277388.7813674952, -1159012.1546418425
540, -1045144.2337430648, -1363322.5364374027, -1165375.9289892227
541, -1033742.906429135, -1312934.7091347785, -1165109.4278200893
542, -1057408.1655680619, -1298898.80990893, -1164647.9456132983
543, -1068320.6861836058, -1293680.5421214409, -1168177.3878028446
544, -1076025.423820464, -1314786.5030810921, -1169814.4454744854
545, -1076219.8231547142, -1350449.8781329575, -1173076.6333192328
546, -1085085.1208687404, -1308249.3973257875, -1171367.3928810419
547, -1065419.7321909058, -1281203.8921840098, -1162858.6393876756
548, -1062009.277912221, -1329059.7576362572, -1162015.124409681
549, -1066558.2276520305, -1277863.7892224765, -1163197.4836387672
550, -1074440.3107038706, -1254491.8325701938, -1164624.935406552
551, -1076551.568067122, -1286261.5249888184, -1163732.9582094841
552, -1064368.1876353614, -1276129.951672041, -1162399.798829996
553, -1060818.5983044861, -1262135.6006332166, -1165158.8532614766
554, -1065732.4462371068, -1282232.8445487726, -1164662.7253833502
555, -1061359.1166498906, -1293015.079940029, -1167298.2592649679
556, -1076845.6669222582, -1328799.7054171679, -1167941.469046785
557, -1069889.01880259, -1287845.419283415, -1168502.62970216
558, -1082690.8690635234, -1351917.0293844014, -1172383.7863058501
559, -1075650.928029773, -1271760.9529310039, -1178860.762306324
560, -1095051.2823054565, -1298623.1491801608, -1182358.3943558685
561, -1091688.0703358636, -1321945.673416517, -1188600.7823632201
562, -1061941.84073759, -1337154.5202440778, -1195790.0706768231
563, -1076575.755433601, -1319685.37790014, -1199252.9256184935
564, -1077877.1316316975, -1328895.7385897865, -1195137.6227122264
565, -1081585.8506560032, -1347133.4843954432, -1197164.1569374534
566, -1103187.8022714725, -1323358.8773119524, -1195329.3208060989
567, -1112005.613915314, -1297162.5914466125, -1196325.2396980547
568, -1094931.3280179955, -1338673.801224125, -1204425.81129201
569, -1063714.1768365512, -1336638.0602138182, -1202360.00356734
570, -1073301.952116163, -1335177.0738055313, -1197825.8292598734
571, -1075131.2179151778, -1306573.5645421788, -1197214.015307804
572, -1072886.4214613829, -1341864.0016653198, -1192724.4194757561
573, -1106986.1607650504, -1354141.243898342, -1194591.6464525904
574, -1115081.0983059718, -1307498.3355942348, -1200115.1025135485
575, -1110965.9568994404, -1313403.9771166092, -1200395.5113398547
576, -1107501.966136013, -1348877.1847818634, -1196630.7517110081
577, -1101778.3930216683, -1348503.710552909, -1198652.4222346076
578, -1092827.4211257838, -1320324.760562967, -1197896.5094517528
579, -1111032.3634155642, -1312826.3465873913, -1194879.5545004194
580, -1109751.4447501074, -1322296.0499182597, -1202789.0314931273
581, -1096424.113021282, -1319410.1672496488, -1196442.9603545303
582, -1084381.550474664, -1303337.4815513385, -1193700.1827881986
583, -1084854.9127965886, -1341946.8026457517, -1202294.6521624338
584, -1066735.1130034148, -1349109.6230267708, -1200272.8819677976
585, -1089929.797348839, -1323535.2401424686, -1196486.6651786729
586, -1065007.9299120484, -1293609.0423401801, -1185014.8241146856
587, -1081704.436932813, -1324504.506718207, -1182333.8031267861
588, -1074993.5227085578, -1367174.3956470084, -1172873.992787388
589, -1067272.0960004432, -1279099.9131715195, -1163681.6809983836
590, -1079500.9521384048, -1241427.8250870924, -1156446.9023490814
591, -1066545.5374441813, -1259850.4792952142, -1156647.5308036502
592, -1059868.5935367688, -1295457.2224049808, -1159299.9955719316
593, -1062127.1407499665, -1300720.2788685795, -1162212.8485240545
594, -1066926.44845914, -1293147.418223745, -1155980.6381134463
595, -1059498.3984810838, -1285394.899878797, -1155316.7497766668
596, -1066385.9198941994, -1292329.2552070047, -1160981.157202904
597, -1049514.365967692, -1286468.7723906154, -1156697.4849858112
598, -1052625.8546470744, -1311766.9024817622, -1157142.1647661715
599, -1056409.327485805, -1289662.3585022325, -1155669.715215665
600, -1061906.3694549317, -1312776.8816352452, -1157166.1901155582
601, -1060089.637989207, -1253400.0148570468, -1155385.1292153997
602, -1060401.5813527836, -1278337.374928409, -1154976.4949875567
603, -1065643.6121156907, -1268908.669717749, -1151383.2129901985
604, -1050893.6049394468, -1291945.5248467221, -1156933.814912069
605, -1073408.8140513832, -1292242.136014888, -1166061.0492213264
606, -1057798.396438192, -1322153.524164198, -1168609.9781133796
607, -1065880.4123699716, -1283936.643277584, -1169614.1876076942
608, -1045602.0214074077, -1339772.366159627, -1164136.170901299
609, -1063898.2274667912, -1268774.7417280558, -1158119.6161706958
610, -1047945.4515665942, -1313385.4953473317, -1154927.0774192668
611, -1034421.4207225263, -1264340.3269394024, -1150579.530320613
612, -1052882.423234292, -1314795.945005359, -1144678.9785027767
613, -1047194.4579879304, -1254890.9038748923, -1139345.5887125493
614, -1059395.9571664478, -1254874.8343515866, -1143718.8531922193
615, -1047110.484462959, -1258329.9274100047, -1145399.0395587122
616, -1060906.7988467917, -1303626.5341700523, -1146552.735768814
617, -1057398.7280554406, -1273686.567593442, -1152073.3071416044
618, -1067623.954181139, -1286847.0967540496, -1156710.457008592
619, -1049374.6701791235, -1259268.0155680866, -1156478.449423951
620, -1042102.6162101848, -1296968.2107375558, -1160096.4382268665
621, -1060875.4337799137, -1261467.5945088484, -1152958.4398073473
622, -1064959.2129487381, -1250500.1755126005, -1147995.0323362509
623, -1045619.173768172, -1279921.41490856, -1148917.6044572804
624, -1058467.537812594, -1281597.2693674352, -1151747.1218577274
625, -1048833.717144826, -1313189.1677526643, -1153072.9727548098
626, -1041876.2043592497, -1292252.155345793, -1154149.2842932777
627, -1040572.6800172937, -1294144.7230639535, -1152176.98503375
628, -1020510.2336224606, -1239351.313752257, -1138410.8078306406
629, -1026120.9149078659, -1288371.6765469078, -1135464.2227042594
630, -1045807.8219336383, -1250606.5031526068, -1133414.7682874636
631, -1024308.4423071649, -1258898.8087912826, -1131834.3171702584
632, -1043595.8262252714, -1239552.387598866, -1126608.3174771585
633, -1046225.3175604376, -1226407.4192831703, -1118408.5167521199
634, -1032113.4510420489, -1224856.781746246, -1119805.9441724906
635, -1030566.2004506453, -1232818.5647350228, -1119545.270157667
636, -1013123.302460154, -1196950.694228761, -1117001.4213916878
637, -1023543.2803559997, -1247754.3278906057, -1121411.094925859
638, -1016006.9067035071, -1222929.8285501315, -1123490.0999469403
639, -1015704.2496646042, -1267875.9950281817, -1124033.449259321
640, -998669.4313756023, -1251169.3181621013, -1122549.0977522181
641, -1022856.9972344791, -1245864.8056711766, -1116239.968074165
642, -1044693.1005332589, -1238416.4977907336, -1123908.4465189853
643, -1028874.5851316573, -1247337.9547119117, -1124154.1638514714
644, -1024900.9318963487, -1238701.0573767375, -1122996.9415595045
645, -1031135.2439883938, -1294293.384552121, -1119276.7916433362
646, -1014388.325755869, -1255367.721544418, -1124688.2065138435
647, -999574.5038781061, -1281743.7329653446, -1119240.4173970895
648, -1012967.9001748716, -1245327.6547237094, -1116809.8885108475
649, -1030312.9014378828, -1221580.6755203942, -1110497.60575102
650, -1013777.9470470555, -1228703.8450951872, -1110699.309203239
651, -1029835.5042925957, -1222343.4243444554, -1111280.591396359
652, -1010489.9795166666, -1227088.1000959792, -1109335.4113800824
653, -1001019.4554184242, -1213065.7148960405, -1102404.7517999294
654, -995404.98249031, -1246949.4071069148, -1095653.8908009168
655, -1016751.4597225823, -1201794.4389637203, -1092303.9234546118
656, -1014221.9485780096, -1220657.5356795504, -1096117.4214633799
657, -1010772.399053673, -1239695.8569145014, -1094474.3890238067
658, -999916.459301166, -1167490.2115108878, -1085728.965945253
659, -1007166.7193520835, -1203750.6024577983, -1084901.114540101
660, -979510.7185466101, -1201107.3647854475, -1082992.4909412635
661, -993046.057972121, -1187175.8684218933, -1082031.013718111
662, -982982.6979107815, -1191889.9662942956, -1087392.434098569
663, -996028.9246307942, -1218318.4513296809, -1083915.6227228928
664, -1008288.6585877759, -1174626.3667638411, -1083990.6453099314
665, -1003315.3652144461, -1228878.4391994255, -1088706.1505555522
666, -982318.8553834397, -1189273.039949138, -1091896.1145373974
667, -990555.3297796955, -1196939.3020592711, -1087598.4162984376
668, -982048.620702238, -1203121.1375306875, -1083919.3498143072
669, -993578.5559079875, -1198779.5963358886, -1092042.8858736837
670, -986290.4253258987, -1226649.5484239901, -1093097.6515351867
671, -994289.6343662064, -1218254.880110067, -1098248.6084301262
672, -979314.5351016319, -1197846.8460967236, -1094496.1171281787
673, -1010276.6644612753, -1225883.6331170097, -1095894.8064748473
674, -990942.1878647292, -1214112.7654673178, -1088874.3590915673
675, -991550.8298901215, -1207126.0609114878, -1087251.3276236576
676, -996327.3987002796, -1190626.7825231177, -1082751.412480732
677, -969016.6254068885, -1211753.6184507667, -1082573.3197305216
678, -986092.965293712, -1169180.689682466, -1074403.0084890919
679, -985057.5775454124, -1219476.2799333043, -1070319.2471626408
680, -980928.9520017572, -1162156.7115888633, -1066543.528643967
681, -984278.2122613518, -1167554.927818432, -1062058.0122353784
682, -967919.1836309845, -1181760.387899913, -1065707.012639198
683, -973175.728540743, -1155413.2341392715, -1065082.3702296207
684, -943705.4494770803, -1170602.4395610548, -1063438.4969988426
685, -967017.2356797676, -1186924.3879386634, -1064332.6886994718
686, -973090.4972520946, -1186688.1124706431, -1063089.3617032901
687, -970409.9296752037, -1175662.9474404322, -1062002.0270329432
688, -983699.6214347603, -1180395.7824691825, -1063326.454260185
689, -977896.7002378381, -1213485.761525657, -1064589.085780087
690, -968009.2878519215, -1154721.1152287002, -1061652.1792644057
691, -984791.4153396406, -1178293.9360009166, -1061154.0378649696
692, -974883.8894413423, -1182366.1630646852, -1067168.0104569008
693, -972383.0213389627, -1183477.6300506978, -1069019.7719326257
694, -994593.1377999042, -1206877.9904610107, -1072350.8703606634
695, -998105.4416703484, -1188230.3135952563, -1074817.4433342451
696, -988280.6965721904, -1190529.6906546494, -1080003.2848473592
697, -989784.351687998, -1217318.9303010132, -1077310.8222423324
698, -992805.6969145944, -1226111.25995566, -1073212.7002361878
699, -985583.778888481, -1177069.0951136984, -1074902.4366941461
700, -985682.7685388846, -1182791.3427866595, -1078192.6006847678
701, -1002451.7686679638, -1218667.6845886132, -1085369.6471451449
702, -990959.2242688441, -1225799.9585595196, -1090642.2403389607
703, -995049.2792229897, -1211440.6607869775, -1091946.3687584174
704, -1001616.5543066794, -1207126.1544804017, -1098160.3097622127
705, -1017967.604837935, -1205061.9373220708, -1104877.5207403803
706, -1008420.355850484, -1241834.848069579, -1108490.5156084218
707, -1019528.647051652, -1221101.0382336287, -1117158.9963393307
708, -1021264.412886132, -1263004.513684721, -1114911.3471375313
709, -1004117.3544214871, -1247739.2209611495, -1117046.1321631442
710, -972090.0848118362, -1298342.9406165748, -1120012.7157972709
711, -1018501.31316647, -1245255.7338186943, -1116449.8011677999
712, -1010311.4112662948, -1237816.1615062025, -1115545.9468140719
713, -1012916.8156331098, -1226952.2858234365, -1108711.6057660794
714, -997410.6979989817, -1255824.8466878065, -1108591.9481662097
715, -996818.8402414063, -1205645.579628771, -1096540.4266448703
716, -968109.2173488301, -1279789.9583256922, -1096857.100310777
717, -991244.5141748101, -1219015.9506670048, -1100852.0635550625
718, -988037.5994330985, -1218350.9008038635, -1101859.545125311
719, -980532.1077608389, -1234780.8832624003, -1096236.3556288998
720, -986545.630690136, -1221197.7053973936, -1090926.5550522741
721, -997115.6940207363, -1207881.9982356841, -1091366.9950792536
722, -984378.8147578056, -1185875.0443192425, -1087068.4431474847
723, -996487.9286929658, -1243200.1333870993, -1081876.3192137205
724, -994757.7427743091, -1206757.1893877666, -1081592.9873698908
725, -975250.3528463636, -1195679.1984568203, -1080095.448059478
726, -991861.2381409798, -1219641.7286497296, -1079825.6665285584
727, -973094.775231285, -1205651.9365485993, -1078497.9435292892
728, -969122.6144246163, -1192547.018756595, -1077352.4810035161
729, -981570.7592296463, -1231119.7677001301, -1072057.2387618956
730, -959995.4786489699, -1192362.488246752, -1069432.8750868991
731, -966839.6258794547, -1216917.2225127781, -1068317.5959918215
732, -979339.2805464494, -1180110.0460005086, -1067433.9709684395
733, -977222.2767069889, -1173183.7531180405, -1065305.4351145905
734, -953188.1579977623, -1245827.9412154465, -1063393.4430530642
735, -951098.637337555, -1188773.2631499115, -1063725.8748203898
736, -960065.324029522, -1155661.7427198314, -1062035.427119096
737, -962296.8146538008, -1179008.4526375583, -1063282.615363313
738, -933500.7347352908, -1178846.99069864, -1058256.2220386353
739, -928501.8998935746, -1184533.0959743136, -1048713.2498041193
740, -952827.5023522871, -1170504.8351141664, -1038261.9776287368
741, -955224.0145398194, -1166416.7340987273, -1037624.6419553991
742, -958669.7087744009, -1145238.7294300958, -1037990.5370900809
743, -961390.8282670088, -1148364.078138195, -1038972.9069564224
744, -939810.5835195924, -1172041.8953802227, -1039811.4563725789
745, -960534.1486949446, -1136875.38134067, -1038677.1778745227
746, -954197.9614050826, -1166208.295529708, -1037271.9567957342
747, -950920.6574899207, -1169300.3493339708, -1038549.5129062734
748, -951081.2657958453, -1131143.4848234295, -1042812.4504515511
749, -960820.1286798939, -1178578.1993890607, -1043793.760263244
750, -959719.5743373458, -1166055.0923903713, -1043980.5077349312
751, -948964.363668187, -1160749.3508878716, -1048178.1453411137
752, -967720.971487469, -1149213.6081097384, -1049275.4821272467
753, -958378.2090640645, -1171700.7843770017, -1055704.8168019769
754, -961228.3270260587, -1241508.8650712455, -1056442.216023788
755, -973903.3704143066, -1152413.2771274527, -1060669.74538279
756, -959891.2789506537, -1152278.4510594609, -1056519.0171260135
757, -948567.5591643588, -1188588.0072903053, -1056946.6486639185
758, -947034.4045776846, -1179317.8119964888, -1060445.499254267
759, -947238.2953742822, -1227086.7813407457, -1056262.8933541246
760, -957157.9501279865, -1155904.0151632815, -1055993.7331090444
761, -966090.47353825, -1208622.636869116, -1056764.136505732
762, -964003.9733165526, -1186531.1598068664, -1057948.4145585638
763, -957663.0480613937, -1182684.2246001714, -1053125.781870872
764, -959843.4298957142, -1167113.774806008, -1056521.5537951435
765, -977554.0313169002, -1208232.1302250277, -1059802.6210268054
766, -928265.7696025276, -1170480.3388774167, -1060289.7902369876
767, -972006.197978698, -1175407.7795056237, -1062579.3344850112
768, -969737.3858167392, -1168403.6841054831, -1060789.7623681922
769, -974230.4166546871, -1179332.4623403088, -1059550.3218396537
770, -970636.8822379578, -1191978.2918441663, -1057647.650313837
771, -960107.6444810184, -1195643.2430161664, -1062325.7991789472
772, -968605.2257560929, -1191550.7023553492, -1063713.1641594789
773, -961689.6298780025, -1218623.4228661566, -1069129.2180287133
774, -975561.4122977445, -1228999.5485974164, -1069031.5917491722
775, -960129.0975653552, -1195676.9692315976, -1073049.181974679
776, -981475.0103657793, -1228202.846374698, -1081253.6111566157
777, -992137.7643543237, -1202107.8949676752, -1083989.6700088808
778, -978901.5891139684, -1197242.789787555, -1084892.5805951909
779, -998456.5695800018, -1183464.338583168, -1083699.5505547554
780, -992738.4659517587, -1185502.9009935942, -1085264.4764659293
781, -1004116.0112449806, -1202158.761878088, -1092812.1621071897
782, -998464.2846307668, -1205568.490411882, -1096815.078681125
783, -1000689.5231027, -1202356.949223525, -1100150.2935119492
784, -1007439.6935129471, -1199101.9732870716, -1099127.1067964039
785, -980082.2003223444, -1237452.8977019242, -1099178.041187865
786, -1005157.7297834374, -1207769.3128112291, -1103098.4241792045
787, -997302.7308896026, -1201675.9501180416, -1098508.4537175226
788, -996794.092183335, -1246014.3351038622, -1105583.5175997415
789, -1006428.1445458231, -1236385.7276997946, -1099354.8758481408
790, -1004225.3311392141, -1215093.4557122528, -1096667.978316917
791, -1020826.580543696, -1258815.258235985, -1103126.2288697262
792, -1000860.7277338654, -1235548.5579089888, -1100686.767782381
793, -1012483.4875790244, -1209902.0318211839, -1095062.4654595319
794, -994076.932266403, -1188611.085776481, -1086536.9345828895
795, -1001000.477508093, -1204990.364064025, -1085584.8706066937
796, -988610.9801301842, -1228382.565212212, -1086216.317691762
797, -981977.5823357168, -1211595.019671424, -1086753.5132563915
798, -961848.3821012853, -1204600.0980681956, -1087562.8106163389
799, -979848.3582578469, -1172444.288670764, -1082383.2815546775
800, -973659.2594080351, -1217488.373405323, -1077265.628423523
801, -965479.0821014538, -1180148.7149365311, -1074225.751001149
802, -971879.0823212804, -1174047.8427561887, -1074259.9217807257
803, -966969.5043386663, -1185267.9786493815, -1069821.5023461014
804, -957305.7135328299, -1175958.1201800094, -1067183.027354891
805, -970723.7723550168, -1161804.9044452205, -1066866.7801643787
806, -936699.0452714926, -1166372.4188162235, -1063337.350925385
807, -970767.7841719545, -1156353.9779975882, -1057628.0896025808
808, -968381.594679699, -1206589.742201854, -1052963.7784231545
809, -963169.581987804, -1167399.093872364, -1049985.9635374523
810, -942243.5619690805, -1152508.3379208418, -1046605.2759903321
811, -944860.1044765981, -1145534.9210071296, -1047276.9496704434
812, -967821.7602553002, -1149860.1154976767, -1042540.7307044449
813, -939379.1785746661, -1150718.2944849345, -1047201.4211745777
814, -954973.6335129167, -1164705.2816085452, -1043753.007788947
815, -963105.6965538647, -1208054.5378746393, -1046689.6579590355
816, -957892.3590823712, -1151162.673151834, -1049695.0108214384
817, -972405.9331162502, -1166271.1332155664, -1048979.0483461854
818, -940140.5296637565, -1166811.9807279236, -1055423.7395351755
819, -941342.0751452462, -1217124.2950497305, -1055602.103207158
820, -952436.3296399701, -1196293.882709125, -1051332.0454272053
821, -954985.282773861, -1155021.1040391151, -1050967.4838421443
822, -953517.1526035836, -1190400.5585556924, -1045961.1251445122
823, -957544.8080170127, -1170789.893832793, -1048907.6882298624
824, -952872.1351500473, -1197032.8035045909, -1053940.1273838435
825, -952058.4165301423, -1165565.6525791, -1056176.7667069766
826, -957539.3470776649, -1172474.778497258, -1060743.409243836
827, -965428.9058967889, -1260075.2322189067, -1060850.0398390156
828, -954512.9962894476, -1245562.233366197, -1059690.9355818974
829, -968155.121342757, -1155082.2053198877, -1054809.7131533918
830, -966819.8149317103, -1181160.1771312226, -1058132.6361041535
831, -964903.3342033129, -1172225.7540091001, -1051407.1194991327
832, -962513.1201991776, -1156311.0161406149, -1049221.3476890496
833, -956593.5331463614, -1148603.929860939, -1040640.6766148997
834, -967486.4705845236, -1145988.9315693818, -1041014.760779696
835, -968333.8025048282, -1151398.7595600965, -1045474.1205646079
836, -956921.9264551087, -1169913.358746164, -1050679.8299127403
837, -969037.5026758639, -1189817.1550899544, -1049611.6942338904
838, -967898.0012000261, -1168277.4918653802, -1058832.4660657023
839, -943688.6299961512, -1187582.420288866, -1060269.1170623663
840, -962107.6751813511, -1152694.1394367444, -1059855.3592682006
841, -961587.9579442972, -1253210.066619269, -1067505.8344284457
842, -962469.7875120356, -1177879.6469685787, -1065395.7368759657
843, -971913.965999179, -1193539.7194945707, -1066551.4816007512
844, -965546.851806523, -1182565.7820773984, -1067527.8048269474
845, -977989.5970037971, -1192354.8725863951, -1071914.385193992
846, -987275.1526814979, -1236023.082791299, -1070640.4482246803
847, -978139.146727615, -1208016.484791851, -1072785.9826841562
848, -960246.8020078202, -1180582.8873063575, -1074283.4834881
849, -971178.311518946, -1186817.3055677072, -1081118.0008038296
850, -970396.0194019158, -1220818.7294096362, -1083258.5321226625
851, -974926.6160207302, -1185566.4659674931, -1082380.518788461
852, -984859.8880928231, -1168243.5820064854, -1077712.580314653
853, -981801.3317565056, -1204973.8860393448, -1085624.5308678169
854, -998052.5086714132, -1228444.5006529621, -1090266.4028331616
855, -1008060.0658866945, -1218302.0450258378, -1094314.0985250445
856, -994296.7544379185, -1225962.8609680538, -1095405.3722767842
857, -991954.6731508141, -1197758.0436563494, -1095650.7794656972
858, -1016107.9660788197, -1235444.0969327483, -1100309.94222425
859, -1023688.2132778382, -1243841.4634588778, -1108433.290795455
860, -1018460.7353952327, -1253826.5793749876, -1116607.2915840058
861, -1024490.563503111, -1309260.1474617876, -1117503.2500130592
862, -1015413.0695983174, -1246352.221999561, -1120144.9265707484
863, -1030119.3159289972, -1237126.8404402852, -1114727.1451467304
864, -1034417.7324854184, -1219265.0777021083, -1118511.2660946345
865, -1000461.7148566933, -1241929.707363544, -1124894.554074692
866, -1023704.5688906072, -1267948.3622163085, -1128394.7926302901
867, -1024253.4338216877, -1246260.7120602296, -1125492.632916636
868, -1030898.9694572913, -1299643.0338230566, -1131495.3645817493
869, -1041115.7783569829, -1256004.244653385, -1137275.1088689447
870, -1052800.1934505773, -1285924.049134023, -1139668.420373651
871, -1046085.7779394756, -1250079.7949705021, -1139375.070113151
872, -1042900.3579205826, -1295214.7698220813, -1141679.412038285
873, -1043762.1977686195, -1301235.2130425866, -1148087.5933050022
874, -1037815.9132025517, -1283756.730233487, -1147540.1124088254
875, -1062636.0778176351, -1277698.4610788792, -1152855.271700726
876, -1068651.9550953074, -1291291.3579705008, -1152668.1727212814
877, -1073402.509193806, -1383131.8853402478, -1163044.7767655065
878, -1069446.1266053792, -1350118.3261419095, -1164745.5920518006
879, -1057821.5403050014, -1271818.3328825873, -1158443.190154105
880, -1038178.2685779005, -1254988.3666431096, -1162327.0620016567
881, -1062282.0607744844, -1283961.6670695392, -1163205.4324001197
882, -1053878.81161249, -1284130.4996916873, -1160391.4948078499
883, -1048839.6088649563, -1294055.6000143702, -1155363.9029794545
884, -1055722.3244720553, -1269596.8910849832, -1151866.530678525
885, -1064520.7247524725, -1259214.2986499963, -1150615.0107267322
886, -1059859.7494590792, -1322078.9926290945, -1150006.1872735128
887, -1043234.7865757535, -1284434.5329121286, -1154493.0972951963
888, -1035449.7850666912, -1286590.310788107, -1154327.036766356
889, -1043460.7095617941, -1268012.61228225, -1149302.9123853447
890, -1043460.7095617941, -1266236.782647892, -1140876.7199775374
891, -1034366.8641691094, -1265313.6724896464, -1143992.1775989446
892, -1055517.248978238, -1269378.9081824503, -1147730.3019646925
893, -1047582.2546261849, -1296667.8124237887, -1151018.625174183
894, -1069176.416325179, -1304318.3548569228, -1153898.9878787994
895, -1068110.9951943464, -1332311.6143147107, -1151502.2494554552
896, -1023982.9906624695, -1275890.5375600252, -1156598.3387819428
897, -1039436.3594210956, -1282298.022136676, -1156955.8025288733
898, -1042564.7763924326, -1303853.3374907097, -1164350.0938782964
899, -1055122.7777649686, -1290193.2716980912, -1160936.0172641193
900, -1051560.6027492913, -1309633.4899543058, -1167070.4718239764
901, -1069433.2146082737, -1312508.533269063, -1167822.3359485501
902, -1069558.7739500098, -1269481.7442582357, -1160349.1510065624
903, -1067991.9103862455, -1278010.526057465, -1158891.4015895897
904, -1054035.3334653748, -1261378.2646006786, -1155602.5232624451
905, -1038608.6913172193, -1268915.889772091, -1150100.1869504384
906, -1034220.8050782646, -1270147.2387412393, -1147724.9077798352
907, -1049920.5895684245, -1320552.9425204096, -1142284.0223641365
908, -1054932.1463800147, -1277234.1490643062, -1136432.1168930249
909, -1048672.444613477, -1272483.468288565, -1137249.3523718088
910, -1055618.20081037, -1262094.5353914443, -1139210.0944164286
911, -1062766.47947578, -1245340.9491416428, -1134097.5608795513
912, -1058311.923857525, -1252229.0594103832, -1135906.6725786547
913, -1045519.3476270954, -1249947.7267704182, -1141718.8412536378
914, -1054906.7764931899, -1242501.6751817805, -1142604.6827054403
915, -1059940.9688556956, -1228888.131638008, -1140912.094415275
916, -1062867.247467538, -1274752.3757959993, -1143966.6374779264
917, -1060714.7031564943, -1267494.1178425502, -1149682.921122014
918, -1056097.206381729, -1257213.02689667, -1154084.3749173554
919, -1051134.4240187823, -1271941.2800037868, -1154327.7508340874
920, -1063432.815723084, -1271573.1970764059, -1157624.3830274849
921, -1070647.4445472534, -1276826.6505238982, -1157002.9374744082
922, -1060452.688283319, -1286042.720925471, -1157652.350396781
923, -1068522.313156495, -1288954.7132490375, -1158469.0785598313
924, -1054064.6320167358, -1275416.3743515997, -1160232.2222913636
925, -1065206.4254853418, -1299907.2922820952, -1165059.0383941294
926, -1079868.8737831877, -1275379.4619356846, -1159247.924589674
927, -1055864.6868818544, -1267702.9678699633, -1160561.0124239165
928, -1068033.0193660837, -1258071.541062999, -1164627.0370686464
929, -1064564.2826868754, -1287006.7435464987, -1173570.7597270422
930, -1050345.1409568947, -1269734.387137553, -1171511.949734139
931, -1072060.4254915568, -1324522.3375958514, -1176024.2455688994
932, -1069910.754736428, -1295379.7244454152, -1175605.161576666
933, -1088709.1845828164, -1297941.3124537624, -1177878.146405563
934, -1076608.7350468615, -1306542.8803803849, -1179986.2254748177
935, -1045994.0509403357, -1297555.8987942596, -1182626.5538672295
936, -1042209.0506867708, -1301609.0726555868, -1179013.4119321108
937, -1079593.3152208985, -1335613.368782933, -1180435.6941741912
938, -1079472.2206658968, -1336831.5017413741, -1176657.1547091487
939, -1065614.715067034, -1291585.720357035, -1176504.666624258
940, -1079761.5664265098, -1302124.7478130322, -1177625.9211264073
941, -1058161.5422573332, -1295415.6886260582, -1171560.8917147473
942, -1060331.6543611416, -1262784.716190319, -1169733.853643248
943, -1089061.604056651, -1294473.2059182506, -1179044.7207853363
944, -1080863.4468943446, -1282282.9104796979, -1180261.5297199178
945, -1079820.766341707, -1281834.3891938585, -1178555.1377813425
946, -1071755.1798063496, -1303503.6797178509, -1178435.5378662052
947, -1093295.0233560072, -1305209.2925476197, -1183242.6315387187
948, -1093705.1643032506, -1308076.5932156364, -1188363.4201683481
949, -1091388.217545959, -1366685.6978322486, -1196255.2304134096
950, -1101389.1954140014, -1336867.0492353986, -1207161.5033156762
951, -1125410.1409784777, -1341040.8847475662, -1209205.7378335511
952, -1124007.567331702, -1327696.1512729346, -1217683.7978872673
953, -1110141.8698120401, -1342871.812175185, -1216127.707259335
954, -1118218.5041007872, -1359131.1779805706, -1217936.047487277
955, -1120143.489508533, -1336625.6040254596, -1216807.9944142457
956, -1088420.1022196072, -1369714.6643104735, -1218674.8226509744
957, -1103473.9233839512, -1334908.2039822983, -1213456.8773463748
958, -1107927.824686408, -1359050.756412681, -1206441.531988875
959, -1100608.2184042372, -1310119.1938859553, -1202729.7181205354
960, -1091567.9958205465, -1333497.1790100127, -1201959.8525953603
961, -1081595.2172124495, -1341086.797652091, -1203595.1787811301
962, -1114283.0931691432, -1352458.6777617333, -1206068.0286464219
963, -1099829.4347220887, -1350781.7212675668, -1206079.551179601
964, -1096017.5682574196, -1320698.5340466008, -1203026.1553881536
965, -1081184.5794476105, -1307766.2489825934, -1193967.6255333982
966, -1076516.1553091132, -1329512.8077352748, -1189925.9380961333
967, -1089972.2185836898, -1307062.5597987904, -1190180.5606684047
968, -1091235.7065733161, -1330547.4484061198, -1202334.1080902293
969, -1100089.5144895467, -1329602.7286810959, -1204026.7951038745
970, -1110937.8063899528, -1378126.6043325868, -1205753.886953554
971, -1119237.0057352323, -1321183.4688530972, -1210073.0503323767
972, -1113460.261401646, -1345499.868470805, -1214653.3180147493
973, -1114697.043816884, -1353227.220619581, -1216637.2677189223
974, -1111827.5951838365, -1316722.179057786, -1206411.1643923833
975, -1097042.3402744802, -1340566.9915308214, -1216601.1241237307
976, -1103953.7931706782, -1371044.5601505449, -1208791.811056932
977, -1082154.567794284, -1327670.4753952194, -1199234.0611640306
978, -1092490.6403518508, -1344269.546274029, -1191599.218020922
979, -1094371.9698256333, -1327871.073042053, -1187407.4216502327
980, -1075119.6644781611, -1280577.827064396, -1178287.866718852
981, -1082907.1069865683, -1318746.8920915802, -1179959.179830335
982, -1081343.280394218, -1301202.5174851303, -1177555.2921345052
983, -1081625.2835113762, -1283413.8173015865, -1175486.0471262468
984, -1048161.8616098366, -1286041.7945811704, -1171574.701684486
985, -1083940.4075289292, -1324726.7612307325, -1168998.5748793574
986, -1068937.0280110869, -1294926.3465767317, -1169862.5861234465
987, -1088308.5823808184, -1267051.6507220746, -1171402.883112506
988, -1094203.0190823167, -1314268.5612424638, -1173772.9454464149
989, -1085064.8035111611, -1295777.7809856667, -1174885.3920516616
990, -1083373.255687949, -1296294.2045398094, -1174826.9077340227
991, -1079127.8953583995, -1300215.7083004331, -1176152.6870695106
992, -1078345.9051799665, -1346619.1126630888, -1180058.665821672
993, -1039455.7091590522, -1302452.1294295623, -1177739.5128984305
994, -1035083.170670619, -1294967.252992643, -1177990.965859044
995, -1039909.970572738, -1320505.632152203, -1175640.7394871097
996, -1036382.7203537801, -1303975.5507177545, -1172592.4558072132
997, -1058656.9530939227, -1318346.6475195515, -1170712.4186420075
998, -1051591.6795277244, -1302944.6447156025, -1167703.8487466907
999, -1041927.3120664987, -1283257.2598013973, -1153839.448629459
