0, -1628090.0375680635, -1915463.9496604707, -1775118.6339857178
1, -1622698.1447265197, -1877433.20637005, -1767347.206361598
2, -1640284.3854038264, -1919419.4526032316, -1767321.9580974376
3, -1650515.827942011, -1923337.0667173075, -1771124.2467393384
4, -1625945.6858209274, -1923147.2969292486, -1774853.5581372844
5, -1667135.277236003, -1886387.6842033411, -1771324.1305535282
6, -1641197.9013899572, -1879284.3618944515, -1773664.8608318046
7, -1616837.317018246, -1920249.5722630299, -1769471.7874144749
8, -1645628.006664924, -1900153.2522961749, -1766822.0178620357
9, -1656062.166776282, -1891820.0962037425, -1764814.0958887897
10, -1656832.6235888284, -1885867.480010917, -1774125.936503705
11, -1646493.4662537493, -1920511.784433425, -1775577.7760955982
12, -1658066.3612638037, -1943254.724817976, -1774363.9273309635
13, -1628815.8316955185, -1880955.1083295569, -1769694.7963825837
14, -1650231.1051544424, -1899633.5864165742, -1771334.3586877207
15, -1646709.4884439087, -1897174.752012296, -1773177.487652078
16, -1654214.8760298544, -1887205.4061693083, -1767976.4520291628
17, -1649398.198197779, -1886342.881940683, -1773089.9783539858
18, -1640229.243982529, -1906707.511147582, -1777112.5918064823
19, -1632123.817507176, -1930969.7755657658, -1773282.5057469055
20, -1653101.712019801, -1882289.7051439248, -1768795.2261041508
21, -1660388.2912120686, -1899634.8636096637, -1767551.3049356914
22, -1630397.1894956122, -1887184.0840455513, -1767832.2529248057
23, -1644683.3230721366, -1866416.507884549, -1763070.4761465746
24, -1635955.9025476351, -1910169.3366969489, -1775251.10204309
25, -1638179.5976504865, -1912174.1495626345, -1774187.5192562095
26, -1641823.7069007992, -1925386.3559982846, -1771625.2200928407
27, -1624688.1557058403, -1896141.0894932467, -1770048.8933895954
28, -1644823.128595669, -1906373.50279225, -1769473.2421946516
29, -1596017.7492294675, -1878927.4815439791, -1775295.5377609849
30, -1652192.9033423422, -1874524.4286261457, -1769455.2839988924
31, -1672998.0150207214, -1905181.3183627864, -1773890.7442980916
32, -1668193.2989976762, -1911567.1811037618, -1773077.6356611901
33, -1647861.5854143372, -1873250.8963591284, -1773034.9657247816
34, -1642033.5181830877, -1893488.6552138655, -1770817.0755714595
35, -1619320.8239550735, -1907893.1340358984, -1770317.0431448778
36, -1640300.7069699485, -1899331.7572957887, -1769073.8193627368
37, -1625723.2123109063, -1907413.4922793438, -1770701.1697184064
38, -1645864.5689348099, -1893690.3041306175, -1770988.1814277167
39, -1648490.2067930747, -1884419.990332439, -1772519.587761804
40, -1662862.6527898696, -1903390.9589917064, -1777398.4108811459
41, -1650799.9879566263, -1878087.9379817517, -1771839.8606289031
42, -1651131.2662937206, -1929107.619025384, -1773491.4873560055
43, -1650378.2294465022, -1906420.0665672026, -1772338.8257230937
44, -1605874.9771044701, -1915791.3949628724, -1774191.2428314232
45, -1635283.970509268, -1904806.1444997704, -1774679.0771870976
46, -1626521.4449910664, -1896708.2245366103, -1773759.5462623232
47, -1656433.091772727, -1894385.080595641, -1769795.2452219597
48, -1650482.8821582627, -1901351.8842891278, -1771712.944129087
49, -1609427.9811138725, -1911807.5203431873, -1768744.478402372
50, -1635459.604380494, -1927617.2999735642, -1771311.099813544
51, -1636715.381378382, -1908685.0925404266, -1762968.000534968
52, -1643741.5190368986, -1896507.3761618435, -1764735.6502237443
53, -1652460.9389414228, -1886457.6079513049, -1770737.88818987
54, -1606544.4773774783, -1891247.4546168288, -1770722.6157208208
55, -1621657.834184221, -1915038.3765847129, -1775301.6331955309
56, -1650596.6788953468, -1881059.5293739988, -1776630.9554063014
57, -1635097.7698512422, -1911638.314566337, -1771812.527747111
58, -1632248.2240240718, -1871611.2709580916, -1765822.0133702026
59, -1659974.1165616433, -1914268.673090591, -1778777.9779987403
60, -1672370.3480381875, -1897263.1759292008, -1778534.598209132
61, -1647399.4675329945, -1904605.7005725624, -1769691.7360487515
62, -1652654.321784782, -1878808.10723719, -1770936.5866255336
63, -1643572.698084362, -1874167.6329730959, -1770681.8856704433
64, -1643880.018657612, -1917666.5742906076, -1776929.241571444
65, -1623254.4592814124, -1890548.7285912992, -1772617.2560855136
66, -1619236.7629656107, -1885321.659978116, -1772960.515570549
67, -1606525.1055737347, -1904245.1350342594, -1770705.399501088
68, -1658498.2113661862, -1893593.6662449106, -1768398.9250420392
69, -1613208.1048225544, -1930482.7311523529, -1771159.1298948426
70, -1634504.5100291246, -1944886.8213719456, -1766711.7236194732
71, -1648581.7996062275, -1891504.3346772008, -1774431.4249914547
72, -1628308.6609011893, -1890113.0028588274, -1767966.093111122
73, -1657664.539784514, -1907231.315413183, -1770945.4882229872
74, -1617657.1980382379, -1915461.5625680122, -1774886.1324658159
75, -1633048.2189839873, -1904143.2229392952, -1773898.7138656897
76, -1623509.001964267, -1890320.0370254056, -1774684.371041969
77, -1641868.3775195656, -1905870.1542625166, -1771125.6976928606
78, -1639001.6217407226, -1889824.7850842336, -1768684.290070706
79, -1585942.3256416756, -1881683.4038360603, -1765661.0390441495
80, -1615940.7621471775, -1895951.9259391795, -1769494.1974330721
81, -1620565.093526359, -1883538.4157184162, -1774031.9293697053
82, -1557173.8074842133, -1901391.5738461255, -1775856.0206720585
83, -1631452.2976359406, -1907192.6740957303, -1769387.701929873
84, -1643545.6790353628, -1916091.2414756683, -1774414.000039821
85, -1641336.6746052555, -1907983.3565055244, -1772828.6572708345
86, -1643667.269434539, -1886520.5941860285, -1770951.5184422121
87, -1652363.497739903, -1915612.1938547185, -1780047.628451067
88, -1622267.409379593, -1903136.9056671956, -1771109.9506573728
89, -1674576.6142785416, -1893167.0635680007, -1772792.2562872053
90, -1647170.6606646886, -1928596.0182376886, -1774890.8656976214
91, -1597113.8165128096, -1904086.137841432, -1771010.8282064134
92, -1643440.6673960136, -1899701.2917801584, -1772163.0307648694
93, -1620719.747008331, -1886347.5212899153, -1774774.1461052008
94, -1656224.6543589514, -1915948.2111355383, -1780038.6220632028
95, -1638079.2095788235, -1917522.0149926743, -1773620.319549968
96, -1670786.5127941999, -1899973.540886491, -1775303.1631760374
97, -1656370.0562436965, -1879305.558605209, -1765719.9576587535
98, -1653011.5558901345, -1899302.295714533, -1770469.7138286738
99, -1653420.4286418417, -1894743.9711407032, -1769697.4542971877
