0, -1702850.8217842071, -1998703.7698072367, -1861054.8013244083
1, -1732624.85690962, -1984470.2373016672, -1836176.2158559493
2, -1712763.4004080123, -1924124.3407163662, -1818174.9124589895
3, -1715312.8190109297, -1928409.079020788, -1805758.6306462903
4, -1688453.6430816476, -1944352.3582262592, -1800975.0645733061
5, -1686847.8431575852, -1923536.3575709201, -1787416.2810225787
6, -1673498.5811128505, -1902550.50894702, -1777744.4227811652
7, -1641840.6442567562, -1906850.3916914724, -1769838.670291119
8, -1650611.2227547525, -1948756.9236527118, -1769703.7717369294
9, -1622479.9525136165, -1930921.1217166437, -1755256.4012764122
10, -1596812.8426237628, -1896012.338264125, -1745163.1649581357
11, -1597011.9950246266, -1864006.6009041164, -1728282.4333228397
12, -1589200.6611458305, -1902312.6606037226, -1713694.9617478913
13, -1574647.0997299408, -1882149.6735153678, -1704460.491821536
14, -1527002.2473446971, -1808545.385132078, -1680919.9917580567
15, -1559013.9812592075, -1833497.1458373815, -1671372.1015499183
16, -1546652.9119175046, -1805774.996249728, -1648406.423698829
17, -1469051.6346401009, -1778801.5609758408, -1642396.4634100278
18, -1501661.0036150704, -1765755.8086489765, -1625155.1816301688
19, -1514295.2786001419, -1738295.4051894117, -1613736.8679253955
20, -1496608.274677256, -1722006.2496114108, -1601802.4336623095
21, -1511169.095065895, -1747461.7636022307, -1600185.8627515845
22, -1510752.7394142128, -1728441.690805364, -1601724.8980305078
23, -1495134.707390144, -1720224.1796759777, -1597883.980865208
24, -1500783.0322990278, -1711762.426100233, -1595363.2339359864
25, -1498930.6991124523, -1718342.1538671502, -1597330.7946187996
26, -1476725.9530933648, -1743390.2405323158, -1599735.6795809537
27, -1465144.4230413823, -1706464.8881356157, -1596622.7196098
28, -1478009.3908688996, -1717536.4146177806, -1595356.3045585202
29, -1484919.6872196132, -1709421.3212010036, -1590970.9743865833
30, -1458980.3611324623, -1714529.2657777942, -1587146.452574912
31, -1442114.6036913136, -1697792.6451092823, -1582096.5554921022
32, -1433392.206341207, -1709911.5341423778, -1571775.7708404958
33, -1436461.822895858, -1692031.5127784233, -1557768.0875561528
34, -1434592.3828938457, -1670513.3983649672, -1545097.5195967206
35, -1413947.3921751115, -1682809.3255402534, -1536773.8072861945
36, -1432471.6481292795, -1648654.4947999083, -1530079.477717816
37, -1436402.8596345372, -1639368.9214506277, -1520281.3045542347
38, -1416966.1092651857, -1632000.0539321867, -1518215.4373876122
39, -1410032.948148076, -1614122.742491774, -1505991.4442311
40, -1395412.724707809, -1643794.1852013401, -1495495.387543624
41, -1398812.0925532675, -1611295.3210366636, -1484998.0512930031
42, -1396306.2708555823, -1620062.9494974366, -1480291.740069624
43, -1379813.5745059687, -1609155.1030387625, -1475955.2001648792
44, -1360466.1212694452, -1588311.7397947821, -1472731.887537434
45, -1367382.2563252212, -1564829.2919733005, -1462681.5803301968
46, -1369960.631509616, -1661443.5632467268, -1457340.0536262535
47, -1352978.8195850868, -1584431.4224803331, -1448576.7225613883
48, -1358305.7097592817, -1544280.7856939603, -1445775.0798164813
49, -1353367.2628838029, -1628601.3121700434, -1449089.9272336082
50, -1305935.824112353, -1600132.265678263, -1447978.06197322
51, -1353427.2696001874, -1567729.853048662, -1446020.5435845102
52, -1330224.1382482252, -1578227.8721765336, -1452157.1766084232
53, -1365238.6045203637, -1548149.750933056, -1452163.2241790867
54, -1350691.1452882974, -1582507.2801222887, -1450279.9745825005
55, -1330248.9919220698, -1590361.2930096688, -1450829.0274566724
56, -1323280.2326061497, -1578712.6244658956, -1449859.963598091
57, -1335421.37656003, -1616169.270357568, -1454515.7457573349
58, -1358034.888350134, -1555536.0624911692, -1449765.816467695
59, -1330730.7843772336, -1557319.0955129892, -1441252.2946529696
60, -1338313.892484264, -1564185.6442814746, -1438079.213437409
61, -1326043.806706028, -1598296.5825572077, -1434601.5776541648
62, -1332107.7360700923, -1543671.5681282156, -1430149.987586965
63, -1290856.5513416496, -1563595.522681705, -1430609.5948583668
64, -1295797.355806403, -1557238.767206317, -1432126.615710122
65, -1325187.5678649433, -1554044.576503434, -1428349.551283925
66, -1307909.0925213592, -1531556.8047712252, -1422432.1558223774
67, -1319677.589573554, -1550884.7163917795, -1413374.944943454
68, -1305688.6389525542, -1549858.7158280665, -1412866.667142542
69, -1314730.226650081, -1526501.9895548024, -1407868.3635883462
70, -1303361.7454634903, -1536568.2535983068, -1402238.121313489
71, -1283265.7735383557, -1551672.5829905833, -1399359.866892213
72, -1277660.6997914123, -1519152.5917190537, -1394064.875953918
73, -1278881.400045005, -1531528.4188651526, -1385688.6196649056
74, -1259685.8589914625, -1527476.1820718742, -1384343.9631294012
75, -1252250.2057423927, -1486654.8624650715, -1380719.8839830272
76, -1248646.709526109, -1535986.1011605964, -1377804.1843842082
77, -1289610.9554590378, -1484842.867109767, -1382125.4372184358
78, -1283858.1810109925, -1512713.7581252728, -1383358.5206043636
79, -1269490.7694242955, -1493243.1365236081, -1386314.3194227852
80, -1277915.7338081955, -1505120.4515044563, -1383804.0931796955
81, -1277499.4674874702, -1561460.732940512, -1389182.5826065904
82, -1278869.3766413396, -1503589.2580875608, -1384155.7977794954
83, -1270593.3785110249, -1524731.7954573182, -1379504.6651275211
84, -1268609.6686988284, -1509980.7460161222, -1378662.906578894
85, -1253257.6114014378, -1491249.4306195965, -1368515.333938744
86, -1246037.56354195, -1469343.1107764682, -1357449.5041300873
87, -1244236.0912526292, -1522868.4040207972, -1360417.9359689555
88, -1253389.8299868035, -1475036.0915182983, -1359097.5310028223
89, -1226661.2315133724, -1510119.9896614386, -1362625.393117207
90, -1210842.0077803151, -1470448.8422174964, -1351260.6688869633
91, -1245053.929960576, -1461702.8745859186, -1348929.1356367592
92, -1238098.9458902134, -1473835.0574773492, -1340968.9211356284
93, -1224287.4648614118, -1469512.2466970247, -1333332.2911875844
94, -1210660.8415983433, -1464444.0338568378, -1323888.644517768
95, -1216531.0052442634, -1432829.773697056, -1314620.9235991377
96, -1220347.9621461665, -1420205.7645475264, -1311097.2771903996
97, -1211108.2320399326, -1432869.7045932454, -1309087.4079932412
98, -1195286.1208171942, -1409971.1578808625, -1311142.5891175938
99, -1207531.1075914812, -1431556.5628626617, -1311872.542737833
