0, -1564712.9613298748, -1741010.6633381457, -1647687.4391232452
1, -1519238.0930359708, -1720462.1380551406, -1610846.2913584143
2, -1482948.4285496054, -1698468.8256805104, -1579969.3114959612
3, -1446707.4248508997, -1669432.2304898596, -1542050.7353760528
4, -1427130.9878246952, -1648011.6849845147, -1488777.6201436112
5, -1385846.6428544424, -1539338.3610513932, -1455670.6974236998
6, -1355412.2722103773, -1520676.8141304716, -1423526.043012133
7, -1314940.194130119, -1476568.3771988342, -1388152.5401225123
8, -1300790.5177120815, -1452334.5340994087, -1349600.4163502664
9, -1272103.749314247, -1425501.5596107314, -1325679.3010971118
10, -1236705.2785831306, -1409790.4643607493, -1303497.1958717252
11, -1227409.9924374884, -1343527.2370532823, -1271552.450774172
12, -1207586.1742279793, -1321877.5095822297, -1252535.173425058
13, -1190788.208770889, -1304275.442363262, -1236203.4720816002
14, -1159982.5309081317, -1329017.4368699987, -1224605.7007266742
15, -1138742.637901564, -1264050.3272308856, -1196247.3348306294
16, -1107848.8395475314, -1251543.6917809718, -1177064.60834097
17, -1103114.2137325646, -1221587.9603662004, -1154881.9614298826
18, -1080665.4844359208, -1193681.8234624323, -1134436.1369112819
19, -1068985.9270816178, -1193394.1988692982, -1116449.6506455103
20, -1056085.7003780652, -1248801.5793798533, -1103990.8680130872
21, -1055202.2487476363, -1163312.657715773, -1089622.1253952556
22, -1049768.8213142478, -1152351.6632756188, -1083391.9658529367
23, -1045186.5999009227, -1144941.8668955714, -1079264.7957837153
24, -1030049.8707245209, -1156427.886087201, -1077915.5725949623
25, -1023422.412071181, -1127984.5311443824, -1066753.9363224648
26, -1014861.9714319136, -1136224.5052498626, -1055587.7198839956
27, -1004411.2694133464, -1139198.265244454, -1046796.7167043311
28, -983896.2191551568, -1110860.7600138728, -1038348.9138252542
29, -972302.57164037, -1114337.9776941426, -1029470.929386963
30, -969416.2224637615, -1081260.242413968, -1014273.0606039069
31, -969667.518750171, -1065014.7858113158, -1006511.5294430457
32, -955461.6838555145, -1055626.3893644772, -1001646.3736712558
33, -953397.5365012358, -1091395.9110581188, -996891.8106301654
34, -947668.6699776752, -1060015.9877333166, -987025.8143393866
35, -940400.29137238, -1043699.1059390258, -982784.5653422727
36, -934147.0858171666, -1050016.2349046418, -977998.877980575
37, -925054.5206847633, -1046541.9470167281, -970784.6319628619
38, -920157.8113834481, -1046746.1020782441, -963793.2634418354
39, -919245.6009652982, -1050540.0028569908, -960538.5588898292
40, -911717.514611457, -1047649.6504548227, -958143.0215274335
41, -900257.4664086199, -1024688.5252039889, -948720.0123212026
42, -892581.4587410551, -1032032.1868486577, -942576.5725113911
43, -883723.2781159107, -1022343.0925489673, -936081.3601990123
44, -882331.4477391196, -1012246.8286850308, -928455.4076176657
45, -875369.0381664941, -992644.6683625455, -921291.1360520449
46, -872919.962666241, -1022088.0392042135, -917247.208548518
47, -857675.2938285805, -1011496.8272371143, -911402.003265283
48, -857675.2938285805, -990139.2139296741, -904387.3687104505
49, -846249.2992739179, -973607.4231721167, -894235.8862636378
50, -843927.9529164147, -980640.6129293118, -888340.7066609454
51, -834672.8057321557, -1005888.3773424206, -881761.7040824926
52, -835588.7195795977, -938272.8814681296, -875919.8538298435
53, -830101.2048017781, -955285.5226933369, -876886.7105297432
54, -825662.9999449856, -959961.2577973944, -871173.3867424317
55, -818558.8364314085, -940538.1612802665, -865453.9418825833
56, -808218.1768243832, -959369.2041072275, -861999.563643722
57, -807647.765003047, -950312.8575949713, -851265.9976776947
58, -805098.4593231257, -941832.6388835025, -849558.8896986854
59, -788336.3000843117, -929273.1831026569, -843116.4423084186
60, -788336.3000843117, -918040.0842132312, -837073.3008895318
61, -787276.1383912729, -903959.0924736448, -831063.7556235563
62, -787273.7836698475, -922276.4333511221, -825875.122937423
63, -785063.393144825, -916286.4532442673, -826514.6296848924
64, -780578.4243796791, -915288.755799253, -827796.7839666014
65, -779338.5585721352, -900214.2526171007, -823972.9985526473
66, -777342.9568831562, -936748.7942081213, -823123.0124058379
67, -777342.9568831562, -889034.4176115054, -817966.0037569075
68, -769076.4703369488, -946098.37673683, -818201.7082277475
69, -771406.3950654701, -924371.7825994783, -813722.8378869678
70, -770324.0571087496, -912937.244612202, -810076.0852960723
71, -761498.3275863926, -886573.7756751855, -808045.0325145819
72, -761573.4142494162, -898092.1434938216, -805723.9320639215
73, -762746.9874829217, -905276.4115693923, -803867.6050108275
74, -759966.2938735955, -889440.6104358588, -801522.8383869731
75, -756970.1791187678, -878314.1345498788, -798652.1411665546
76, -759413.122906191, -875069.5782337757, -801208.9966244729
77, -754478.4880913019, -916613.110851251, -802708.4875085499
78, -749796.4669303014, -885986.9924972274, -798801.7443641606
79, -743634.7529629897, -877086.4082576162, -791405.4228517294
80, -737982.6430723353, -918720.0872826877, -788766.9089450705
81, -733310.0815115948, -864551.0852111471, -784891.9065192273
82, -732233.5805497693, -880443.0811629796, -779454.00964755
83, -731826.5456916236, -842960.6243401351, -774148.5667986713
84, -727551.0276003333, -876909.8228743277, -774698.7150508804
85, -727376.034248655, -873024.7808638611, -775430.437766111
86, -728429.4868499395, -855267.1379878737, -771721.3327076146
87, -727633.9154648185, -853380.4911481806, -771535.5703524478
88, -724556.7892552749, -882151.2807548384, -773323.5096978246
89, -716628.4029830236, -866108.6878424683, -766285.0987380703
90, -718002.357649256, -847986.6681124626, -765299.5858009767
91, -718002.357649256, -865595.3155047514, -758100.5930003627
92, -715822.1486294009, -848145.4411332058, -758166.3807559892
93, -713222.213085183, -851590.3631856744, -756378.0955108267
94, -713086.6554386243, -847228.7684717905, -758415.1532632413
95, -714410.8699911062, -851802.6433499877, -756584.7658637781
96, -713042.8930119926, -845405.0910904936, -755243.3426610134
97, -711218.2635856369, -857027.9727668038, -755056.1881172709
98, -710965.0917567143, -823036.1297877869, -756253.6441676508
99, -709318.087621562, -837525.5520366356, -754848.0232432127
