0, -1629161.5659509758, -1848437.6714023799, -1751083.743684463
1, -1604595.2942897538, -1892099.5907689123, -1728658.8241010795
2, -1599694.41776513, -1836375.7097925283, -1705478.6023845663
3, -1587648.2800140837, -1813217.5096575087, -1688449.8365626638
4, -1560365.8993713402, -1810817.528855465, -1686972.8934958745
5, -1545630.0093302536, -1793805.4740766203, -1676754.3666017284
6, -1534585.4232805404, -1784960.144899664, -1668499.707646132
7, -1535331.2530115524, -1797197.9854595987, -1661259.321275272
8, -1533205.614394527, -1780797.324143875, -1650301.8071351373
9, -1505544.9941865187, -1787541.5815310753, -1644164.40487726
10, -1505148.1954881113, -1754869.9389360612, -1633530.3618329815
11, -1482989.479311182, -1802481.9641726394, -1619648.3493838063
12, -1450727.2261191553, -1732320.1121155564, -1602463.1516233326
13, -1469304.2024002324, -1777617.8929557162, -1595717.9118994302
14, -1474194.0822448034, -1707805.7178155277, -1586103.0814405107
15, -1465761.3800484154, -1717582.764511006, -1577612.8316930293
16, -1481936.1334520641, -1695666.7784909909, -1574698.988657049
17, -1418812.6270955827, -1688284.152388877, -1554596.3560373092
18, -1434283.5175730125, -1671955.5126683891, -1545832.4438271746
19, -1407096.5998289448, -1677590.5762912314, -1540197.5272804638
20, -1394861.643642006, -1632683.070120212, -1523110.6564540917
21, -1374158.5757863738, -1628684.7462768604, -1508883.835418084
22, -1389730.6913879737, -1595421.9586535073, -1489678.6842951511
23, -1370192.0472386573, -1609971.5634785714, -1479504.3126949626
24, -1367546.7135417976, -1588896.491158987, -1461464.4988469076
25, -1373026.5699029418, -1540668.6940300209, -1454868.1224943714
26, -1369525.6666798736, -1599185.0511148535, -1446890.5580861836
27, -1347587.3913738285, -1533635.5264313598, -1442943.057618654
28, -1354321.6737190713, -1540054.6935899768, -1437234.0807938657
29, -1324675.9903435055, -1521590.2073111138, -1428104.1404364319
30, -1321397.7196074477, -1571378.2201154835, -1425305.1490172897
31, -1338918.8628186851, -1505625.390329598, -1418626.9345169335
32, -1328825.8703027635, -1509896.5311827576, -1410217.0511280582
33, -1322502.4754641764, -1513144.397086853, -1402882.7754634228
34, -1311522.9866127572, -1511719.6521135746, -1401809.8122465329
35, -1304991.9792011115, -1497178.1130685166, -1392396.8246321534
36, -1311891.7432587403, -1514406.7210600385, -1388737.0613079253
37, -1306706.4573597072, -1551145.9431267763, -1383949.929267029
38, -1286814.204311664, -1486827.2422177095, -1378763.6210190791
39, -1285889.319269468, -1469170.7060753978, -1372911.857441242
40, -1300387.1583936426, -1482298.576270749, -1369390.6147107324
41, -1287822.2805686065, -1494150.396104758, -1364138.6747527241
42, -1274655.7057711624, -1448008.2985734849, -1363140.812955571
43, -1278815.2599681152, -1462731.638932757, -1357825.5174147733
44, -1245996.1083548712, -1433846.52287169, -1352251.2667772325
45, -1247149.7732057313, -1433004.1523161274, -1347060.6979493601
46, -1222393.714010203, -1433812.1341993872, -1343278.156506127
47, -1225540.6979577239, -1508733.1360043914, -1335740.9299042006
48, -1224895.189739623, -1467809.7057974876, -1332926.8348313696
49, -1225961.6615179991, -1449589.2580583084, -1329263.4601396786
50, -1235402.3632592112, -1429868.8220250919, -1319858.4008003408
51, -1231625.8741913978, -1443553.6773337584, -1316486.9342680296
52, -1233557.1058950836, -1426434.940242159, -1317110.2932448224
53, -1206791.4817253102, -1431519.9600719993, -1316540.172217022
54, -1207638.6145263782, -1441989.2305669782, -1304963.870036816
55, -1210444.016375761, -1414451.9028287241, -1303298.1177897048
56, -1225701.0052941416, -1450571.7176230182, -1307196.6711609866
57, -1222534.781250446, -1426964.1999435064, -1312789.6573018273
58, -1175592.607370076, -1417408.4909965214, -1313672.935340037
59, -1183137.9202323349, -1414683.2332039322, -1318928.1320743293
60, -1204897.659203006, -1416436.4515525314, -1316861.7159881988
61, -1204102.9028509401, -1435998.135084613, -1320953.4659566998
62, -1223694.036455895, -1452982.5001643815, -1318665.8602339993
63, -1221660.818134158, -1449684.4236766382, -1316159.6853218446
64, -1228810.3306731551, -1435629.7963922636, -1320172.329466104
65, -1230307.9801363961, -1439266.9247858827, -1322826.8178579432
66, -1223922.3993410373, -1439840.3974921354, -1312357.620114766
67, -1215415.4235774013, -1441283.0917989337, -1305791.8257339217
68, -1193793.3008433224, -1417633.2673978794, -1293353.270177519
69, -1221648.2049641104, -1360772.727255422, -1284235.6447018548
70, -1197285.7811872654, -1379857.1075626158, -1290436.0215540542
71, -1193407.7354357745, -1408669.5818332836, -1282981.124180656
72, -1201063.5797590797, -1387678.6124704294, -1287818.2667436413
73, -1195041.2231933803, -1385039.7649107017, -1284849.7487261929
74, -1203547.6388039629, -1408255.4937735857, -1288393.201570518
75, -1176714.3877081592, -1419893.5829374879, -1284710.3088891925
76, -1149349.023233697, -1370913.0340924207, -1284644.1551612038
77, -1186572.9554980781, -1430747.530341559, -1286589.8112200235
78, -1176631.6292688267, -1399188.6421406302, -1286456.606855253
79, -1181249.7554742082, -1389516.5108954553, -1285208.9342001777
80, -1186620.7795919578, -1409345.7723646471, -1274303.5859987286
81, -1191830.8568037285, -1393476.5712866036, -1271323.5991030165
82, -1171345.646459897, -1375720.5632253052, -1269859.2365999445
83, -1187549.4114335435, -1391164.652264133, -1275401.4243456083
84, -1191128.6616195964, -1400630.6667073357, -1273132.425227292
85, -1172314.581377331, -1375840.8071655168, -1278699.4203399078
86, -1191733.703718098, -1374184.8986515154, -1278014.378749186
87, -1185762.1821234873, -1426500.6093739616, -1280367.597703612
88, -1194247.5749888394, -1405883.4131482898, -1277078.042135118
89, -1187846.6012543903, -1377087.6129742567, -1271612.7882274839
90, -1169204.1908918673, -1371093.6467088573, -1267812.626756477
91, -1163615.4518033408, -1393305.3509023155, -1268084.8505302642
92, -1168099.0874976967, -1391235.5611268508, -1268623.8276453507
93, -1165619.3299573974, -1402301.7521885466, -1270096.0378988627
94, -1182308.8776703663, -1348270.764817722, -1260297.1892708906
95, -1185076.8966638308, -1363187.7949314432, -1268362.9297090822
96, -1165740.052178596, -1363433.7870919425, -1265070.100105326
97, -1154520.2408051516, -1410471.1810102426, -1265150.3945345068
98, -1160356.2886317195, -1355358.434759968, -1260736.6171421509
99, -1182416.3968991747, -1375458.8907304485, -1263603.8539477645
