0, -5067471.736653239, -6317265.693016208, -5730634.328116335
1, -5014232.5701455, -6407154.812315387, -5703287.7479009675
2, -4972972.912020383, -6346079.057100021, -5705639.031685591
3, -5203214.5555576105, -6339276.7207398405, -5703134.478169226
4, -5074116.163423506, -6300729.559738276, -5682409.910015156
5, -5125931.179070732, -6363445.093039187, -5726211.1727538565
6, -5075250.553336778, -6257079.105774187, -5705218.456798132
7, -5136533.515159156, -6373028.717851057, -5681675.49019133
8, -5008402.233263093, -6464907.001270855, -5677840.529366387
9, -5086893.553285017, -6164798.351202242, -5651906.068388218
10, -5030775.176644894, -6252845.939012586, -5663332.034908998
11, -5071823.717225825, -6224720.711101953, -5681355.83067116
12, -4952420.710234358, -6362010.548571617, -5653644.741842718
13, -5058608.822957846, -6359847.492123922, -5680062.015335377
14, -5083095.608512426, -6418322.603245907, -5681573.711088233
15, -5128517.851744114, -6259701.139275168, -5682101.734961533
16, -5035726.01883892, -6310671.477024722, -5698821.694754484
17, -5082923.290019995, -6386773.399315426, -5683498.419786723
18, -5071880.287218035, -6429964.730675971, -5652771.698117361
19, -5025587.845780443, -6295725.007904867, -5695385.880392307
20, -4919401.108220669, -6094196.976625943, -5673621.322854965
21, -5066413.995589135, -6348401.884886623, -5689162.486894844
22, -5129946.410874091, -6232013.368714367, -5677529.863612469
23, -5105474.630562901, -6262367.684347947, -5669606.933304444
24, -5045955.773309827, -6525364.948657332, -5676043.091686298
25, -4971292.456936313, -6256844.512976479, -5697629.829961946
26, -5225731.258223809, -6328009.237401441, -5696318.093895979
27, -5159288.702075122, -6389411.534348339, -5685669.033589265
28, -5018374.6508253, -6431976.450312028, -5707359.964578705
29, -5168285.681355272, -6313568.177470606, -5703091.375806683
30, -5189408.309343369, -6277745.310366613, -5698182.803063607
31, -5114812.210965792, -6513022.363744344, -5680975.617406661
32, -5007440.081496467, -6302711.231951378, -5676192.470679299
33, -5123028.362836925, -6169395.610721556, -5698057.352285351
34, -5085826.106420788, -6285101.8147418555, -5676641.572374928
35, -5092279.416786263, -6383228.341642722, -5654575.78520318
36, -4873943.986803018, -6418717.310997199, -5662485.94222665
37, -5030485.150666698, -6202910.823035596, -5658124.035095999
38, -5028371.155650407, -6322733.205047903, -5664491.060487507
39, -5050052.007980587, -6487062.778868519, -5658748.936000369
40, -5073011.743738385, -6209030.17367428, -5670748.5706485305
41, -4896618.29667654, -6236735.699925198, -5674057.256835302
42, -5120073.930077528, -6274990.438342121, -5694442.397656377
43, -5052491.589847439, -6599734.486230441, -5687409.794935305
44, -5142403.886191336, -6281216.487845418, -5658923.429725078
45, -4969757.085237698, -6244849.53556249, -5678147.265076885
46, -4982684.5807542605, -6183547.671548737, -5656588.615129463
47, -4926110.324522477, -6316053.875603468, -5667804.758213797
48, -5010559.120930033, -6252323.686338133, -5664524.160718887
49, -5104817.540069099, -6401925.082696526, -5666058.422666528
50, -5068819.082712954, -6423590.851302406, -5663102.099263813
51, -4974097.1381330695, -6309022.629469593, -5663430.696772261
52, -5067582.61115714, -6200454.5944756055, -5673308.230772037
53, -5060622.792190729, -6285464.347489022, -5690359.557658537
54, -4967096.527800218, -6284793.858170657, -5653756.253254253
55, -5078310.043960761, -6309186.38637075, -5682612.493145973
56, -4960082.06021554, -6218651.929417058, -5644743.694477407
57, -5079191.032996, -6413602.34777506, -5683942.4314708365
58, -5127797.253227081, -6238191.818877554, -5670561.543314888
59, -5107435.3686069, -6283220.278434966, -5687239.191097094
60, -5022601.771295901, -6376239.927408975, -5684357.883780613
61, -5145573.19847058, -6318774.525521334, -5651870.398703877
62, -5137312.392669107, -6267936.303225673, -5676185.121338664
63, -5111407.796231916, -6162669.668442165, -5668493.44983031
64, -5065754.980531633, -6164235.941761527, -5688752.614762079
65, -4940985.238206878, -6254712.2558375625, -5689914.038274221
66, -5059044.677493652, -6484569.839873029, -5696966.082310652
67, -5041388.695939511, -6190147.12254906, -5668842.354772451
68, -5023991.449581924, -6129635.431928835, -5674765.883632589
69, -5100607.859412574, -6384443.394347062, -5686418.602909649
70, -4973394.071396991, -6231520.541677474, -5666846.266941887
71, -5038407.482052105, -6236886.6200893205, -5658163.6074473495
72, -5058918.66680087, -6297645.465185893, -5677275.989425081
73, -5101890.95759485, -6301795.495187413, -5655837.715000086
74, -4958638.238218748, -6444270.685829731, -5665854.1153481165
75, -5121114.415180556, -6353619.933074376, -5674478.604005243
76, -5160347.868878735, -6325342.002497177, -5691518.848049486
77, -5134473.8672703365, -6340198.809025932, -5669759.8625589125
78, -5108425.747421489, -6300208.793089408, -5670673.314910887
79, -5150456.574828546, -6326209.106326227, -5691512.160040774
80, -5038925.408934168, -6309070.074424934, -5673675.472589201
81, -5152281.183586528, -6379088.6153539745, -5703344.1838703975
82, -5079769.570675754, -6429379.6445425125, -5692521.271329637
83, -5115579.26286309, -6351458.072337736, -5685053.645193648
84, -5079449.623940068, -6298478.951136441, -5649555.074598121
85, -4992261.417637793, -6276344.458940061, -5672287.717030077
86, -5123436.25719685, -6341537.55488527, -5644641.7237980785
87, -5189359.557679448, -6180656.6563506415, -5665521.501801075
88, -4876677.500658672, -6211804.461139599, -5694877.44708018
89, -4958260.743271334, -6384191.956639407, -5699358.395589615
90, -5110850.832024553, -6205015.584193482, -5690778.029838857
91, -5117041.9068207545, -6344066.303601519, -5694160.928934202
92, -5133162.229673603, -6449840.245096138, -5689567.952490992
93, -5140520.121882631, -6248523.53431256, -5685179.224611466
94, -5219472.618187616, -6446103.784299433, -5675022.087585903
95, -4994604.886509112, -6262631.842629509, -5660151.389451141
96, -5108536.308734988, -6322534.146172782, -5671696.636065733
97, -5176289.524623489, -6418708.890559968, -5682336.329866066
98, -5127125.6992842555, -6319694.3010931965, -5676142.5895035975
99, -5035254.506701449, -6498208.39957563, -5692577.7406351315
