0, -1725702.2439922737, -1954854.485699742, -1833925.9937933045
1, -1670770.3496975892, -1902867.7936130324, -1781232.142230906
2, -1621877.2350811795, -1845116.8201320497, -1729619.8654996024
3, -1612926.279577724, -1837440.7565635857, -1690108.5725886319
4, -1581334.6418797958, -1782980.8178337105, -1650615.9116615835
5, -1527471.6477273619, -1768945.85520344, -1624543.246996027
6, -1505277.1366846922, -1726251.8361767041, -1587875.3591804304
7, -1473049.132948635, -1682696.184912314, -1537481.174104947
8, -1444340.6223554257, -1666051.0296948387, -1508109.2180451136
9, -1420943.2003126154, -1623175.5477314438, -1486087.0531407385
10, -1387503.5206831296, -1547812.2135509336, -1458614.9489927634
11, -1372325.8800728563, -1517874.7777317232, -1429822.116986819
12, -1344640.329069744, -1468445.0005829881, -1400469.5827013368
13, -1325393.570792545, -1461899.542449507, -1384388.3471695816
14, -1306013.1132202921, -1431864.4382483768, -1364470.1614011251
15, -1277020.0993101855, -1408853.5898349904, -1339946.4694201527
16, -1251807.204001766, -1386038.7450756803, -1319989.7470298542
17, -1240256.150306934, -1383799.1559366663, -1292651.5655620547
18, -1233786.6688881598, -1346980.1543165038, -1275491.4713593475
19, -1207816.2619386383, -1356392.907285671, -1267272.0554211503
20, -1198500.925371604, -1335667.638144883, -1248815.9369714255
21, -1191375.408473777, -1345828.491545461, -1234724.4146754586
22, -1181497.8166742788, -1306209.059805378, -1226166.2223595767
23, -1174034.797690176, -1302990.9578417977, -1220853.517540421
24, -1161746.41849469, -1306451.4851014195, -1210864.3256006045
25, -1154471.9387859541, -1292471.1412671157, -1197253.7771153722
26, -1134585.0599388396, -1300574.3149653962, -1191306.7896720066
27, -1124410.7623261008, -1251841.2523643936, -1180284.0687709674
28, -1110003.5424540034, -1242306.6965316262, -1166943.1123218543
29, -1101041.358971605, -1236584.205250542, -1155059.12661306
30, -1096069.8494763933, -1230668.7592460671, -1141251.0927435115
31, -1086866.2685594202, -1215788.8202941245, -1135208.575734175
32, -1084248.7210997608, -1200363.3474998206, -1125940.8450999346
33, -1077533.0205249188, -1211751.1592321356, -1119160.553572869
34, -1075369.189594985, -1240372.2932358307, -1115044.655755804
35, -1065773.8779489785, -1193696.695790276, -1108271.5631654586
36, -1052696.8214892822, -1202345.819815813, -1104584.1216198648
37, -1047792.6301160215, -1183674.642343634, -1093366.3578098202
38, -1033634.7355399753, -1161133.8017419986, -1086917.597865455
39, -1031289.3082452626, -1199587.2046166323, -1077410.4203890155
40, -1015014.6743283677, -1178910.9651842539, -1070358.9427255588
41, -1007765.7657117825, -1135842.8535575944, -1058196.2442902254
42, -1004507.2477033315, -1131493.0482883835, -1050453.9540784538
43, -997867.7826161752, -1118302.2150131194, -1041574.7020419277
44, -990728.0425803175, -1130697.879423954, -1040648.7740649579
45, -976672.3577726458, -1106778.6619567734, -1029538.0628211107
46, -974719.6049235684, -1110488.6160786771, -1020924.8997260716
47, -964612.6099063591, -1107817.2501796933, -1013925.4845897482
48, -958248.6901889921, -1102953.388066947, -1008612.7637798438
49, -953695.504111547, -1088840.0152304985, -1003533.9662267871
50, -947812.2937931078, -1078103.1449426813, -995975.8288202346
51, -937023.8986984023, -1098931.563730141, -990337.5875773799
52, -935388.7561773236, -1086926.1567624318, -983958.1996280232
53, -931586.9723888941, -1067269.8808481784, -979512.9178646714
54, -922986.3216333182, -1103949.361261198, -979087.6456846091
55, -912269.3668368529, -1097896.716219313, -969941.9599511462
56, -905914.0074042592, -1052624.5785705573, -960473.2858897462
57, -899484.9130598439, -1036125.2731731983, -954236.5598891723
58, -892228.453181905, -1069874.3624336268, -944072.4548205823
59, -895039.4835000297, -1030313.6225856731, -939332.0429846557
60, -883121.3996260685, -1033571.0470582205, -939468.246532427
61, -881717.4549163065, -1005327.9752425195, -933342.0852835372
62, -880334.2194631456, -1039331.4615309818, -929406.0064203939
63, -875178.0297473534, -1008460.1470385084, -925001.520754071
64, -874452.2376948618, -1022927.5003838069, -921034.9966520264
65, -871985.4773177041, -1013799.6307319021, -918964.4565448661
66, -869508.9395404826, -1008161.539415607, -919473.403436906
67, -868096.3729196328, -1017537.4841706704, -916906.516050071
68, -864009.5195183696, -1052808.5445556163, -912717.5081977258
69, -864009.5195183696, -996153.9162166247, -908502.7970558264
70, -861808.3607187315, -1020367.3300053773, -908834.7702742041
71, -853414.9684617196, -993175.3631354447, -903468.9877090597
72, -854869.0218634289, -1007910.7832355734, -905533.7082033954
73, -851242.3946832416, -1006921.0725447598, -901639.2754617198
74, -851242.3946832416, -993546.4506320008, -902437.0595671186
75, -845283.7115407463, -1004283.0986772433, -894524.945173494
76, -844394.1002743908, -975093.6084480665, -893930.3532714489
77, -843362.4579940757, -962012.5978534564, -892431.2505194031
78, -841710.4015805323, -987138.5227626085, -891475.7832979755
79, -834335.3747531788, -979133.6325786721, -886767.724011987
80, -831806.4647405366, -976918.2862489631, -880910.7840560524
81, -825906.3239568919, -981195.8368109858, -879096.7029767464
82, -826974.5746127223, -984219.5325730033, -879059.8045629864
83, -823075.6608421633, -979917.5756527013, -873117.6714537208
84, -824978.227436769, -1006607.3867310409, -872908.4556781352
85, -817430.3374477325, -953771.1139114066, -867612.1341013694
86, -812867.2274883497, -1003097.285893169, -867588.1960714803
87, -812358.3148537937, -971077.0139195921, -859869.9577113959
88, -810654.102346461, -957411.034663615, -856887.6439714816
89, -805003.6157191733, -926743.7867652404, -856817.1678863969
90, -805034.7701834987, -973473.3387223459, -854462.4888716697
91, -801693.5981406744, -939151.0876760699, -851974.2196559326
92, -798824.9098181988, -979340.9727558352, -848074.5048756642
93, -795556.1708308675, -946165.6161947043, -847267.4499605825
94, -796019.0084135763, -935958.5157523036, -845668.7963873094
95, -795239.0301491881, -943721.8121270004, -843461.9873416197
96, -791725.140262163, -915009.4562626281, -839482.7863090516
97, -790006.0388891937, -931406.9776107457, -836890.5361262391
98, -786150.6386077995, -929955.9528344546, -835931.5652553828
99, -785416.2521817074, -926230.1664739337, -832089.7386359368
