0, -1626308.1270667766, -1850499.4381322418, -1728633.5620602283
1, -1589933.3431589473, -1819289.2271298743, -1687939.8100756672
2, -1549907.9875552147, -1788554.0287018148, -1639798.268405298
3, -1521815.79858989, -1732118.407059603, -1601200.3992314183
4, -1504196.6518516825, -1689616.1847801588, -1572939.9333494846
5, -1469184.925547179, -1631354.9441495542, -1531058.323294062
6, -1436549.16243311, -1571588.1175767337, -1499818.0203358612
7, -1410479.2612874587, -1553157.3968007714, -1468796.4065068336
8, -1388319.0246037827, -1548028.117359539, -1439184.398836608
9, -1353406.8033458625, -1495120.8136720506, -1415016.566526194
10, -1322820.0867727287, -1439815.4685991455, -1381111.6244215555
11, -1288367.1788326732, -1464033.191467691, -1358192.2985743626
12, -1273259.4634127782, -1418645.0455831042, -1327414.1249029478
13, -1255827.1142981946, -1384493.2158566492, -1310861.2202453986
14, -1228758.280427276, -1372042.6258550484, -1292444.588916911
15, -1215270.8763456657, -1338478.7146992437, -1264360.316727917
16, -1192353.2357706737, -1314374.5591445721, -1244865.9467743912
17, -1183415.3256940714, -1304708.7577436094, -1224024.3053195025
18, -1158619.3641902364, -1294225.5733379093, -1214784.4654916895
19, -1153051.010597067, -1282311.5280693597, -1201136.0382147073
20, -1134363.483763036, -1276957.800707404, -1185439.2510747665
21, -1121529.3789543211, -1234088.1877609775, -1168073.50014229
22, -1103670.5134576357, -1233252.5589462528, -1156759.728859652
23, -1083784.5803665197, -1209078.543006879, -1136749.9227153994
24, -1065415.5581196286, -1244082.766520245, -1126518.5941799297
25, -1061103.3577394842, -1176860.2328609184, -1101813.3862400295
26, -1054926.2750521742, -1161869.7262295242, -1093793.2553912655
27, -1042334.2297489156, -1152554.9186975793, -1086077.2139708216
28, -1027847.3397447783, -1145596.139687031, -1076555.341074349
29, -1016938.8061976077, -1140935.505196201, -1064164.6015848478
30, -1008758.092532827, -1154335.7528604732, -1056081.1153613226
31, -1003720.801744205, -1127474.158388384, -1046275.38172848
32, -994472.0329442907, -1115416.7602918253, -1039382.5092166164
33, -985276.3241246706, -1142848.0101761722, -1031749.3587882352
34, -964209.5311420388, -1097091.860987998, -1022915.973458364
35, -956315.5461277878, -1102366.9666241168, -1009257.7856257494
36, -927874.905657276, -1078988.5239219072, -998238.6882195405
37, -914490.2906678547, -1113461.5311839578, -984122.8700302821
38, -908483.0248117575, -1049841.0728330442, -962360.6760703673
39, -894450.2217853852, -1071963.137447338, -956109.285411461
40, -885559.9559486972, -1051066.0031260955, -939149.2954675512
41, -880714.6986393714, -1033340.0444722502, -930489.8598131394
42, -877290.9514462941, -1009853.9905442514, -919832.0535854263
43, -870193.3444578266, -1023393.5971451798, -917010.799833975
44, -870574.6556189295, -1038547.5619008879, -914322.9642426121
45, -867099.4528464696, -1024121.5560682127, -914496.332392769
46, -859105.8427369962, -1032866.4830274396, -907468.3199105229
47, -852542.7209370877, -969580.0418442697, -900525.385848602
48, -844038.5824921269, -973364.9135781096, -895152.3421710961
49, -843825.2590612222, -987830.5699141005, -888533.6195969925
50, -834814.2153975095, -968163.5977070681, -882525.4328805087
51, -830304.1885395318, -977014.2391806182, -879545.3537839954
52, -822912.9906831821, -975877.5496729398, -877496.7317954581
53, -823223.2844327583, -987271.4980657422, -873292.5172707385
54, -823028.2902828655, -971451.4428681971, -867885.8595833501
55, -823223.2844327583, -953413.6413330054, -866428.998253766
56, -822962.3800824382, -991198.0571185916, -866300.8396694051
57, -814923.4050524193, -967702.7940753985, -863501.7288821714
58, -814098.8524049867, -935265.3118552817, -855384.7163647355
59, -807763.7180510629, -955354.6988575018, -856221.3897926036
60, -803571.423997788, -927562.0366504197, -850773.9088587998
61, -801295.3688489019, -934256.8182573828, -845543.9104114709
62, -795918.0036164976, -931276.1714938465, -839969.4470540175
63, -784747.5317535859, -925112.7872354195, -840434.6784253446
64, -771747.0719510312, -934893.4325895491, -831797.0431643679
65, -768755.2019616587, -937975.2532448294, -821798.0400667675
66, -770337.6173117536, -926402.660830599, -811810.5810145319
67, -767916.0644521546, -951407.4766664074, -817034.7069899321
68, -764001.2112855152, -924039.4292331741, -813989.0126575122
69, -764001.2112855152, -898834.7575576871, -807682.3383143963
70, -754259.3686514173, -903984.864110782, -808607.8797040691
71, -752856.5781734483, -868123.440631435, -807243.7464343901
72, -747824.8993822944, -942415.9531711277, -799503.6139884136
73, -747206.1343434562, -891011.1209342205, -794367.6913955841
74, -745996.1458614192, -921363.8457278602, -793513.5095781836
75, -744150.39391069, -904422.6396821544, -789476.9451774016
76, -741569.6544774203, -877386.4085161788, -786284.4968339073
77, -738460.5195964617, -893248.2347626861, -787093.7793732724
78, -732992.513840893, -898286.6831961789, -783430.9173269001
79, -730250.6812891674, -861271.3421867529, -777138.639020802
80, -725243.1372247816, -878425.0407159664, -775132.4495965617
81, -722626.620526266, -875634.5780876693, -769040.9864887564
82, -716754.2728349755, -907540.2169126675, -770203.5474538832
83, -716142.5669970394, -902440.6536929517, -766466.375483325
84, -703246.7630130504, -841382.5666724301, -758946.4837020652
85, -700821.6773703177, -889838.635811113, -761110.4711869204
86, -698885.0291064195, -865141.1933263235, -755154.0390749116
87, -699643.7160440525, -857220.1412839626, -749087.1033290784
88, -699643.7160440525, -827673.0194094682, -744691.2872106675
89, -697151.9239979684, -839011.7690319773, -745605.9753000641
90, -700840.199652079, -824391.5816995755, -744800.8250361749
91, -700664.6306069682, -865786.9132529467, -744692.3260202716
92, -692795.3600998516, -826205.5379945566, -744607.2333769891
93, -690593.2297006801, -882033.5288640985, -744555.3755140988
94, -686833.039037578, -837379.0288721903, -738496.7394241458
95, -689413.0363752674, -830742.8703188119, -740271.1768539414
96, -678958.9521155448, -860036.3298840378, -735581.9459552473
97, -669368.6855781048, -807758.3286205609, -728136.543468406
98, -667987.7448370433, -816228.0396574575, -722690.8730490434
99, -664140.4479507685, -812705.2501717818, -717963.0790364614
