0, -1692198.3485828955, -2023047.495102081, -1873810.6730119693
1, -1650694.4804439072, -1955005.4640319836, -1850163.887732339
2, -1658081.5295313546, -1948398.5895637223, -1828446.8187044791
3, -1701303.8784624282, -1948154.2055177987, -1813021.4412162344
4, -1675893.9035664117, -1958534.6031315355, -1808655.912567172
5, -1650459.247058953, -1922735.4565405636, -1785032.3481725017
6, -1671137.2279094036, -1912047.195683943, -1770838.9824754903
7, -1656902.2154434377, -1901552.0941599198, -1757595.5248981714
8, -1625448.9323337679, -1921330.5713623809, -1747379.956913083
9, -1619992.4945346972, -1858547.9180004718, -1736198.3522138526
10, -1624625.2420739576, -1881920.9474977977, -1731735.093706095
11, -1624190.0711996343, -1853282.9845023057, -1717653.6844732333
12, -1598981.047884586, -1840066.0970499315, -1703895.930932889
13, -1567217.543113155, -1808284.0151686813, -1694587.2020497294
14, -1529413.5399799133, -1825287.560926889, -1688269.6376829236
15, -1564181.118590202, -1803346.883653639, -1676409.3451416097
16, -1570332.526524402, -1827348.901131324, -1669078.8154956293
17, -1515437.6863140645, -1817275.557730128, -1662662.1020067655
18, -1513031.195818622, -1800473.3984145722, -1652836.8129702297
19, -1525541.6781782112, -1808677.4768799823, -1644707.4943922155
20, -1512717.5585503425, -1820725.2875797818, -1643558.1067716766
21, -1503803.148847904, -1770037.9386945348, -1632474.0852675221
22, -1477351.276870559, -1758228.40685762, -1616051.4790890294
23, -1501978.103541157, -1741640.1571353958, -1604301.2107263717
24, -1494955.7210743704, -1702916.7876837975, -1584422.8979669723
25, -1468478.401508563, -1681106.34973256, -1569072.5021979231
26, -1449738.5327292643, -1655193.6284347489, -1543595.0431340733
27, -1442575.2314701169, -1654349.942731407, -1526568.6381696276
28, -1423629.607782329, -1648078.7600164192, -1519924.2871941756
29, -1418843.6991279253, -1624167.3057480569, -1510362.4777472524
30, -1414908.167118383, -1599137.1446309958, -1501777.148820683
31, -1414104.460962998, -1623939.2805904297, -1495577.893494824
32, -1419146.228224271, -1581318.988999307, -1486054.7940610053
33, -1399728.9221792126, -1608759.5322181126, -1485011.4750972362
34, -1399315.1543323789, -1581949.5769641465, -1483019.8114472444
35, -1380381.7223616908, -1631190.9953754, -1481712.2318314794
36, -1340577.0045757447, -1624060.679476018, -1478887.387495825
37, -1389474.994818091, -1588088.5485799243, -1476725.030081924
38, -1378060.4971638054, -1590983.5145119075, -1475389.3617107419
39, -1380977.0647838735, -1618612.6941703095, -1479693.3681433792
40, -1377829.3896721266, -1589321.8467123653, -1473537.3893113488
41, -1373098.9725647375, -1612494.4742357903, -1474700.1013923008
42, -1369397.3529162384, -1666114.5099279785, -1472004.3708529852
43, -1370731.4259984177, -1566062.1300304586, -1462591.6498825625
44, -1353743.2674522751, -1589640.9972592425, -1463789.4639549474
45, -1353954.7996605616, -1578977.2281227892, -1463604.6153063732
46, -1357360.0527177833, -1577763.0840208917, -1450906.7578625593
47, -1344909.2712957233, -1563247.313526581, -1441142.8597235465
48, -1330085.0830113604, -1565617.5950814555, -1426173.9928503896
49, -1341077.9594098888, -1562794.5027679172, -1425980.9826488614
50, -1317986.1550875825, -1538980.7811610387, -1419664.6101838546
51, -1330233.019118561, -1521268.3993562188, -1423228.579331974
52, -1337290.6428459361, -1556283.8423026362, -1423268.462117772
53, -1301738.544388454, -1591990.1252182215, -1418952.762034384
54, -1311239.5302797582, -1554764.092723003, -1419805.9278563817
55, -1302852.1053042677, -1556585.9094293623, -1423248.6063183232
56, -1307767.703493905, -1548855.8711547244, -1419030.6174615931
57, -1325161.7626956503, -1540239.628410405, -1422292.8621858482
58, -1309828.4346337903, -1545978.8410025237, -1423412.7643918572
59, -1315138.798629873, -1548119.5563975486, -1420909.3580374473
60, -1326603.398602468, -1551626.373234227, -1421972.5535974721
61, -1313078.83697786, -1559870.7290601034, -1420294.4924808587
62, -1308640.255591069, -1540301.5981433087, -1419466.5822563914
63, -1314792.0186456477, -1549854.2736962046, -1419858.1918724743
64, -1315674.2011816339, -1553051.6203320834, -1415218.5037668336
65, -1309483.7076214654, -1555293.8752650402, -1406137.4487736735
66, -1291298.0201761946, -1526329.4119926458, -1398494.9739710658
67, -1297983.5040774448, -1508694.6756477798, -1386904.2369816923
68, -1308101.1590020484, -1510576.501641662, -1382095.420438824
69, -1293492.2203611692, -1475732.0711680143, -1375646.0281887078
70, -1288748.957894503, -1465260.227139708, -1373393.7215788602
71, -1275947.2685222363, -1511450.5668969052, -1372212.798933904
72, -1279894.6803105655, -1472974.0135975457, -1372816.6162624366
73, -1257177.4697703274, -1469998.6627032047, -1367343.845708068
74, -1256234.3664983525, -1534695.0839186606, -1363830.2143937869
75, -1262318.0889737587, -1492106.567001587, -1365156.231748827
76, -1245495.7845679624, -1472627.031898565, -1371828.6896669364
77, -1271572.1239938424, -1461642.2182312864, -1374156.7713037988
78, -1274036.5592148139, -1499852.700656132, -1382031.4448848644
79, -1250958.7550152934, -1501838.9387032392, -1384613.2215536274
80, -1253951.5242231071, -1517799.2788024913, -1386091.313544213
81, -1266291.2181861298, -1521702.4630956326, -1382226.0078711996
82, -1232107.5985676714, -1509820.018057964, -1383505.0880038429
83, -1236753.575941617, -1544056.9166592495, -1391025.800091172
84, -1238015.3302017949, -1518182.9896944622, -1386970.8089919325
85, -1255844.7541537515, -1528982.5680824288, -1378099.8016551842
86, -1244672.343974959, -1510794.339153272, -1367104.6653474877
87, -1261960.2418762792, -1514188.947528326, -1351263.636252933
88, -1247794.7357789145, -1487688.7646856243, -1349917.2389891085
89, -1239654.992920652, -1467239.5424195742, -1344348.153487637
90, -1225372.6699572299, -1481517.8234532028, -1338719.195096191
91, -1227323.653253721, -1441269.7119734723, -1328058.4659675295
92, -1235323.2824502909, -1442877.2704140265, -1326422.3797544676
93, -1233718.1582347038, -1435032.5445158314, -1331756.6628186055
94, -1237680.149164943, -1446289.5811518147, -1333781.408285943
95, -1225615.1540742596, -1497647.6134447018, -1336934.34239744
96, -1223301.9982895185, -1454464.9357521439, -1343717.8535154497
97, -1214497.0453232387, -1465360.8045825793, -1346013.882563047
98, -1215511.4743557267, -1509569.6794162423, -1343569.0540367386
99, -1230248.777692519, -1495358.3064479865, -1341087.8400183416
