0, -1969106.7680618344, -2307948.3897569734, -2124742.250178182
1, -1925253.832434405, -2195789.6646368164, -2032948.192071826
2, -1871992.4216591395, -2098769.8376943655, -1958944.2818745933
3, -1829355.671609385, -2030579.0143954712, -1906973.4597247185
4, -1798097.5617173305, -1956820.2894191076, -1867243.8957570991
5, -1773932.1300263647, -1914817.4953725692, -1829447.9255901796
6, -1733756.3693287675, -1902707.777169535, -1801441.1759920062
7, -1707816.913365364, -1863742.699076796, -1778727.2526813487
8, -1682917.7524134452, -1812910.1987462863, -1740894.9775441822
9, -1653989.1849322414, -1831267.3427290851, -1718165.503967505
10, -1626735.8395702972, -1794556.9368033507, -1688480.1433276462
11, -1607422.9118831742, -1739679.77338413, -1663663.3807791166
12, -1592911.8439895026, -1743849.2654086864, -1645139.980741765
13, -1582802.6566590162, -1705514.3510327432, -1629644.9342778996
14, -1545279.2569231074, -1686686.7061961999, -1616348.774380464
15, -1537678.3651797015, -1683125.902643561, -1594648.69522141
16, -1513972.3048738234, -1651128.785918466, -1572217.7463168802
17, -1506648.6132467703, -1670261.885602818, -1558708.5066994878
18, -1483828.1799794964, -1632237.2191903342, -1540434.1113803592
19, -1458206.5800232764, -1609514.7443392328, -1521442.8519911787
20, -1445022.4707942507, -1608554.1015222922, -1504854.1557288705
21, -1414622.7657182019, -1617422.154648693, -1488410.7562612863
22, -1395814.5638181902, -1541242.5099665879, -1465494.7042021402
23, -1372142.5136358298, -1530501.482576425, -1437116.0606724361
24, -1363922.7944614892, -1526373.587692544, -1418100.5639419607
25, -1351856.2700345889, -1516401.6345777304, -1404773.625422031
26, -1339939.4677650789, -1467428.0782363699, -1391350.5010281797
27, -1311226.6818771404, -1477395.628403509, -1379654.44051188
28, -1303736.968750863, -1489239.5791121419, -1365966.1742212987
29, -1302632.678110976, -1475780.8026721107, -1350172.7302458906
30, -1278393.9948026624, -1448842.830408109, -1345807.7396606887
31, -1268855.4503194594, -1447697.9745946515, -1329389.110948639
32, -1258711.7010877475, -1412257.434646985, -1315028.8124397087
33, -1240156.1529224706, -1401020.4695207744, -1304337.1419682999
34, -1232871.7711898766, -1382936.3610574054, -1293125.372593915
35, -1222445.1985881957, -1420161.9309211122, -1280827.2739496713
36, -1210551.0370796733, -1390810.8221729777, -1272202.511490314
37, -1194794.8904700316, -1352078.680862318, -1261241.957741525
38, -1179459.0891192781, -1341293.1621217781, -1246045.2807858952
39, -1169707.3048403165, -1361400.2118803966, -1232960.6095340338
40, -1145659.6223795142, -1347167.2187853514, -1224105.0731896877
41, -1147693.4194619455, -1351524.7582413608, -1207311.4186202893
42, -1131773.648758287, -1334343.341376361, -1194817.3199960112
43, -1125421.5180791058, -1304133.5229904752, -1185312.3726062074
44, -1123977.5931326232, -1292704.558832673, -1174674.5563882387
45, -1115824.4656495957, -1253274.3332357795, -1165779.2234415289
46, -1110843.6095562445, -1297883.335563382, -1162636.8199606712
47, -1102093.7497962378, -1261993.066386343, -1157219.8170086974
48, -1095890.1581499723, -1273825.940192511, -1152506.9081454917
49, -1086277.398546537, -1252147.1002981546, -1145434.2710611643
50, -1082900.8710033547, -1258765.5445429673, -1138473.6462047538
51, -1078659.4825383583, -1228691.7004209757, -1136330.2696727759
52, -1078878.221236272, -1235641.5305619088, -1131952.477908714
53, -1077964.5159743968, -1230812.6747876147, -1130761.5182286669
54, -1070746.5621192113, -1233245.8869577188, -1129247.8231774312
55, -1066551.3064991173, -1221179.1895586601, -1120270.141706195
56, -1063812.235452096, -1220313.4381967038, -1119214.067200081
57, -1059487.3968589697, -1209913.8855116153, -1109924.1604906633
58, -1045097.2303542711, -1234987.075196728, -1107482.3374382649
59, -1043689.085295222, -1237671.1735074436, -1106336.5059531364
60, -1041044.059967688, -1219713.4755094373, -1099205.3869796225
61, -1037981.3854390604, -1240120.3408882143, -1093156.0952528897
62, -1035034.7701524051, -1204938.8458647558, -1091293.2988108706
63, -1035034.7701524051, -1195134.2835520292, -1089526.336222004
64, -1030394.2344140986, -1259574.7288376305, -1084756.6604203365
65, -1025328.7959601018, -1237391.6634191142, -1086393.968077705
66, -1021084.5582551728, -1171188.9102561008, -1077383.5231839253
67, -1018058.0322546759, -1193183.9269726614, -1073657.5018665201
68, -1014273.8931189578, -1186865.0872713118, -1064974.1434585364
69, -1011662.3237261276, -1170740.4996783878, -1066173.2947192898
70, -1002586.3426575419, -1147532.2497806472, -1059391.908701913
71, -999194.4257119971, -1140690.9487593945, -1055921.4486742113
72, -987876.8418428339, -1177132.9880303952, -1047637.5533913415
73, -986012.6959629317, -1166951.9425741641, -1042468.4228589715
74, -985000.1158082702, -1145687.3873121454, -1039613.739754872
75, -984224.392986465, -1141268.2582637211, -1035932.0402997175
76, -980675.4294622119, -1148004.3744971626, -1035554.8518142757
77, -975735.4848111151, -1151572.2066102535, -1030163.8881787021
78, -977221.7902905266, -1158629.6143577974, -1030013.9999926944
79, -972459.711782085, -1182865.8017482776, -1031005.971337292
80, -967468.6913366786, -1170191.5549126938, -1024573.4544345229
81, -967830.6477509425, -1163374.138935382, -1025017.0354830036
82, -966217.2892762979, -1151856.746441109, -1021866.6298527631
83, -963865.099816421, -1138668.380385508, -1019814.1658076093
84, -962661.3831352878, -1149220.6199819231, -1015936.6288509028
85, -956864.6351281512, -1102293.6136148325, -1014509.9731573107
86, -956159.2858184304, -1107657.811562388, -1012162.9775003357
87, -948797.710946322, -1158426.927061875, -1008573.1457690443
88, -945455.770414368, -1101999.987966591, -1006978.1653889766
89, -940901.7382292873, -1174250.874989531, -1001963.0975183091
90, -937279.6500269126, -1113855.439317228, -994582.794681956
91, -934809.2361699494, -1110643.3951313542, -995737.1782506732
92, -929810.1791021375, -1099671.1632410137, -991394.7825259184
93, -926496.8803567463, -1085611.2497111685, -980129.4116485772
94, -920195.2093124471, -1104979.7567212237, -983888.355603667
95, -915307.5662868512, -1106769.9214173937, -977491.1595818343
96, -906345.5014824946, -1139178.8961327143, -979719.5160070243
97, -902762.1888684754, -1100390.15625442, -971464.359665113
98, -902439.514034712, -1060336.088117703, -963780.3049134781
99, -900655.3944117001, -1068700.696523089, -954747.5063968758
