0, -1568342.4209049467, -1787179.1673734994, -1657810.8063607821
1, -1506878.0943540796, -1736394.503648295, -1616419.4309682467
2, -1476818.7489606377, -1721140.9517877763, -1573131.5180284139
3, -1442465.8656359874, -1696387.9466061192, -1535080.6078117327
4, -1419276.3152143452, -1647641.0965357695, -1507475.3041831434
5, -1408174.6091862977, -1603264.7121749811, -1462856.5448920098
6, -1367558.1769125906, -1508360.9363765183, -1432094.0149249078
7, -1360490.8096908233, -1475971.8335409183, -1407489.0900526566
8, -1322811.2884166697, -1468371.2779242757, -1387322.013958422
9, -1291544.3822556557, -1436918.2665302, -1356922.9296470226
10, -1270902.8705078054, -1381321.610733597, -1324502.6141177127
11, -1238522.3119858257, -1389141.0601364246, -1301306.988198693
12, -1225261.3166626068, -1353409.9396628675, -1273104.964003685
13, -1200400.1702597765, -1313744.9840481814, -1253499.4230629946
14, -1186433.9208038189, -1293598.41437215, -1237374.520609854
15, -1154793.7067555073, -1301455.442470448, -1224472.2425926053
16, -1139545.2536303902, -1281389.3093401282, -1198172.0078403882
17, -1126990.6372325183, -1242096.1547192254, -1173145.0900007633
18, -1118684.3406525024, -1217404.7565900676, -1158835.082446854
19, -1108924.296762365, -1208128.9400061988, -1147715.823765304
20, -1097414.6512855308, -1210667.5657057322, -1138844.511373005
21, -1089245.3058914351, -1206768.4286416015, -1133580.286424862
22, -1073973.8992881563, -1204549.9042342808, -1125916.5814788204
23, -1064518.2622839669, -1177336.971765882, -1109213.7314447465
24, -1036187.7829078767, -1171149.572454549, -1098759.5426512049
25, -1033754.8350606933, -1173751.6021622815, -1081093.217577362
26, -1026586.8486001361, -1154787.9129577556, -1071199.000807058
27, -1010689.1460959022, -1119054.2410325909, -1061623.6788234462
28, -997869.4910336155, -1143300.3453686174, -1054077.8016726105
29, -992256.5390430768, -1135544.187254736, -1036832.682233069
30, -978476.7360684373, -1106565.9003141746, -1026879.0506901784
31, -964553.5430364378, -1087764.8943394122, -1015866.0820395803
32, -941530.2767275912, -1083520.1017606272, -1005842.0869804337
33, -939153.6167046851, -1080866.53281795, -989380.5211778677
34, -934449.90431944, -1048736.135124589, -975804.7399176699
35, -927726.3492189103, -1040253.1327425588, -970465.7871685633
36, -919434.0715881453, -1056731.4566941173, -968026.8416870978
37, -918548.8585531777, -1027620.5165566122, -961962.2089662036
38, -904632.8961855175, -1052779.0606968375, -952913.6970777325
39, -903060.3217405428, -1059492.455871271, -944801.3869196889
40, -899326.6663010535, -997170.81921588, -939012.2868878855
41, -896689.1725231176, -1008422.5366991516, -932220.2872716682
42, -888087.876645619, -997270.8934482432, -932845.1357379558
43, -885591.0624255762, -995859.5803493266, -926781.5190168603
44, -878236.3674939552, -1000354.2106411685, -923095.3661318631
45, -880911.8322568983, -995905.5811560978, -921439.7339928896
46, -876824.6196115117, -1002101.5330326462, -917378.8006150109
47, -872565.9358176359, -997468.1258576124, -914519.9854838185
48, -862345.5957831489, -1000249.3949577475, -911350.0846966935
49, -861713.3448708244, -1007035.1967542311, -906655.392157336
50, -859296.2159409947, -982014.4436560601, -900674.2332637482
51, -851256.6676571982, -971863.4044030255, -896816.4942639902
52, -845627.2995226344, -969344.2565936202, -890478.196364944
53, -845123.9015485218, -954518.8060995615, -886844.2391074498
54, -841933.9236437357, -989456.7452615851, -886541.9599172098
55, -836238.3376100692, -960241.0847273541, -879605.1626729997
56, -835670.9348592036, -937928.5927433535, -877189.622854996
57, -836743.4662012651, -970886.8706454972, -874923.4629286935
58, -835190.2879910017, -978524.1670183439, -872247.2154457453
59, -829424.4447792503, -945530.7850444585, -871142.9320475118
60, -830507.8280166236, -967677.8646206756, -870962.1811190844
61, -829030.7266360691, -937855.2690901177, -869707.9545964906
62, -817567.500704699, -938535.073844979, -866562.4456899707
63, -808489.1117263779, -938181.2415544537, -860829.8315273159
64, -804695.4300352475, -998917.1624820896, -855521.0214896705
65, -797489.7058662018, -926856.1555123013, -848667.6929112673
66, -797489.7058662018, -948057.5907867199, -847753.9750066955
67, -792074.1908432329, -951411.953424646, -836508.7816411823
68, -788071.6131313555, -910866.2413823253, -834243.6929502733
69, -788071.6131313555, -929128.0021288502, -835052.3779393492
70, -781948.6360360689, -927619.4743106577, -826845.1044105374
71, -782268.0192784818, -897344.3716780611, -820392.971076873
72, -778159.9484209681, -937885.387507458, -821598.0933288684
73, -775230.6705811964, -896549.6050310933, -820463.0322922936
74, -772080.4249896039, -913106.9401285427, -815835.3031475161
75, -771570.5541545292, -913921.5979890253, -813614.0331994629
76, -772566.0154784911, -947496.0250117276, -814478.033017139
77, -768168.5676640219, -913376.0449105874, -813743.4094226308
78, -766677.826390333, -898081.408103782, -809812.7753447356
79, -763690.8817116218, -890925.3958522894, -809286.6723423263
80, -761785.9862013862, -886184.5054297203, -804634.7556874187
81, -762597.28727615, -908176.1118210892, -803254.0336727586
82, -758551.6860805168, -909621.3376569338, -805416.7794745966
83, -750373.8306825012, -894727.2099533358, -799604.0169858028
84, -749415.810778199, -877012.6466096207, -797433.0148556466
85, -747816.442564396, -861843.8418543616, -793330.1491088603
86, -744953.8185888957, -883098.8147964599, -795236.4448344326
87, -742820.1389853612, -878451.7692747407, -790764.510798362
88, -742531.12378339, -878299.7945854634, -787375.2550208769
89, -738656.5785063906, -888273.1246084182, -787308.1675673387
90, -732881.7686548238, -857191.7057490228, -780929.9470539152
91, -733718.3184846286, -884495.9964643894, -779678.5938501458
92, -729466.1109894735, -857690.7304109705, -776719.1827739856
93, -728424.2052937644, -891595.1706561686, -774994.3181938644
94, -721868.5035162375, -874915.8465723617, -772570.5508494095
95, -726154.2371292454, -836187.189607993, -770576.1113387613
96, -719141.21393746, -883629.4304428904, -770275.5939854258
97, -717476.1590173747, -845639.2919937347, -765836.6776278146
98, -716120.603656145, -896882.4758616432, -759156.8553129178
99, -714702.4194316664, -857824.8713530246, -758072.170093793
