0, -1761368.7312299795, -2034547.2073071976, -1898004.4398799639
1, -1747575.0014284658, -2027189.083833469, -1892187.7783014774
2, -1768063.6703135958, -2048774.1295900876, -1890142.2496546002
3, -1718421.424267875, -2040823.840742535, -1889391.880488332
4, -1742888.7092785141, -2044016.1351748775, -1888955.2492861052
5, -1750878.0250751614, -2056998.7280642772, -1895609.8729027123
6, -1737412.0323183266, -2020554.5944499164, -1893694.5522093063
7, -1737470.238021533, -2053063.091992156, -1889992.430034857
8, -1763865.3834643355, -2018294.4506512685, -1893176.258471209
9, -1744845.3176434753, -2032041.3449747353, -1891908.8939860545
10, -1754732.5312860254, -2024730.9759174539, -1892172.509786785
11, -1756302.1490737004, -2012857.9281305573, -1895332.8233697019
12, -1788333.5741340825, -2021165.781273276, -1896423.595058554
13, -1771126.0849369676, -2030511.068735174, -1896306.1003675265
14, -1765522.7676107348, -2036672.596354791, -1891544.143043705
15, -1784921.2907348978, -2041551.7086279425, -1896919.7507542619
16, -1737909.2668087552, -2010480.9172857027, -1894587.0878512838
17, -1748917.6760451603, -2065120.3029551492, -1887887.3535243715
18, -1749396.6376938936, -2045360.4398928168, -1889864.3881110386
19, -1716781.4720685738, -2029949.0042248839, -1891172.3548834282
20, -1757927.6901629232, -2038889.0365635129, -1893057.5772770538
21, -1712948.1167480266, -2016207.7124299658, -1894261.373322417
22, -1730456.9124883302, -2025301.8353549796, -1894201.9032640238
23, -1734054.0422721743, -2062927.736117655, -1899313.600962815
24, -1779065.758090469, -2008543.024090257, -1892413.8658610298
25, -1770913.5923877596, -2039517.9813419622, -1898702.1424359407
26, -1764393.9615298775, -2024184.8030427382, -1893511.6256497754
27, -1762023.05797876, -2030704.6155416346, -1888683.5835108776
28, -1757804.9732739744, -2059155.6698946734, -1894442.0102007296
29, -1739207.0410059923, -2029668.9794427194, -1895646.321520917
30, -1791850.3838770753, -2043493.2549737971, -1893789.4928671988
31, -1754907.4095084663, -2023261.4988284302, -1895857.299095395
32, -1758043.906184337, -2045751.0168392817, -1897807.0361582253
33, -1768460.027053142, -2015557.5940746716, -1895725.9774515051
34, -1709597.5948125194, -2032205.519432114, -1890266.6361852766
35, -1771298.2351285168, -2036592.3323254571, -1890062.4939227172
36, -1771561.29471322, -2016588.4531299784, -1890909.1879179338
37, -1736370.1070041233, -2002009.8937563607, -1886796.810397134
38, -1729258.8670154759, -2005186.3694000538, -1889762.893396391
39, -1740919.032287994, -2005793.5500529958, -1884179.0831119139
40, -1746717.5230706544, -2031880.769088013, -1895486.8198776292
41, -1740292.6712093079, -2042766.782330837, -1893023.3058805794
42, -1765407.8651815788, -2006653.1661520964, -1890809.6341729157
43, -1751582.4068360762, -2014597.6694734283, -1893506.6580409012
44, -1710240.5096475757, -2026999.657598026, -1892834.7185906228
45, -1713637.3279814469, -2064521.642496211, -1894966.3749497079
46, -1775292.6594941816, -2042197.2465590765, -1891634.2367984895
47, -1738630.4466127213, -2014814.4294297202, -1892304.7075110064
48, -1780107.082130523, -2010879.0936367488, -1891647.7432452908
49, -1757022.8547999072, -2011911.3133753734, -1891549.0102518871
50, -1763496.8438446242, -2051370.878800233, -1887766.8915680493
51, -1756149.8484687894, -2036502.3619071045, -1889368.9188024793
52, -1740555.8836015672, -2025763.48585521, -1895472.5750870667
53, -1762806.559865375, -2051564.6548090093, -1893900.0978954865
54, -1754706.2986850957, -2019585.694275634, -1893495.3890503824
55, -1740652.4686665782, -2012200.6864639288, -1891332.4383308478
56, -1758267.428118371, -2078633.1659595622, -1890621.2808978425
57, -1751325.9868162326, -2035763.651825782, -1890633.627063638
58, -1770037.3503966918, -2037059.4042187287, -1892156.134963777
59, -1776585.1772086932, -2010146.839013427, -1897909.986116941
60, -1759220.836425052, -2022481.5798540777, -1895756.051973483
61, -1741543.3096531173, -2022257.247868691, -1889390.2619787445
62, -1761532.7285428746, -2028636.0327066695, -1892682.5426471478
63, -1777938.7028520266, -2033868.2059639655, -1891692.4444155588
64, -1750593.0283371871, -2011343.577186726, -1889212.638710302
65, -1748095.194437271, -2052944.0931509756, -1891898.25168437
66, -1721268.373956861, -1996799.0482269078, -1893928.9422936793
67, -1753138.7769706957, -2056629.9971877043, -1898141.4296098866
68, -1781338.9434566912, -2009116.20949384, -1895140.3262677407
69, -1757063.190431513, -2040332.011745946, -1889828.0574846368
70, -1739905.140867427, -2030415.1353612817, -1897543.2851555645
71, -1766563.8918236722, -2029953.2639432186, -1896468.739885211
72, -1731071.3194781449, -2025578.9434694732, -1897233.3733185297
73, -1750725.3499106574, -2063640.2593350145, -1896980.9693455482
74, -1728328.0801347909, -2032170.5122740148, -1892626.8989020889
75, -1757193.4441478597, -2022648.0552072064, -1890853.4712426234
76, -1773706.7235783343, -2030984.250568903, -1894821.1119801425
77, -1764576.2540913206, -2021242.881631008, -1887107.1742205443
78, -1781407.4753854428, -2016612.1844116738, -1896818.6990016822
79, -1754667.4428438125, -2043753.927787813, -1898512.6460834753
80, -1767481.1499125576, -2075773.273091741, -1894290.5431938272
81, -1746451.7164042653, -2026275.478298977, -1895882.377372753
82, -1770195.6605610838, -2022003.7314420817, -1891286.7212295646
83, -1739557.7750905105, -2024390.0257152924, -1893537.3979884156
84, -1765371.7463681987, -2054079.3873083, -1895539.6409794826
85, -1768911.3890432091, -2019866.5609162054, -1892595.4669346071
86, -1727952.442208868, -2035979.2415440506, -1895541.2537756842
87, -1728659.9584958279, -2010581.449307601, -1888049.41608807
88, -1766450.3367132335, -2048234.140370708, -1889308.4498916313
89, -1744155.6272825166, -2050622.2552560181, -1890649.4591746186
90, -1748925.7747972095, -2039026.0785091761, -1897420.1942004855
91, -1756074.3362953407, -2024135.8553635958, -1893052.7705501749
92, -1769267.4214336667, -2074803.3105154275, -1892458.5014199035
93, -1775864.239306843, -2038267.1754759992, -1899802.5698244416
94, -1734123.2586906329, -2044399.0220518783, -1898574.9784743844
95, -1742851.1857271185, -2029385.6797136455, -1896482.2626085535
96, -1753658.16437452, -2006597.9194394336, -1892889.8114322182
97, -1744196.645053471, -2028603.5042124568, -1898742.0250966796
98, -1761415.3289448535, -2028209.0302081238, -1896600.831645733
99, -1741701.388889175, -2068741.419734057, -1904398.5898646726
