0, -2010409.291332685, -2264478.00463616, -2126413.9202648136
1, -1986211.312421808, -2275595.1302367095, -2093535.490607855
2, -1953845.8912447733, -2225680.1474678684, -2047438.0156599693
3, -1906019.8587759016, -2214309.746566902, -2010827.8945492334
4, -1858842.4442886114, -2160541.1502479645, -1959576.3321997179
5, -1805123.5351753496, -2110214.717322868, -1929231.77519285
6, -1786380.1503897645, -2068198.443806292, -1890452.9774541012
7, -1741381.5273511354, -2060927.18348611, -1843880.361315781
8, -1704544.1448025913, -1934450.328213145, -1811082.3346632365
9, -1693691.3502643094, -1863205.7515225806, -1749164.393140281
10, -1665314.4839944034, -1822862.784388546, -1721498.2327243325
11, -1638181.3388006533, -1818926.737368673, -1702682.5870248973
12, -1614317.927079219, -1823257.5305920402, -1679858.4873703655
13, -1592398.4557333991, -1763939.0422776765, -1651059.4437475437
14, -1561791.0667513113, -1748979.1331329397, -1636330.855691059
15, -1545451.541519467, -1703743.4649939374, -1609850.9812953193
16, -1528369.2605913316, -1656060.813019898, -1586493.5199347106
17, -1505656.2787071709, -1677720.2353129329, -1566143.2665056756
18, -1497010.2909392926, -1639679.6021221513, -1548935.720316188
19, -1481199.25049097, -1635155.9451392659, -1538413.9759584223
20, -1469042.135079776, -1629820.0001052374, -1524477.3565925262
21, -1449941.9350840794, -1594177.213042366, -1513899.8644078015
22, -1433270.925473879, -1573474.896685715, -1490494.0923385108
23, -1418892.8144804626, -1574001.741980343, -1478896.7139608492
24, -1401323.2295702975, -1582655.968235503, -1461912.9345548833
25, -1374158.1084623504, -1538447.0993034844, -1442954.6968442162
26, -1346770.2688083975, -1508514.1483823026, -1424484.9928600825
27, -1330640.3541085552, -1522296.520797707, -1405143.047666481
28, -1324824.2294116307, -1476517.4641736802, -1380520.7034914943
29, -1312446.2572908115, -1457854.976099609, -1363715.2305373854
30, -1302263.541826243, -1441514.0365399474, -1351905.8121869855
31, -1285303.018072131, -1428213.6271583175, -1343811.4062652907
32, -1276988.9018181376, -1423789.360633053, -1332265.4377731462
33, -1268650.0637056374, -1417043.9110209732, -1325388.5357970963
34, -1258144.5455459352, -1415209.6442852046, -1310928.979038016
35, -1244657.9077086917, -1408852.2259863503, -1303700.3850975179
36, -1240124.716807725, -1425164.148541706, -1293784.2181125188
37, -1234982.0223814587, -1383746.5433395787, -1285090.232271624
38, -1198635.8745602618, -1390820.8102911592, -1278996.2873780034
39, -1193532.1799592872, -1386054.5787808008, -1265114.2012338021
40, -1193532.1799592872, -1343448.1711008195, -1244083.234655323
41, -1174543.5473857538, -1340855.6684183122, -1237715.2282301162
42, -1175370.652232447, -1329296.1937344875, -1228666.0483267675
43, -1167849.122831113, -1323444.5632858386, -1222764.2404196276
44, -1162801.3557014838, -1295544.809240774, -1214433.0302133155
45, -1153348.6010915986, -1321656.4301785377, -1205865.3062964692
46, -1146571.6241108805, -1296725.6086657005, -1203418.3501836383
47, -1144355.34994091, -1284944.9787198582, -1196397.0285125847
48, -1138701.4180886452, -1296395.4005037015, -1193678.7130513396
49, -1134879.9699250052, -1290350.0392815634, -1187879.4850627966
50, -1133091.6920572575, -1294093.719260789, -1182684.6505352021
51, -1123828.3699810307, -1284751.5237983814, -1179428.5972825158
52, -1114740.066559626, -1284115.2326898696, -1171734.9720912243
53, -1101636.2141252584, -1253024.2319031886, -1164004.5926535886
54, -1089499.9544446785, -1281211.3359483774, -1157942.7277920083
55, -1083527.0174289653, -1251443.8392343598, -1144456.1684947892
56, -1071384.3601166056, -1263295.8650578738, -1137107.7643494064
57, -1065889.5183621938, -1218780.986786212, -1127596.2735652963
58, -1064528.3898474495, -1193579.1355104109, -1117507.6485591293
59, -1060325.3542380778, -1297086.0747414953, -1115196.2734829884
60, -1050412.748087698, -1252761.5088275557, -1111194.9715958666
61, -1047344.8629962027, -1219918.9382632566, -1103498.2248354927
62, -1040418.4017612569, -1211446.6809396716, -1096190.8346868192
63, -1040161.0211998161, -1218116.3579991271, -1092979.8330711173
64, -1033352.5815893903, -1222820.9064663183, -1092641.9735318022
65, -1034498.5459733766, -1158764.5342441467, -1084099.0310449663
66, -1029917.1499932858, -1173421.944905844, -1084224.5867510221
67, -1028125.3450633618, -1164045.3975613369, -1083834.072111259
68, -1028633.8457156545, -1195706.6855379427, -1081791.6094709062
69, -1017644.5838448508, -1210531.1260659758, -1080546.6014077268
70, -1011394.0876537913, -1206648.2651009308, -1071911.5824590654
71, -1008801.2035916192, -1189463.632633086, -1064610.4051964167
72, -1001702.0229833508, -1163854.5462857182, -1057657.2919959365
73, -993961.9558066807, -1167995.2516111461, -1055825.5014885655
74, -986103.954433562, -1161199.866494805, -1047496.228284005
75, -986320.0269621185, -1154694.5136114014, -1041986.4687994407
76, -984101.7651397374, -1160593.5802668673, -1043338.2338672226
77, -971235.8318512731, -1162655.0058314537, -1036478.6166136255
78, -970759.0884329688, -1133688.2901398672, -1036524.8644351887
79, -970903.7870645088, -1111315.7847690324, -1023527.754060227
80, -961149.0092111197, -1159187.990253001, -1029005.0346780813
81, -964822.3996304821, -1128748.295119053, -1018250.1001934345
82, -958042.5387090885, -1172455.23570173, -1015802.605460572
83, -955212.215136416, -1146054.1252693129, -1013164.8830314903
84, -955300.749546566, -1175368.6274251807, -1010210.379561661
85, -953415.0238111182, -1123600.7087254827, -1008303.4444464374
86, -950523.8374216729, -1115418.036892123, -1003572.6906045513
87, -944524.9536330912, -1108727.2054396956, -1008162.6550087762
88, -933041.9469637217, -1133347.7778080774, -997516.2035882487
89, -935184.4395025789, -1090945.1138640705, -993451.5187102113
90, -928400.2154528536, -1120527.3214046103, -993975.3582098982
91, -925323.7860072579, -1120882.8609053881, -985844.2017907025
92, -924606.3991272987, -1108630.0249922487, -980368.0892872455
93, -921331.9209449417, -1086278.9512175722, -980669.0041765617
94, -921331.9209449417, -1078712.5694324893, -976318.34898847
95, -919690.8595317439, -1073778.618308391, -974161.7935388548
96, -919657.5840293807, -1144746.2680535426, -976385.6099121762
97, -918571.0777486116, -1093087.4914316435, -974311.280941978
98, -911067.5005981578, -1096723.5503017853, -972387.8262443417
99, -907517.458722763, -1089239.7785649167, -968224.0286176241
