0, -1621830.8784074862, -1877438.4602763602, -1748778.6668440714
1, -1622636.1052090689, -1864783.0026472602, -1730897.4881909706
2, -1597378.0807850757, -1832011.032353139, -1710221.1729239838
3, -1586397.5046728242, -1806859.6154443347, -1698677.0725315732
4, -1571187.4745304196, -1811913.6872851895, -1689087.8932585812
5, -1561860.3795718185, -1821910.4872479495, -1675731.204251995
6, -1513876.7156566554, -1815323.8442459838, -1669584.761073904
7, -1531607.904392098, -1774204.2257831562, -1647432.216343316
8, -1541920.800138352, -1767491.294094889, -1636757.552539302
9, -1496966.9592425895, -1755782.6514019114, -1617285.8862826962
10, -1518080.3439151961, -1782918.9957153704, -1605792.9494235145
11, -1482201.3060760102, -1742993.0162469316, -1593379.0998124897
12, -1487696.9066133953, -1693440.5510844146, -1588356.697625226
13, -1488799.5006727325, -1790336.6958784568, -1577382.409660343
14, -1459879.6300160796, -1702009.266277851, -1566556.5684693994
15, -1462696.4812149538, -1690778.162540969, -1557972.5076957254
16, -1418139.9657204547, -1675519.1113966403, -1553053.186864057
17, -1439577.5362810541, -1683492.5285223594, -1540949.5339264101
18, -1426471.540086357, -1674741.8395269243, -1530876.568174873
19, -1432483.7624359222, -1625683.6032435207, -1527636.0697073208
20, -1421123.9543124624, -1662551.5926915463, -1525663.1165318994
21, -1418234.249442774, -1649758.2784788732, -1524648.2259889995
22, -1397546.1102032731, -1630850.2244357218, -1517163.282990274
23, -1408453.5602289615, -1633993.3066510702, -1516697.902884146
24, -1424611.2859894354, -1653546.3438052682, -1513366.870747652
25, -1402865.025041535, -1643940.7693202903, -1513151.6017986245
26, -1408574.5680162706, -1638691.362972325, -1512948.7932182804
27, -1386130.5415118537, -1621537.2285246956, -1503808.5635436696
28, -1384667.0437173203, -1628316.2005512253, -1495469.695260987
29, -1393633.2146410472, -1617973.1702585074, -1487970.0586957533
30, -1394805.9118574462, -1602777.5228332893, -1491319.405507363
31, -1393566.849207181, -1606575.9571230356, -1489406.9247446717
32, -1369896.6537248206, -1602259.1049907487, -1490549.9718498334
33, -1382435.1689808285, -1632748.3232903918, -1485824.4152543212
34, -1392616.3807142018, -1611092.9030661136, -1479428.9896660498
35, -1361377.9189074743, -1610467.4221280415, -1474774.6431382126
36, -1358526.6354421114, -1588987.7728304353, -1471704.1018243276
37, -1378642.560206817, -1627631.7875092109, -1469808.0540069435
38, -1374714.7542507085, -1651645.226269922, -1465533.089417635
39, -1346384.934376052, -1584594.7709367378, -1462290.3133671694
40, -1340187.0616714568, -1558393.5247756774, -1452365.624256877
41, -1351731.6054516213, -1566817.8276648652, -1448601.5138215474
42, -1334632.2726569953, -1535794.0227967976, -1438323.9746279367
43, -1339435.9391627887, -1585269.4666171337, -1432625.572553816
44, -1307527.6216306137, -1603475.2693464092, -1431684.298541959
45, -1321416.6944712189, -1526509.9545627916, -1418394.5770258983
46, -1298595.5775853177, -1533845.0911159872, -1413843.9001625977
47, -1249895.6178588201, -1525315.755185313, -1402588.523473693
48, -1282289.0880536423, -1534059.9001297175, -1401862.305175906
49, -1298915.190243733, -1502081.5713534611, -1396258.5245819918
50, -1270968.4382451717, -1513352.5827513316, -1391357.1432490712
51, -1284468.2753868862, -1551246.2937787368, -1388415.3174632387
52, -1279173.0680458643, -1468378.0699609448, -1384877.9750611917
53, -1263555.2262805314, -1469399.5401563502, -1371960.0682759008
54, -1280327.236548426, -1482650.9050607914, -1364941.2933224074
55, -1272154.193499256, -1477521.9450051647, -1364696.0569996962
56, -1276042.590355868, -1470455.6047822952, -1357236.2152949022
57, -1269129.58930996, -1456166.4089851724, -1353281.2100128108
58, -1268103.4064343255, -1492755.776724191, -1356665.2284672374
59, -1257493.9079990708, -1443688.9164582528, -1353685.489877938
60, -1234764.1768727899, -1468822.2040118966, -1349623.386850822
61, -1230150.858553044, -1505083.7104669583, -1345989.472631794
62, -1212237.8712528332, -1462366.3135022898, -1335715.5417210169
63, -1246057.1480998641, -1462863.40966008, -1334001.161431323
64, -1218612.6903014842, -1463309.0114040414, -1335047.1302874037
65, -1218820.6850719764, -1464457.0005169052, -1330028.4198625474
66, -1227264.7962406175, -1448704.2806237363, -1333819.384752544
67, -1229560.5297381484, -1442674.8636386415, -1323070.6972492095
68, -1219374.2664872655, -1472814.0203115302, -1318888.2513526354
69, -1224748.7514133083, -1425154.7919272124, -1310548.7008775063
70, -1219684.8914607754, -1447023.5300193254, -1304889.9881781517
71, -1201964.6079633404, -1411829.1081862273, -1299440.548476008
72, -1222469.0500923928, -1378743.0209077487, -1296728.123018144
73, -1200778.2079468155, -1437819.535394668, -1296269.2355478373
74, -1207021.8394499891, -1406285.1865993298, -1286073.8492072534
75, -1211710.2972330367, -1391285.4778537154, -1287048.59983672
76, -1190006.5539380333, -1390200.6115318192, -1292888.1435794309
77, -1164217.4871465294, -1403573.9716571432, -1294856.988188031
78, -1172902.0976264165, -1409891.3202693628, -1294486.6444520594
79, -1196729.400657441, -1415349.39251549, -1290375.5678902932
80, -1184128.7114663676, -1407015.6466441117, -1288792.7732380657
81, -1190373.331756766, -1443042.7186450579, -1289450.3745079979
82, -1197057.0834758726, -1397134.4363017331, -1285879.306546436
83, -1193858.8166519988, -1399341.7004025695, -1286646.7951991712
84, -1185241.1692923638, -1391823.2560111135, -1279792.9482885066
85, -1186651.3325324028, -1371397.6035749065, -1273257.659971715
86, -1152773.2377060913, -1402994.1368054927, -1272266.359996634
87, -1145540.2432376754, -1390563.8434738202, -1267596.0565739183
88, -1161035.8633059938, -1385194.6388964786, -1264624.3703319216
89, -1168551.825547155, -1378001.9621847263, -1266208.9642792912
90, -1151536.5407602875, -1421567.9672010238, -1267809.9097555194
91, -1151960.5384145817, -1395503.656583, -1261186.5885616406
92, -1170682.5335655797, -1399873.272098322, -1266300.8796442412
93, -1158721.6565664918, -1386423.886873594, -1257427.61613524
94, -1146933.5425809142, -1376654.6441061054, -1249996.2173229724
95, -1152577.1172069635, -1376054.8668193205, -1245756.3386207796
96, -1160981.601651581, -1351594.9341290542, -1243289.576266408
97, -1158823.9581380235, -1394642.2811609984, -1243917.4969266164
98, -1153483.712945854, -1366722.6084211303, -1242070.1438823254
99, -1132081.7228498412, -1368125.0388073025, -1244249.6335151368
100, -1157354.6557716744, -1364914.069490567, -1247956.053123642
101, -1133211.8258523613, -1380343.0203311096, -1252113.2433860828
102, -1133574.5634734656, -1409397.7304121708, -1259008.583404291
103, -1126749.9345224039, -1382493.2119539978, -1255260.7024973517
104, -1155583.7269934965, -1383472.8200709922, -1255819.3079051627
105, -1152023.1590920726, -1417890.9938874145, -1256361.7791479467
106, -1161944.779473847, -1401496.6609725726, -1261066.4048569296
107, -1148521.2937506223, -1370056.1091283904, -1261483.7720105913
108, -1164075.9917552795, -1447771.2540377134, -1256647.2069766736
109, -1162172.1648960998, -1365932.0315186672, -1251177.745467126
110, -1155582.9294576072, -1376838.8611119771, -1251425.9249163098
111, -1143127.0910531299, -1371605.2310961462, -1251644.2759885036
112, -1159009.5759624282, -1379505.407978334, -1255821.9141867438
113, -1165064.6588133213, -1398607.698815299, -1262795.979063878
114, -1148618.7149575166, -1399885.6277510182, -1259461.0238036294
115, -1156325.403869763, -1379870.0235726424, -1256653.4514638095
116, -1171386.1041978626, -1365111.2209481965, -1249095.4750771413
117, -1119015.3470082877, -1357835.3596393014, -1252680.4774113996
118, -1155096.1149970538, -1378088.0597534874, -1258331.568153532
119, -1152850.9456013958, -1376971.1438706974, -1259077.5780921436
120, -1151803.0457381872, -1390687.1685186708, -1254854.1054280517
121, -1166906.0280046551, -1377391.3214027516, -1258988.8942399833
122, -1164767.1508488376, -1396554.4938856333, -1264659.7603797384
123, -1174882.120004685, -1385431.9277320493, -1263749.3488284019
124, -1160998.0546700433, -1377568.9251014218, -1260115.9539676858
125, -1149440.832778871, -1389203.4609275197, -1264794.232016423
126, -1139909.4920762433, -1381177.6476377144, -1268479.3607935773
127, -1156969.285509788, -1393821.4484838194, -1269455.4793849082
128, -1174963.8360182017, -1402514.8503557746, -1275821.7397067891
129, -1175263.3660160042, -1390293.9649970285, -1279221.3755059005
130, -1167727.893822356, -1415509.3369153093, -1278591.9524307472
131, -1169239.1403338292, -1421719.1266224592, -1287024.4745090846
132, -1185814.966911815, -1401723.591653704, -1281836.4733711667
133, -1195119.26971841, -1415352.915702115, -1278810.0718041759
134, -1168603.5927523235, -1390704.3754954643, -1277760.564271842
135, -1149745.1607395723, -1395258.3058186795, -1273079.4502570827
136, -1165031.8074135426, -1403022.9460463186, -1271967.79387286
137, -1174392.230033663, -1363259.209927109, -1268708.1290653553
138, -1175193.4352464469, -1405309.6107719704, -1264864.7498853365
139, -1149735.2102719753, -1373488.4825603708, -1265498.4769579922
140, -1170196.3957104066, -1407774.5030221767, -1265360.3496832405
141, -1149433.4711764122, -1380875.2340975404, -1270045.2904518635
142, -1152208.1584227262, -1382340.0608220731, -1268868.0839467435
143, -1144388.6699622232, -1371350.651227505, -1257292.7804381715
144, -1147594.6097553845, -1344259.3491594235, -1249613.9202501173
145, -1146561.901615085, -1368887.9262757516, -1247818.3904066805
146, -1145118.4616223462, -1386633.004404711, -1244522.3174295893
147, -1151196.7852113976, -1335450.846743942, -1236722.8113433577
148, -1103155.0659700371, -1374710.5789563216, -1239162.4089917103
149, -1162551.1387525713, -1367145.8204752193, -1243592.30494237
150, -1138509.7095907072, -1361431.8272314367, -1247025.8811231502
151, -1147252.7362397518, -1377252.389244971, -1253468.4706116891
152, -1170196.2466214837, -1443619.5966903365, -1256818.0738304392
153, -1178937.8513133994, -1375683.351969484, -1260390.7692688762
154, -1165530.3626935245, -1413055.0994091504, -1266160.3442809682
155, -1169740.0188507556, -1368806.6401414808, -1270722.101312898
156, -1185440.4130376503, -1444826.573096091, -1275527.1822141476
157, -1180690.5261938157, -1412753.9729575673, -1278709.8727919627
158, -1185229.089368995, -1410516.586238812, -1281497.0009419818
159, -1163410.1794411656, -1442993.1917974227, -1285199.4734194647
160, -1173572.6301758988, -1425320.084279428, -1294141.9198608731
161, -1190981.9395946637, -1468681.7003782822, -1301498.2498459548
162, -1193087.8171206347, -1471331.1848888008, -1309492.456228791
163, -1204287.9554670209, -1463880.9500441195, -1310746.9481032584
164, -1207157.9723486102, -1453826.1403847078, -1317431.6725691082
165, -1181849.0359940764, -1445915.7618349628, -1314674.4722729807
166, -1209293.5814915113, -1448931.262478468, -1313343.4516554512
167, -1206140.1043113295, -1478250.5927141625, -1311944.449757979
168, -1206359.2052350098, -1448037.0106754403, -1308012.6163007745
169, -1210772.1831527783, -1436575.331058811, -1305222.4368784858
170, -1224875.6703242827, -1434371.9823564503, -1309814.1071294532
171, -1224311.4164094243, -1477309.6032705714, -1313321.9720431298
172, -1206495.8771241903, -1460850.0586179371, -1316651.8526441646
173, -1219424.6596023615, -1449203.8263669962, -1322256.470454935
174, -1166625.6468857361, -1442716.9899863105, -1325134.7571001654
175, -1167912.5100557525, -1466267.240463102, -1320898.6928151248
176, -1188053.2497574743, -1456165.9858077301, -1315542.3907034367
177, -1191447.3616936854, -1450372.1976201737, -1319674.4731030897
178, -1190299.276703617, -1446893.1830176287, -1319163.8716164334
179, -1190535.0296993342, -1437876.8799596971, -1313666.740412168
180, -1174618.9812862421, -1415248.6692936267, -1312381.8410324496
181, -1193452.172728821, -1474244.830211831, -1296981.9773284434
182, -1150074.0767927407, -1426639.898087259, -1286083.483410961
183, -1166410.9200125223, -1413808.9484387783, -1280179.3907029815
184, -1177012.8134649342, -1411870.9668109939, -1269806.0275823816
185, -1168210.995594583, -1432093.1740964628, -1264647.2391036206
186, -1166995.7403671632, -1365975.9753237714, -1254969.9476568513
187, -1163406.6796172021, -1344046.0398137295, -1247255.4839251146
188, -1145022.9964067654, -1359731.7151381576, -1247098.7177993774
189, -1157223.2340731192, -1378484.755737476, -1243375.1350765482
190, -1137227.795744986, -1341895.772060276, -1238508.514892312
191, -1139450.9409340124, -1351896.6380447827, -1239428.6338314104
192, -1137030.963997572, -1378657.1407007638, -1239267.1440363894
193, -1152969.532056893, -1345130.567387788, -1231608.0401548948
194, -1120802.4135003127, -1350589.696378614, -1229495.5076111518
195, -1141248.782387008, -1336205.1093860213, -1222443.074317923
196, -1098254.668479979, -1368056.8584360455, -1220842.0031542766
197, -1123055.0988089154, -1334624.2694156575, -1221313.122339787
198, -1115573.4258341466, -1328947.074524724, -1215292.241339345
199, -1121459.494320359, -1347234.268198166, -1212878.330971429
200, -1107757.7056252314, -1341132.2725985681, -1203884.4619782362
201, -1130831.8484410357, -1320321.3894704916, -1207001.8569815427
202, -1131841.6420120923, -1331724.698354227, -1209570.2513512776
203, -1120613.6450225431, -1328733.4679296496, -1211449.5206533356
204, -1111135.252249721, -1311007.8385420716, -1211519.728375102
205, -1109419.4428030008, -1324860.3174895563, -1215941.817281279
206, -1117777.9491286117, -1348218.3079419874, -1214945.3151629753
207, -1089312.4641273522, -1316192.9892334247, -1211665.9131230584
208, -1095040.7378862791, -1335290.716005475, -1209855.2199742664
209, -1114442.592756578, -1363638.3763154629, -1215716.5478181439
210, -1142746.759300802, -1343019.015617992, -1218800.0714736467
211, -1123346.461339949, -1351384.9624591477, -1219523.6047925495
212, -1133170.785973228, -1349596.1697194045, -1219214.5280319839
213, -1120558.227997682, -1356097.763242056, -1221862.767603827
214, -1116238.149572611, -1362099.7561667326, -1217005.123401318
215, -1098599.969539871, -1347607.199181698, -1207551.2567307944
216, -1080829.2532449819, -1323558.5384466513, -1207466.0407664073
217, -1097324.5366194171, -1336211.8516739837, -1200263.2886711166
218, -1116474.9360836702, -1324301.650538691, -1198490.2950673131
219, -1096921.2496443323, -1334690.4762806133, -1199437.5746524283
220, -1096348.0848128428, -1331102.3980697584, -1195334.534757045
221, -1084720.4239408108, -1294106.9852696434, -1191488.673956855
222, -1091730.1363219498, -1283117.9933410622, -1191292.166807816
223, -1065681.8907345757, -1292451.2799574505, -1190123.4786072045
224, -1091149.6411205758, -1293838.4324911973, -1183079.6201934738
225, -1092561.4358981105, -1286502.902382907, -1177991.5919344025
226, -1073393.3101765534, -1300773.4647242788, -1175987.891660616
227, -1050760.941807114, -1272359.4080060201, -1174552.0134264969
228, -1072598.9063311997, -1306226.3058725887, -1171309.7283700502
229, -1079131.7430755133, -1326737.2439776857, -1166557.139599761
230, -1075220.7951651334, -1278365.1918992996, -1168632.8742293292
231, -1071917.324457678, -1287232.7598621673, -1164118.1407709233
232, -1085684.332014852, -1257657.2025562315, -1164609.2295895845
233, -1068109.9753398844, -1288013.7223570195, -1167071.3286606856
234, -1071324.891289074, -1280633.0361145553, -1167513.2491783258
235, -1081716.6237694053, -1284516.7181759768, -1173318.93826735
236, -1073293.2224527244, -1321360.824537755, -1177256.9584841838
237, -1075605.9675699726, -1291970.7074620428, -1182851.2495802136
238, -1083403.3676822088, -1311829.9902085469, -1187177.4125141401
239, -1074552.9723723247, -1325768.7928796918, -1186315.7792631974
240, -1091851.4405285434, -1354861.4638460013, -1188334.6015052183
241, -1064516.012282756, -1327711.5365056503, -1193204.6338444909
242, -1086923.0856707215, -1297377.0404445753, -1195683.3015697866
243, -1078134.5684164846, -1340764.6072603872, -1192142.4976258094
244, -1088013.351455322, -1311321.9490755312, -1192250.2630555572
245, -1081182.900782273, -1315365.1063873828, -1187589.543374981
246, -1079831.3436712245, -1314424.8782281207, -1175179.4350235001
247, -1069998.9589752927, -1324296.7743795062, -1163740.0002413199
248, -1057854.385205716, -1259976.1806125822, -1153120.0004899523
249, -1069188.5361264008, -1264480.3029811636, -1154222.2481818567
250, -1075204.117588091, -1279294.0809374822, -1159622.5045851145
251, -1080684.2132363813, -1297809.476883572, -1165303.6740853325
252, -1074904.9227675777, -1302085.0739455149, -1164321.006008176
253, -1042544.6754655265, -1309814.004794967, -1159459.425466446
254, -1035853.9197232409, -1316610.2651150506, -1156090.3576808854
255, -1023210.1791968558, -1291788.4195611998, -1150890.5512307624
256, -1043860.1210119987, -1282806.4077131993, -1150144.9942639747
257, -1037151.6511723876, -1321527.2871395294, -1147987.6453037816
258, -1037124.800068276, -1263511.8738199512, -1141946.1219564776
259, -1040028.7865315469, -1272304.3871453423, -1144332.5309957683
260, -1070136.0181747277, -1303085.3197315182, -1141291.8631274118
261, -1037755.9516811799, -1269194.509421944, -1142841.2379209455
262, -1055620.3950619202, -1260810.4142385486, -1150014.2765416713
263, -1056295.6504565477, -1261276.8318155603, -1147254.9648297667
264, -1043672.795117866, -1254160.3390019543, -1150198.5690709418
265, -1044632.1993779182, -1312914.6899547162, -1156517.394710715
266, -1062508.5152158083, -1278533.7890877894, -1160535.657881915
267, -1051322.4779710758, -1274347.8296055137, -1159831.904945691
268, -1063281.0804310103, -1284310.366327328, -1170753.8415491714
269, -1079650.2426851548, -1320498.8629125657, -1175505.1775317008
270, -1072132.951422621, -1299108.2966993225, -1184147.342098034
271, -1082436.70505618, -1330823.563302707, -1186598.3916174765
272, -1096778.6433503202, -1302078.329322331, -1192314.6494837685
273, -1046247.955625575, -1343218.8151287145, -1197412.251371995
274, -1064722.3333308066, -1308385.8975615925, -1198324.5733877374
275, -1061538.5625683055, -1326657.3209764422, -1196518.9422958144
276, -1117471.335272639, -1338025.5993238457, -1205488.7103757558
277, -1115022.245877135, -1380680.0601694495, -1211595.9021973568
278, -1120350.9772891232, -1362513.8617911923, -1215792.8759205008
279, -1107183.7855376373, -1333182.9765471495, -1217819.62366834
280, -1100258.4756422346, -1336850.323723382, -1216864.4597943125
281, -1090601.7893601954, -1366112.819563592, -1218708.3389213001
282, -1077847.911982847, -1403699.8062770935, -1212601.9356525894
283, -1086229.9470813433, -1317897.2917674542, -1202989.3817331102
284, -1102596.8239448955, -1324905.5802974356, -1204685.0473862463
285, -1068699.5542924062, -1318884.2507826376, -1199048.1643228305
286, -1087808.144424272, -1332390.2402687664, -1190822.2936195435
287, -1090409.6822796923, -1370211.9940867447, -1192147.5357090512
288, -1108084.3540296585, -1324774.7822906128, -1197025.9797761817
289, -1073326.5692191722, -1326605.1004304294, -1201250.3001982374
290, -1112587.7326489326, -1329205.5737867765, -1203175.8081766726
291, -1118191.078315351, -1336400.6324872961, -1206886.2031993894
292, -1114779.4536872632, -1335221.1440324085, -1206380.404718254
293, -1111099.8930035832, -1343006.8187436536, -1203455.0681368988
294, -1108194.3956091926, -1357596.0131474927, -1204927.1663563764
295, -1100203.6630553848, -1331586.6765816014, -1204469.1184291004
296, -1116789.6377787467, -1346127.8843848936, -1201296.6231520106
297, -1118780.9055814391, -1316828.080233764, -1193487.2186799897
298, -1119299.0571932811, -1360255.3654763317, -1192476.573857721
299, -1102547.3565484786, -1317409.4809842715, -1182688.7125045701
300, -1082674.9284364912, -1317955.5021877217, -1180596.7027204947
301, -1094323.980642347, -1291456.4997293393, -1177824.4270699106
302, -1095512.5433645945, -1256518.5616272804, -1172625.8050402526
303, -1066041.7083609113, -1255956.7808156365, -1168559.384626516
304, -1082710.3357663439, -1285001.1117478474, -1167774.0130764456
305, -1069449.307329058, -1256337.5983038477, -1161229.4113291914
306, -1052774.6783960222, -1254094.858978663, -1153546.1419581627
307, -1079829.5711210284, -1268940.639154001, -1158116.669534509
308, -1080831.521979467, -1254401.9413281365, -1157955.1596517728
309, -1084550.1294132546, -1259329.3259889812, -1156663.1305620808
310, -1080994.9593537154, -1260508.4508055055, -1155790.4764345582
311, -1068202.6364391271, -1267889.1219197277, -1156267.9515767058
312, -1047651.0551815936, -1278246.0701799665, -1153581.4723962557
313, -1040656.9770346268, -1255532.778089085, -1150981.4930088543
314, -1052622.7893282946, -1309138.1165561117, -1150254.4852446667
315, -1050215.2494108984, -1285909.2839465619, -1144688.5067150174
316, -1060083.8303088457, -1259980.9354372362, -1145818.1297672975
317, -1044712.2408953351, -1252002.6668766744, -1143708.742839306
318, -1037836.1270191516, -1240318.7676831651, -1139561.2640907
319, -1051038.085565114, -1234684.9924417527, -1141318.0784643902
320, -1054185.0165734973, -1261065.6974967741, -1142456.875111649
321, -1045251.6202222647, -1266491.1763735542, -1138827.4823261146
322, -1052828.2433095637, -1249265.332846664, -1140351.9186842802
323, -1052513.562691322, -1265120.2881467273, -1147128.2655599893
324, -1047974.7030434329, -1239361.305215949, -1153776.628935363
325, -1072937.3075706672, -1273883.9179294182, -1156954.4311587666
326, -1046522.4240209945, -1272067.8322107338, -1161372.0419545188
327, -1070389.6844206173, -1290867.1620914754, -1159052.8575943313
328, -1069933.9711436275, -1277731.5076510913, -1164192.7003196583
329, -1075496.1984704654, -1341272.1480703973, -1172606.7079561288
330, -1070036.9908579062, -1290395.8422683238, -1178829.9212079272
331, -1069428.328235649, -1285365.8249428805, -1179275.3500228035
332, -1077797.7595309827, -1317512.557180134, -1179890.2285142199
333, -1099337.7748901325, -1300574.088319499, -1173125.9067099327
334, -1072073.763431215, -1293693.5301140174, -1174142.6712573075
335, -1088211.5959691869, -1272991.5449565968, -1169701.7137187428
336, -1077660.163681259, -1269522.133075383, -1166049.1439862824
337, -1080236.5783793225, -1276886.3096705044, -1170664.1349690894
338, -1067797.3286048225, -1304592.3844167194, -1171328.9451881386
339, -1081710.300700761, -1309206.0734172212, -1165979.9890453506
340, -1081086.5995776842, -1263423.7036186322, -1162919.6657749712
341, -1068162.4619191086, -1282341.426221592, -1164109.9613076448
342, -1054849.9327667088, -1290133.730366864, -1163932.6903651734
343, -1073026.2913448142, -1314633.412688432, -1170986.3105630763
344, -1095571.6304061536, -1323535.2308684762, -1180009.806265316
345, -1068855.1947631382, -1294854.3323231451, -1185544.8665408592
346, -1091529.5609176327, -1323197.262130971, -1188657.8893581582
347, -1091670.6922557421, -1318652.5564765485, -1190447.7991836667
348, -1078748.3507868159, -1281522.086241148, -1190571.014421867
349, -1081486.692091818, -1355704.7838945144, -1194569.080715226
350, -1091131.597507725, -1322837.1254643511, -1194618.481419253
351, -1076696.2646292958, -1294191.7672410521, -1184593.4011496534
352, -1091998.7524939873, -1305914.2820933808, -1191050.0273719658
353, -1080651.5410670906, -1310539.7634460514, -1195771.4057009735
354, -1054757.2863406215, -1311149.538801989, -1195193.9329401397
355, -1074581.7888360454, -1313648.9146192553, -1199239.9912690648
356, -1064517.8876657537, -1343494.1553182802, -1199413.6046598111
357, -1074864.7112416206, -1344867.9604126601, -1198334.1873868417
358, -1080234.3113424736, -1351415.915855753, -1198039.3383761647
359, -1080647.3068145628, -1330243.9179987758, -1197139.8789847763
360, -1091175.447955951, -1374513.1421443396, -1192418.5894729206
361, -1056999.412021192, -1334585.2906613483, -1184957.10130472
362, -1080318.8967394764, -1311081.966931313, -1180683.7023094038
363, -1097345.98101217, -1347188.0143422266, -1185936.628940248
364, -1100230.8568320659, -1314019.8772265404, -1184247.0259290547
365, -1101752.8070505857, -1288450.9158609873, -1189467.8113230753
366, -1094020.4129914802, -1356537.8679343534, -1190884.3150545068
367, -1102573.6960352259, -1290319.674800758, -1188562.008972486
368, -1085378.4427526419, -1316480.957196607, -1194662.295637025
369, -1095453.561624265, -1321827.347292746, -1192172.6786879385
370, -1081192.9329538369, -1333813.6923098457, -1197337.450461081
371, -1094500.1253706142, -1304024.5230293707, -1196525.3711795192
372, -1096719.0164487215, -1356878.1114888596, -1196823.6280906473
373, -1106627.0104431263, -1354160.0230595465, -1195487.20098418
374, -1088622.749291474, -1298831.4278984452, -1194174.2827855682
375, -1103202.5311463345, -1343578.402931442, -1200688.5349176417
376, -1126315.0597017987, -1326611.5161895216, -1205870.4214716854
377, -1108556.2061271523, -1327742.9596445702, -1208687.2127596936
378, -1113324.1775521028, -1334380.5000917655, -1207728.5754481216
379, -1110952.2348414585, -1369121.0286575302, -1206320.65851618
380, -1123242.1515866008, -1324605.67081596, -1217275.875217649
381, -1120935.3930968975, -1376300.4282485947, -1220326.3629503078
382, -1118593.7141643818, -1353138.1925804538, -1224838.9994849989
383, -1117182.3524412687, -1364699.0400367496, -1224479.0421222607
384, -1109089.6729584583, -1337509.3623007173, -1218402.6474774126
385, -1121471.4518527188, -1365586.545490235, -1221654.4176166183
386, -1113953.355387875, -1352612.7370219158, -1227495.2416779003
387, -1112064.4346012627, -1364311.0660019189, -1231646.150311884
388, -1093196.3632076883, -1341643.4197411488, -1225010.6718532643
389, -1077377.987316339, -1336522.665376978, -1216345.4204607466
390, -1082698.6798432968, -1322348.4741423922, -1211619.6987282913
391, -1091233.927126247, -1316660.2516402586, -1202804.9179354014
392, -1104189.7396126734, -1317938.3126789122, -1200082.6183945762
393, -1100943.6074039198, -1318715.5696214456, -1207081.8952744168
394, -1121410.1768633227, -1335098.1419506355, -1208158.3699618229
395, -1092437.993504323, -1392365.6201891438, -1216089.211489327
396, -1111006.6931408222, -1356437.6984438458, -1225566.1921508652
397, -1126866.6016402303, -1355896.53789567, -1223049.4497950645
398, -1111694.343457375, -1356904.339818665, -1221830.095106475
399, -1120803.0452418227, -1330788.001053386, -1221241.4848511212
400, -1134761.1965191737, -1357393.9105706494, -1228121.732165556
401, -1108206.426859512, -1339580.7097692345, -1227122.9437698617
402, -1127362.3997099234, -1346256.1961626392, -1233280.3098474653
403, -1146273.3666075177, -1373913.4488784568, -1235346.1498296685
404, -1120534.0519775113, -1363688.2053027565, -1237935.1081238016
405, -1132304.2713092754, -1403430.9755987574, -1243997.9667644438
406, -1126954.9405426679, -1386015.9753540317, -1239198.6326559964
407, -1087756.4797856382, -1385128.5933056804, -1230362.1805965882
408, -1106476.0542252043, -1380532.5313306344, -1222800.2579420523
409, -1110599.1254761817, -1332954.1062886051, -1213847.9211938225
410, -1070862.0302748384, -1349448.423885826, -1208068.7907768989
411, -1093375.2574597956, -1317484.156836052, -1196791.6051158828
412, -1081301.3378482086, -1337020.5996468917, -1189908.7744172197
413, -1089275.7043207632, -1322534.9034693863, -1183687.3199059824
414, -1089658.1312652447, -1356264.0443433342, -1180696.991291488
415, -1081801.954755845, -1300066.0657289808, -1181254.5559667766
416, -1078020.4476747722, -1310212.414106083, -1180225.4463701295
417, -1088154.5557530627, -1299854.9600114578, -1181701.2384409031
418, -1090264.005371586, -1268990.1044298469, -1176616.6417570582
419, -1083056.5470619195, -1328292.7327836675, -1179532.3547824991
420, -1074867.596014439, -1297629.423966862, -1173353.8132834353
421, -1055099.6938873283, -1306181.9712235103, -1171743.645436233
422, -1052555.5840534507, -1285256.4301696848, -1156809.1250260517
423, -1055527.2047530452, -1256961.2511621357, -1158387.235904686
424, -1047750.2827561162, -1308450.8541264294, -1156216.3963149756
425, -1065116.3363712425, -1281419.9002089172, -1154004.7576566793
426, -1046305.8283609916, -1243960.6878289413, -1149211.0249899572
427, -1058042.1274351832, -1254388.3281122379, -1145879.855531602
428, -1062222.4618051348, -1285675.264322829, -1151136.7185745125
429, -1067311.6356944141, -1276972.487231948, -1153541.323548695
430, -1057889.3398385467, -1337957.699350995, -1159259.7706395108
431, -1071510.230646221, -1305125.5073197568, -1166990.2662811799
432, -1042393.8607193332, -1317768.9836572288, -1165743.7340117812
433, -1059194.3718828447, -1296134.7005887025, -1162047.4171310696
434, -1066769.8042032926, -1327186.2000991858, -1164035.126298313
435, -1064625.2010249451, -1310779.6525488675, -1163818.4507282223
436, -1071683.7995343145, -1359346.8862689466, -1170556.7021147145
437, -1059346.0602783586, -1290557.5043146473, -1172730.1233661335
438, -1076415.1930511394, -1286426.2122301606, -1169790.3906962904
439, -1073450.5868881654, -1290800.6882867261, -1179369.7190136171
440, -1088097.9066723047, -1312338.2162147062, -1182950.7187577316
441, -1092235.1657879215, -1334748.0344987398, -1188529.65000009
442, -1096041.6587127936, -1290134.617620419, -1189458.940136985
443, -1082355.5149920555, -1303822.139981153, -1193708.398996265
444, -1101516.5700166437, -1289603.4824114155, -1194815.1539327297
445, -1082390.803409105, -1317747.316038879, -1195558.6039225408
446, -1108406.7262777796, -1336226.968074248, -1201408.938918046
447, -1107533.214057681, -1298775.8111402262, -1204527.583384167
448, -1102412.2618732045, -1331589.116955855, -1203739.662558865
449, -1109085.8942339504, -1318495.965917297, -1207760.7479369375
450, -1096887.7845729475, -1335066.5740650697, -1216208.2960979743
451, -1119423.3977237493, -1352657.4006574778, -1219465.4708778744
452, -1109203.324047321, -1366745.2953215395, -1226843.666845219
453, -1139949.793633965, -1362231.1407771767, -1229856.4918189063
454, -1098055.8793492615, -1352820.5328183249, -1232897.6060394717
455, -1110742.271448289, -1357273.1600701371, -1236161.6559047285
456, -1110192.8428614633, -1375823.49932409, -1239152.286039513
457, -1134636.1464474923, -1392333.373721436, -1230082.9748570733
458, -1136043.2750564478, -1364959.4490953384, -1228048.5615858536
459, -1125469.4432964316, -1341763.5886413637, -1231443.2460205425
460, -1120890.092881457, -1357262.0778500135, -1234433.5395858893
461, -1119842.849464899, -1384214.7556405906, -1234729.1902206151
462, -1132021.7624663482, -1352072.5002463344, -1233458.1873324246
463, -1119459.6061087234, -1368029.8038666325, -1234604.7319634734
464, -1145939.5091462699, -1441804.4790080031, -1236928.243281309
465, -1132694.8293364255, -1500093.2331871456, -1240920.6354204412
466, -1129629.290519012, -1410209.5954857834, -1241224.0062376873
467, -1120534.397389119, -1383173.7905308525, -1247746.3264037427
468, -1116334.9882581716, -1401614.7354716132, -1251072.187121135
469, -1148669.0785674702, -1387553.010361866, -1246618.0379806184
470, -1111863.3128707274, -1380111.576755789, -1246042.20718947
471, -1147849.817982411, -1358134.0508460326, -1244029.2363043032
472, -1144706.195022524, -1398344.5344418362, -1254733.471778773
473, -1145260.45396322, -1408416.042553343, -1260217.035542942
474, -1160520.4043699773, -1443311.0220914395, -1263480.721820227
475, -1159864.2871595563, -1414559.9252942163, -1269588.7446206936
476, -1168030.5729540482, -1396960.0964242967, -1268090.4199849037
477, -1175994.7422083914, -1397609.5405523058, -1273312.2367449317
478, -1151523.3652491572, -1398529.7642739364, -1275826.3161874718
479, -1162251.8062084496, -1448845.2845289693, -1275965.2690327708
480, -1158127.2598515574, -1423733.4783562396, -1266941.1962097052
481, -1134993.7842697254, -1439623.8485447746, -1262308.2972629764
482, -1152034.4999085064, -1403327.5994520476, -1265149.2943471363
483, -1143948.8100163776, -1362899.7078383472, -1253741.7240380384
484, -1174768.751635679, -1387579.4755209624, -1261926.1532318955
485, -1154058.0056823231, -1387574.6953855471, -1263103.583889775
486, -1163269.3801140026, -1408003.56289083, -1262983.9741304994
487, -1149865.449536089, -1413273.2743003075, -1265806.9772095785
488, -1168318.5438611808, -1403399.2693989023, -1269731.0134239527
489, -1176531.7963257087, -1382782.3502884014, -1271315.7126572863
490, -1162629.817350839, -1406861.3948943035, -1275822.4541606961
491, -1165805.8183837095, -1401211.1120310007, -1270619.7394423252
492, -1150206.8095808418, -1412389.1699907952, -1249853.1798919796
493, -1149508.5165674477, -1389751.739609738, -1248556.526547597
494, -1158890.1722020425, -1393789.6300995962, -1241445.7240040149
495, -1149565.4139516798, -1416951.3420691947, -1241385.883774917
496, -1152766.4019732159, -1404923.6344212675, -1240554.9465042618
497, -1142802.6868745654, -1364455.7254793714, -1238414.0886818008
498, -1154983.8927113207, -1343208.7447889405, -1241848.0532574337
499, -1127603.7403137467, -1364000.6427124226, -1241908.8850308189
