0, -5048980.929894264, -6159455.275203257, -5631056.310913635
1, -4972917.688523389, -6089397.681347479, -5538741.840606994
2, -4840552.11936408, -5930202.207752767, -5431521.849325019
3, -4676425.6810181625, -6024267.3521575285, -5332658.317431375
4, -4736155.001760028, -6012276.243607943, -5271772.282585567
5, -4559610.589312884, -5785461.604920915, -5185917.779737032
6, -4516089.466928537, -5845056.681901576, -5134351.091907019
7, -4470669.332073186, -5762633.218729609, -5096996.3041770365
8, -4454509.424004388, -5777748.091203869, -5033877.742491883
9, -4399365.651720821, -5475702.088898989, -4903088.647932504
10, -4406890.102336363, -5376906.087282187, -4768126.510592461
11, -4250706.587692769, -5150966.725224055, -4712420.449441951
12, -4321583.533059648, -5145382.761678457, -4670860.556883386
13, -4204205.432853598, -5060823.893086513, -4632311.255715353
14, -4183044.909069266, -5136334.929980235, -4600411.800407349
15, -4053293.726930773, -5125721.511362746, -4558041.984710173
16, -4124353.336253711, -4991541.587425621, -4513911.780546808
17, -4050109.5987417893, -5296889.012924622, -4480858.307127705
18, -4065537.985326131, -4999808.34854912, -4441729.73272861
19, -4048130.534271447, -5040265.594935307, -4400831.529098368
20, -4031847.5655540116, -4905744.556074251, -4331680.39302271
21, -3933508.5996489087, -4772631.349024946, -4304748.239811266
22, -3973556.893018768, -4812125.576068982, -4245790.1444064705
23, -3985753.330831263, -4642800.202920868, -4239818.093645816
24, -3962587.3852196056, -4764257.512694485, -4198210.981948448
25, -3931590.128806943, -4694967.739798594, -4183398.332294118
26, -3860442.7072851025, -4563985.6188381165, -4170399.571899368
27, -3824917.9696000097, -4723965.948870113, -4150440.603352642
28, -3770924.938195499, -4602630.516126745, -4102023.515329309
29, -3731718.9024903467, -4570175.053765296, -4094646.9533340684
30, -3770595.169129154, -4574926.420402549, -4083495.2702852576
31, -3776021.248242354, -4509483.472088203, -4070437.8047864684
32, -3763082.607828079, -4590731.456139627, -4068811.171867775
33, -3726286.3963121506, -4476149.929434668, -4054464.6328481054
34, -3729605.0400376506, -4629142.160290474, -4035863.3655045563
35, -3708877.9252081937, -4478074.5880673835, -3994888.051486777
36, -3680264.632249416, -4431325.914109503, -3994875.7355735814
37, -3651243.6353194765, -4475378.437245301, -4005924.952839946
38, -3603264.8275308586, -4374192.029614578, -3975309.491187434
39, -3627130.3778222995, -4429886.779465122, -3949882.933734695
40, -3627885.6127385646, -4556507.86537398, -3936645.7535769218
41, -3651820.7834101347, -4338299.082645802, -3943534.2857556953
42, -3618882.8104749857, -4427370.5975430515, -3941909.7448401977
43, -3595253.310047883, -4583961.146790939, -3931930.4901164006
44, -3516724.685093302, -4552008.40650906, -3918791.8054358694
45, -3574167.4026431004, -4469988.519465827, -3909085.729523886
46, -3554767.772446257, -4442818.224167516, -3900368.2563714786
47, -3546126.072959421, -4344113.983882, -3862351.02744254
48, -3549388.191845174, -4573440.22853892, -3870391.123058999
49, -3572096.3922132594, -4413279.463989342, -3874079.605599279
50, -3576796.2088756445, -4478294.912656515, -3874955.0031984737
51, -3528291.9967488507, -4767312.5050127525, -3883455.132755621
52, -3523494.789013303, -4536117.557651277, -3865270.733462046
53, -3514527.6936486512, -4330290.453509784, -3875895.1687695333
54, -3540334.600735822, -4569758.011543094, -3901091.508477218
55, -3517360.0297679226, -4566884.516273292, -3929847.9993627635
56, -3513674.2983180955, -4465716.469357989, -3898078.070680659
57, -3552761.033993312, -4480326.067776368, -3910163.3746246817
58, -3491510.0604222803, -4428989.588905691, -3876515.817983441
59, -3589072.167379261, -4655225.076794045, -3891906.262195715
60, -3525210.3263937943, -4394439.77204671, -3875457.592557676
61, -3536078.534263593, -4434958.518459001, -3872739.979619084
62, -3537120.271344912, -4311329.25635861, -3866312.5697691278
63, -3548888.860294577, -4373706.942271924, -3868694.655070073
64, -3566418.568286599, -4344718.057732969, -3845824.3891839003
65, -3464706.932862048, -4276525.222196148, -3825052.064308565
66, -3470945.693456328, -4233301.091215905, -3812145.404369236
67, -3457445.463865355, -4366646.342926289, -3816416.9243891044
68, -3457968.0481787915, -4222105.856884917, -3782299.475935253
69, -3492189.86635463, -4512433.556214607, -3779049.6967328135
70, -3440905.5177252595, -4219065.861706548, -3772962.4171070834
71, -3429780.368244521, -4203885.616499243, -3776137.3088734816
72, -3440917.6068319734, -4315003.904122628, -3789477.6116274702
73, -3454377.0782704013, -4272399.627234408, -3788721.058023938
74, -3471793.0386184743, -4369790.484237261, -3798705.1406795434
75, -3406420.3046707963, -4347502.874344458, -3800779.7155420296
76, -3461057.8053619987, -4420637.351727997, -3824634.2228388893
77, -3489823.3659316767, -4359861.166968915, -3810247.5168546517
78, -3419504.659390023, -4337141.23528701, -3826998.9347845744
79, -3408914.70788128, -4439450.103900961, -3821681.6193939843
80, -3408313.2696832884, -4405535.386127135, -3806258.869024078
81, -3450491.802453101, -4466220.400714633, -3840562.098904828
82, -3376395.700390591, -4478471.262084844, -3814821.4177668495
83, -3440743.2420083154, -4389777.114709454, -3782594.233442528
84, -3496489.3776685777, -4368802.383737898, -3780856.2598406263
85, -3479988.3310696576, -4292690.550293337, -3772892.5812669443
86, -3378137.769677669, -4159565.1314346204, -3783929.3994182786
87, -3407847.620929705, -4161239.0679476745, -3782357.412240128
88, -3485063.2891975045, -4321635.072666789, -3794772.604080516
89, -3485841.6245283717, -4539825.558242287, -3804722.288336581
90, -3491553.724550246, -4332924.508319647, -3809038.746875144
91, -3484788.590550316, -4300446.919572743, -3783789.908263253
92, -3447160.89650079, -4369200.082433114, -3768212.34614618
93, -3434664.461893659, -4467448.490327506, -3771936.288830729
94, -3428468.514427242, -4352885.04375414, -3780436.132308196
95, -3456163.9211040214, -4271284.043337905, -3793332.6151059633
96, -3448775.427694973, -4183134.135529912, -3783459.5549391494
97, -3501173.0950329946, -4403046.730088167, -3817421.4142487
98, -3407332.9402003326, -4503707.990565322, -3837773.4728458696
99, -3402418.5923418836, -4324852.744665393, -3802163.004910244
100, -3394732.020894957, -4538817.395310442, -3809075.120016463
101, -3379368.8032034, -4420944.434648701, -3801631.5460914983
102, -3410663.9277024106, -4457572.914463429, -3775831.061522875
103, -3412976.606805665, -4491680.176260746, -3793316.8222344946
104, -3425885.34885948, -4413917.025837943, -3764546.8388873134
105, -3383862.1620693337, -4565780.742736979, -3747543.6052089985
106, -3394600.8325196803, -4382299.6554491315, -3747012.7963696327
107, -3425150.4067573794, -4196005.5256868545, -3735721.2417949326
108, -3336985.4375054883, -4318802.289079832, -3735023.2214320526
109, -3397364.6677142456, -4301701.908956506, -3717100.24825133
110, -3384239.8628722546, -4229542.867621836, -3721975.3039711984
111, -3358895.0649589356, -4498384.659554081, -3731279.366127978
112, -3398585.2842625845, -4392343.082665446, -3759189.8392433445
113, -3375254.7445989484, -4335194.767937783, -3734725.8070626687
114, -3370119.141728502, -4305027.932792843, -3730282.5449027414
115, -3399800.864279065, -4359182.54023682, -3738848.276004832
116, -3299652.976238473, -4361668.98641621, -3765543.232158044
117, -3302992.8185568955, -4343055.970742042, -3774450.159370864
118, -3271208.554955527, -4381747.473326247, -3738987.5570333526
119, -3271129.3590771193, -4271668.858239308, -3725242.633916375
120, -3338038.124073963, -4155079.971729216, -3698996.9459058
121, -3325462.6871117842, -4241321.833299745, -3682627.8453704165
122, -3327474.473470253, -4272350.686329454, -3664725.3870090265
123, -3345151.3874746724, -4139521.3249036055, -3646298.5014392384
124, -3344676.057126862, -4247915.300741567, -3637911.8792461976
125, -3209565.5105819623, -4194839.191070798, -3619225.3964470336
126, -3307163.6460495316, -4252295.853276886, -3634895.638763011
127, -3297448.725039068, -4140812.479678862, -3639464.939124607
128, -3346716.692174468, -4116395.549368143, -3638182.97644831
129, -3334089.310761581, -4087964.800514021, -3657320.9395067855
130, -3314705.154377061, -4240500.223617214, -3658380.3105097297
131, -3310537.8264642055, -4213988.2071108315, -3661235.6560590276
132, -3298759.811455566, -4225280.776145203, -3635335.172242738
133, -3234676.7843321143, -4230055.070587697, -3621334.1975046387
134, -3257022.236738398, -4121702.276381897, -3618294.5979946516
135, -3261347.7923702807, -4115146.323021124, -3608634.1751675657
136, -3253636.2724737036, -4027900.3558830786, -3564618.641697013
137, -3180297.523977412, -3983083.438491985, -3542477.960887029
138, -3256326.0315925246, -4003527.335086792, -3510330.4384737317
139, -3191682.1080368347, -3835012.28762448, -3491634.90061435
140, -3124635.0107369106, -3934972.6341586756, -3507725.2033745917
141, -3182833.1950340127, -3973800.4087318694, -3486229.576992447
142, -3186861.489835816, -4116773.986585833, -3469719.9239249174
143, -3150920.841393208, -3835015.0707140714, -3440426.352436424
144, -3144841.655507286, -3916603.536986949, -3437881.9089498464
145, -3162014.41706779, -4177782.0047485884, -3444345.7711966746
146, -3139110.7369543402, -3813976.8515414945, -3420653.8774460657
147, -3109755.33627586, -3791359.952328767, -3415585.178849604
148, -3123271.139583485, -3932308.4796691444, -3439503.594027844
149, -3168011.881200968, -3996078.4236196782, -3457886.6178929815
150, -3157074.0463155485, -4066697.551948618, -3453207.8363204817
151, -3118659.039311162, -3985306.0433593383, -3450094.360749697
152, -3086776.0195557773, -3976701.997162802, -3456983.0682739895
153, -3104394.855947766, -3869791.8311429713, -3448496.840403329
154, -3133465.834831168, -3890374.129936659, -3439118.5389995794
155, -3124849.44090409, -3944289.865971218, -3439299.895567473
156, -3179729.0991635816, -4096513.707843476, -3440508.979339451
157, -3142568.0223624073, -3905796.0190381035, -3473090.700433522
158, -3208561.6082262066, -3994624.3935898123, -3482330.7166959937
159, -3143572.469368526, -4110863.7753015514, -3511397.4088342525
160, -3159564.3117971974, -4089777.4986536577, -3498147.16068732
161, -3144210.8658106234, -3982580.36609366, -3485412.152992148
162, -3119040.2550123623, -4043585.318621753, -3491460.4655558015
163, -3136832.3481806326, -4145895.44369548, -3511600.5477954135
164, -3096463.7165084854, -3907138.577893354, -3491151.729041362
165, -3137192.3312986125, -3852818.6978734275, -3453950.9740430997
166, -3140227.0412143813, -4055499.380003157, -3436991.9529868965
167, -3138600.4576209225, -3879599.6295449734, -3423422.201902322
168, -3129203.8328703796, -3975333.3322276277, -3467838.7109266184
169, -3138003.3218905167, -4035145.183368506, -3465468.7521441383
170, -3148741.5437974865, -4033266.09623101, -3474659.715733551
171, -3184516.5014847745, -4033562.3904434545, -3478183.924045669
172, -3197992.4570885305, -3946702.368212145, -3479780.006400178
173, -3179285.9175674673, -4078140.527730694, -3508523.868402479
174, -3136135.4630245147, -4048193.338813748, -3547291.4065416176
175, -3131379.5783544513, -4104009.3890766306, -3561284.4290788583
176, -3183456.951061002, -4086156.7880647006, -3573076.5899102543
177, -3189357.7521761297, -4129062.2876418233, -3619103.2570457943
178, -3253121.1634149305, -4298188.968668853, -3638754.53198609
179, -3252055.2720670234, -4616167.966174686, -3624961.646204609
180, -3082321.556723514, -4214440.574076177, -3633784.7338410253
181, -3113351.793720581, -4225907.640317728, -3665355.544989913
182, -3201566.8934687446, -4374175.596615756, -3662629.014648
183, -3121463.250801247, -4323012.419305577, -3685461.775771836
184, -3256018.969835345, -4205349.459201336, -3690708.9549153764
185, -3245555.985330876, -4238216.5309864255, -3694945.214581958
186, -3269409.5255717533, -4258345.811498106, -3669029.1683900813
187, -3218541.9038927667, -4305962.7780484455, -3619814.3874568995
188, -3159455.2587802857, -4447611.94705299, -3546689.8657180336
189, -3154616.221439673, -3971548.6983111454, -3497966.348248622
190, -3093031.6944008605, -3828771.5135001456, -3476594.891581677
191, -3110612.9677417134, -3839048.707090431, -3454507.673823132
192, -3191233.5646168618, -3974275.477645768, -3464786.0658488357
193, -3160156.260818012, -4060927.7716131695, -3454771.1750017744
194, -3148526.0910257627, -3907719.804789055, -3451743.5591999055
195, -3113312.4604589897, -4004582.6365308, -3448726.117309016
196, -3002652.283799218, -3847349.134112019, -3447343.7849439518
197, -3078133.6779527096, -3888920.216930503, -3463894.7592899497
198, -3151123.5642949524, -3978129.434872686, -3476626.926860793
199, -3171367.0421062643, -3888089.4271768685, -3476921.044652113
200, -3121613.9325362043, -4058938.734696729, -3487327.9378385134
201, -3144657.297193548, -4006324.0634894166, -3508735.641924519
202, -3071578.1194489193, -4112430.963734313, -3502907.164509243
203, -3162737.0626509273, -4280282.951275861, -3489953.9910171637
204, -3121611.5227384986, -3884739.730598326, -3458291.293715748
205, -3092344.3350248463, -3978451.4148696447, -3424284.159137836
206, -3097412.056667991, -3886342.5660993503, -3401238.7348819454
207, -3118545.2071721214, -3888652.846120077, -3395422.6467069224
208, -3100901.024495916, -3955651.0532275513, -3392575.894142371
209, -3118980.978656115, -3912613.4864215488, -3409239.0303482045
210, -3161760.9938332527, -3864769.123720452, -3405728.777186819
211, -3171327.5172154023, -3878724.1888689213, -3440449.73420641
212, -3089639.349843086, -4092599.658314271, -3463499.7363802856
213, -3175985.8313756357, -3847621.2246716013, -3470202.7995876465
214, -3188469.2339900974, -3916691.235591853, -3488365.290694952
215, -3164577.2638490493, -4114016.8123925505, -3510535.8188283234
216, -3183774.3341933414, -4135162.9701480297, -3537274.4861755865
217, -3148335.5186648136, -4001030.293764362, -3520546.1685934886
218, -3070130.2945163827, -4000129.1983314715, -3558320.335070832
219, -3158212.9677462224, -4047066.286817055, -3568337.1133717326
220, -3164890.2529534223, -4257299.135967784, -3555052.188344255
221, -3185504.6279803035, -4260660.0422171075, -3535137.663611234
222, -3194720.730016083, -4213085.790636331, -3558970.7234412003
223, -3229030.428583384, -4045087.9986718027, -3544602.264869112
224, -3207482.1122618243, -4087744.925012393, -3553735.1790004815
225, -3239584.7796487603, -4237747.273897601, -3601870.889051221
226, -3254612.4266683664, -4046187.697269139, -3606208.3409539107
227, -3215616.145671337, -4073184.170388558, -3625138.7787391404
228, -3217966.890839772, -4245283.6391794775, -3640902.398542174
229, -3280831.8684222572, -4254764.656874727, -3657378.530200021
230, -3320846.5553055126, -4237885.939560224, -3688955.267142923
231, -3341762.6641907264, -4343906.94768719, -3737863.298504226
232, -3316455.8110804185, -4288363.995125186, -3751665.6822653133
233, -3337527.685339072, -4299644.004812448, -3775834.795501698
234, -3229038.278732069, -4375651.7055808045, -3814304.0096307253
235, -3295481.4517563875, -4634396.698512217, -3809956.2358957506
236, -3260138.881482351, -4346278.008955775, -3819413.686203002
237, -3304753.265843049, -4672048.363557704, -3816345.2991919997
238, -3307197.299964442, -4522071.214403927, -3784109.135494933
239, -3315915.3080597986, -4335502.868477533, -3740730.8478887877
240, -3317089.4566255836, -4288191.004527176, -3714280.3121472867
241, -3243987.3985445513, -4221250.806591589, -3708657.4210411976
242, -3313191.9325954737, -4184718.696235203, -3685569.264014286
243, -3291224.0337349344, -4252711.141979872, -3660836.9961264273
244, -3222098.8971381197, -4320511.160330624, -3641955.632045883
245, -3206018.3220021194, -4153367.188714955, -3622487.0638144054
246, -3179015.898669848, -4129342.394760426, -3589667.3761561606
247, -3236132.84767103, -4000024.2572164545, -3560227.522136285
248, -3134796.987516543, -4183554.7786677787, -3540433.599521151
249, -3187341.7089764583, -3982283.904087957, -3551845.385044674
250, -3196426.0133532104, -3923792.0787931187, -3532342.1625093278
251, -3212742.4774895185, -3966135.836906013, -3522496.8267758857
252, -3124414.5936535727, -3971792.6581235016, -3519610.687484393
253, -3141527.120489446, -4103229.595904004, -3530618.696948258
254, -3182987.3062306205, -4048411.1171616167, -3534411.5702675404
255, -3205433.87645756, -4050093.562938612, -3550748.4283899823
256, -3209794.8553024954, -4121695.432377956, -3565358.972853425
257, -3218402.755387, -4182190.936311664, -3590217.687655984
258, -3281170.9358071433, -4241303.609878891, -3616756.468966036
259, -3251073.097397698, -4341236.899834175, -3622576.400239994
260, -3244711.907232005, -4185121.5519365473, -3644530.7707735286
261, -3208327.3350409954, -4207023.046817843, -3661806.329336834
262, -3262716.7860812712, -4461007.993754865, -3674128.347048752
263, -3334997.9793782546, -4498537.118470262, -3718846.848340786
264, -3316680.245264108, -4616161.323298523, -3691734.412897055
265, -3278409.5999679724, -4425866.3009344665, -3698617.453628673
266, -3267511.7268515024, -4475631.14980268, -3651922.8850562084
267, -3229918.990222636, -4127835.6287010936, -3617447.0318663744
268, -3294581.9558061226, -4348517.496991896, -3620691.9636104903
269, -3276878.9448542222, -4185137.3953992333, -3647050.917644375
270, -3264258.8896051245, -4089277.852846098, -3648729.8662230647
271, -3271405.087343607, -4125490.2344749784, -3633853.220654973
272, -3241819.1558917277, -4280166.62043825, -3623986.574925448
273, -3225429.1883279514, -4243664.2094168365, -3630061.2563022193
274, -3228945.7901619603, -4229912.431424804, -3624249.2033431325
275, -3244579.742277814, -4302475.9257487375, -3635113.646674732
276, -3253753.8038833067, -4348648.357005452, -3622474.6773476936
277, -3236521.8032252244, -4394627.445955547, -3634029.512651024
278, -3281376.0693882382, -4192923.543845089, -3645526.041580322
279, -3212226.0663328012, -4238992.01431536, -3651851.0256061647
280, -3208541.405768377, -4294920.11865961, -3666665.4963775137
281, -3239681.1007767017, -4103461.07262367, -3645996.0584557126
282, -3304191.911369291, -4399681.400644765, -3666465.5148273744
283, -3301259.6344010686, -4231966.089930549, -3649047.272689475
284, -3292768.6428532926, -4360139.324449179, -3639679.0626333943
285, -3334833.94999356, -4333712.674065903, -3646672.617427219
286, -3177779.7052491354, -4280047.88500802, -3653824.2731810724
287, -3311573.7712429613, -4379719.631465826, -3654231.08036937
288, -3293444.2794052092, -4316131.797541246, -3664729.396619424
289, -3303150.4647773867, -4544080.626219178, -3639365.725655068
290, -3282721.7441921113, -4208467.12646689, -3628715.97402682
291, -3279019.8894928265, -4322218.025445166, -3662822.922678736
292, -3269741.5041896263, -4289260.782163523, -3656692.9149927683
293, -3299334.6758306376, -4195584.447756084, -3657440.6101630246
294, -3240679.0931430254, -4326665.2365789795, -3681018.2245490486
295, -3292799.9599425583, -4377701.056139982, -3678173.183097126
296, -3356173.5571960653, -4284041.6958961915, -3681542.295059387
297, -3317438.5258071832, -4304324.015621674, -3696530.0664491183
298, -3257808.9078134475, -4407102.66884616, -3723385.934393134
299, -3342127.5227046786, -4453719.376414521, -3746213.4850141928
300, -3286469.0079604182, -4329884.712838447, -3768115.8325786437
301, -3371231.5143822576, -4503938.093623471, -3800052.810223829
302, -3357430.4058592827, -4613101.124776136, -3773213.3916432746
303, -3382656.419365132, -4661819.639294241, -3790632.4769718884
304, -3439071.4219220798, -4476823.590324031, -3804783.859393665
305, -3364065.657539167, -4497157.6977876965, -3802954.3350492353
306, -3291646.287378295, -4598122.425998205, -3830549.707174612
307, -3392658.6485173632, -4444005.970377512, -3835424.8220904246
308, -3390717.45229893, -4898709.270328081, -3849791.769666691
309, -3444555.2968886923, -4460844.924551315, -3880606.7059779777
310, -3448949.0645357207, -4780423.062732878, -3916090.0496403454
311, -3383227.949506231, -4556148.763054627, -3910760.804424445
312, -3430720.7227039, -4693072.929852695, -3935572.641412315
313, -3469767.5756659457, -4603296.318881309, -3943489.2614084026
314, -3363543.161296399, -4540831.679376657, -3946608.6677120267
315, -3278522.0038273046, -4654373.815697516, -3964457.481902745
316, -3388249.5181860533, -4741195.130553808, -3984074.6393131833
317, -3462881.8221473824, -4705332.0351487445, -3998063.673489039
318, -3477800.057379556, -4984186.900273126, -3960037.7806175994
319, -3510803.4966527037, -4732779.18435125, -3971562.9320592564
320, -3579301.7834182046, -4547917.299728489, -3956361.4355822755
321, -3495803.121728743, -4914637.00799411, -3934286.8204390067
322, -3533727.178606581, -4684211.916395343, -3958132.5207253965
323, -3498263.2665962656, -4864137.09383744, -3982642.509548523
324, -3527433.235519347, -4584809.709484831, -3980196.191875291
325, -3450160.9513691477, -4637298.685924462, -4019269.414027593
326, -3418323.6436536326, -4552904.508617695, -4011215.639185111
327, -3578702.619255338, -4658444.16963212, -4030933.0153984516
328, -3311081.2181086177, -4922825.102367158, -4038592.073626354
329, -3608931.3289642725, -4845658.124787759, -4051198.571800887
330, -3578785.139441017, -4882327.922555867, -4083965.1440992896
331, -3639192.262800154, -4669046.971172241, -4090918.85209047
332, -3614169.2522049043, -4895657.047521104, -4061675.152128913
333, -3629308.275630106, -4815963.269830891, -4104413.871889929
334, -3677234.843109746, -4701447.594581689, -4092659.6160140024
335, -3649115.4190560617, -4745976.013001741, -4095887.750208809
336, -3655319.778499766, -4771906.589683799, -4079585.9280700767
337, -3542038.591828634, -4779067.20249054, -4088751.3507559453
338, -3573602.1740175607, -4769752.916840294, -4085825.0903274897
339, -3650227.2937435876, -4727662.030233506, -4056003.4930812065
340, -3638368.3530593007, -4662125.972955282, -4052349.9421650255
341, -3545815.879028159, -4763202.7965413565, -4038230.589210877
342, -3640522.5421741307, -4590179.162305475, -4009012.281759926
343, -3684936.919355553, -4688683.2989046285, -3990617.571571533
344, -3647898.763873874, -4418977.498163204, -3993003.5420568665
345, -3658446.3159872214, -4590803.4764647195, -3997548.569673703
346, -3528668.6830785926, -4384043.914118731, -3981995.058834461
347, -3596862.364980491, -4612022.080109991, -4003350.3741100053
348, -3526552.0544138327, -4507725.43055069, -3973854.7132612113
349, -3550011.46634715, -4599476.174188889, -3961412.666600298
350, -3551226.5109032285, -4564821.047518127, -3922652.7096922747
351, -3505564.7534765773, -4426293.031371834, -3891455.656924345
352, -3500824.7710670712, -4596116.71102871, -3905867.1941646556
353, -3482560.384811206, -4426855.039649784, -3895024.791169085
354, -3521888.124056352, -4378084.112843152, -3882504.5855868985
355, -3470640.1619510204, -4424157.882146986, -3877856.6616561785
356, -3436397.6448887778, -4478584.894014389, -3875905.051163632
357, -3464645.035916793, -4656419.550705146, -3875113.18455865
358, -3414344.1750884685, -4404335.476510101, -3880011.444257869
359, -3440013.8679189137, -4454726.754791069, -3875250.147887603
360, -3396859.439058506, -4394264.382118275, -3861778.6180020105
361, -3375619.7864188147, -4481721.991830852, -3835371.026489026
362, -3404660.2349393014, -4397924.158759752, -3786805.4641281157
363, -3359957.6028472395, -4313492.349854738, -3677763.2731110705
364, -3391533.01914027, -4162752.1718416475, -3634489.2981030894
365, -3289519.2220782205, -4028233.2141668405, -3630467.271880746
366, -3358949.4945234233, -4055244.5370676788, -3629254.437285243
367, -3337010.8378776833, -4012336.8184552956, -3641930.902814451
368, -3322853.1984095154, -4067889.682574683, -3629770.895701577
369, -3263704.688000533, -4078986.5084768413, -3634926.497556284
370, -3280772.9858539393, -4131577.0819849195, -3648149.1914976942
371, -3315735.019995359, -4280072.585927654, -3651593.1595846233
372, -3314508.5369170154, -4243997.418274138, -3654477.6970508355
373, -3332014.294908052, -4265727.079147402, -3654565.3217704054
374, -3296966.5689005596, -4178097.518918751, -3660994.3801751654
375, -3195263.3221313786, -4300069.4852295155, -3666905.8321035253
376, -3196010.9648934472, -4298372.147731668, -3656637.364806127
377, -3288736.9254714972, -4171688.6823909665, -3654183.78979697
378, -3287145.399711355, -4256620.420579754, -3670552.9620789043
379, -3309538.3958690325, -4225626.217129356, -3646162.3186108056
380, -3318910.3542421428, -4271864.502445449, -3633007.154768834
381, -3280346.0950939297, -4055259.0381216435, -3615900.7002685517
382, -3251534.736758289, -4054106.562560606, -3592252.333335173
383, -3272598.5499252127, -4238530.034681322, -3599415.4068376333
384, -3231114.504447937, -4543381.387155421, -3601074.930423608
385, -3291752.6844527996, -4077603.8139980417, -3624050.222169675
386, -3199800.4304285483, -4340047.951547835, -3637310.609218857
387, -3215168.37273306, -4122007.4610960903, -3639284.445550693
388, -3186645.9399803183, -4177463.420224876, -3648676.4377930183
389, -3223971.1462492505, -4325655.247043834, -3646056.498494594
390, -3186161.331237192, -4208106.260954074, -3628833.44159601
391, -3260125.5539405174, -4085088.908648139, -3624897.916989349
392, -3193224.189439604, -4270816.66579183, -3612011.102397672
393, -3133174.905926612, -4248119.983664912, -3585922.116984661
394, -3143584.225914554, -4109476.542851977, -3579873.676339025
395, -3252980.5488076536, -4005779.269078912, -3598620.4523849674
396, -3246553.6557906587, -4237812.307541231, -3602834.6433956316
397, -3224661.3093595225, -4237571.197281252, -3572362.322405948
398, -3218248.1404454666, -4118939.491160578, -3561252.9243148975
399, -3275692.5046130386, -3948614.8141355645, -3540697.8140424164
400, -3208374.029413737, -4092944.562297825, -3575520.0335371695
401, -3206727.390005899, -4082272.22324361, -3579950.0271302178
402, -3195623.7564270566, -4081142.757508885, -3584760.6956149004
403, -3247686.891415342, -4269132.817440901, -3607363.0751760467
404, -3239468.9160364945, -4226462.686245921, -3612044.062945738
405, -3300248.102070129, -4163801.578285709, -3638024.317581018
406, -3292464.9776808103, -4389172.228808957, -3656583.213410103
407, -3241365.429229022, -4273190.671457324, -3673461.589793617
408, -3238560.8518104325, -4335057.310026698, -3692485.2079270766
409, -3278164.096428401, -4331063.9532756815, -3686163.796284305
410, -3281281.04502049, -4389035.55008799, -3678847.685975805
411, -3291371.4495595396, -4317423.6549131535, -3636402.4592431146
412, -3266400.96840349, -4248330.907011408, -3581390.1198869618
413, -3177056.0421110564, -4033280.3199828593, -3547102.8655486344
414, -3159289.725878659, -3912152.451746147, -3517878.0056953197
415, -3161729.5068733487, -3951076.8062983174, -3503082.787919282
416, -3132802.6024458203, -3855380.877579948, -3487098.335104787
417, -3201366.163774244, -4022679.562450424, -3498592.8696288597
418, -3206318.354857857, -3999386.358211114, -3523173.0896220156
419, -3234171.919333869, -4024820.379434227, -3529000.836897028
420, -3233503.527468115, -3980016.209303854, -3544361.6475549173
421, -3233194.012783091, -3962521.9066662444, -3570458.8202106534
422, -3262603.5625677113, -4309782.40367299, -3599595.7202010853
423, -3280001.5137813524, -4131276.4636387313, -3620216.439310176
424, -3243527.6978188385, -4358802.219050061, -3659049.2654401837
425, -3238240.8922908558, -4369898.364088216, -3654076.35535631
426, -3277169.7919984716, -4144352.069066126, -3636574.611895078
427, -3255262.122574693, -4254142.3328273045, -3634977.8949704333
428, -3265447.1137526496, -4312126.559643144, -3594044.361379586
429, -3180781.156854782, -4159574.0717530157, -3599284.5616757954
430, -3164125.2224551407, -4255868.864358415, -3581636.896645443
431, -3110658.221078202, -3988333.296059736, -3529554.7639276017
432, -3164939.81205276, -4009542.7227149857, -3506474.342593947
433, -3174232.0210396023, -3995122.672143978, -3482612.17202547
434, -3139252.2159362533, -3801640.8955576546, -3460116.5307443268
435, -3135592.042901688, -3841556.7417834764, -3439594.0438186736
436, -3187094.21148879, -4023121.160202005, -3425441.6277126726
437, -3148655.697120524, -3940409.280864575, -3437248.926471549
438, -3138893.542112414, -4050366.394279911, -3450300.5587779847
439, -3150876.709177207, -3919870.8253575275, -3474152.411197048
440, -3137174.8678893405, -3969623.7945589367, -3489102.0423488007
441, -3157298.86889014, -4355273.890980264, -3493616.3913777852
442, -3145892.8855000963, -4074053.593827538, -3505669.458792191
443, -3200593.7525278796, -4254657.366343746, -3516993.200327304
444, -3228564.284557517, -4036194.1239652196, -3542620.3768411083
445, -3216182.7196846064, -4141167.1398508977, -3547041.124605039
446, -3211596.3039051895, -4221575.125151501, -3548504.060407002
447, -3158453.4814950023, -4192876.6087423684, -3577710.104748575
448, -3240022.1430198653, -4126960.240719096, -3584104.8274420197
449, -3205095.988468933, -4157942.3394703967, -3597353.888272671
450, -3234332.5558068347, -4322661.2026560195, -3633450.8272079458
451, -3246602.2759227394, -4447392.680563013, -3644499.583608201
452, -3266153.624301701, -4254911.301675803, -3652492.6640986055
453, -3297771.702356867, -4248815.461129429, -3696059.0466693346
454, -3318596.895510833, -4363388.196645962, -3671602.103099041
455, -3306317.4117586277, -4339209.721140064, -3677124.3302175133
456, -3239954.688354057, -4331560.9248030465, -3714959.84600921
457, -3340780.69270255, -4501130.005903628, -3736750.625733092
458, -3359297.8459980823, -4303232.9867111165, -3724049.633882227
459, -3342518.9831929123, -4414840.3478037445, -3761986.4552120315
460, -3230330.047666163, -4387534.405928262, -3755662.537057862
461, -3367207.9057002324, -4412847.48837783, -3766464.4631713717
462, -3358831.831894631, -4518061.023939879, -3786040.321046398
463, -3377479.272752483, -4524058.952747698, -3831503.3926395397
464, -3278730.5373316957, -4763574.355541015, -3819779.7105410555
465, -3282724.617654131, -4583604.321971217, -3806675.6927753636
466, -3289251.3729601433, -4405018.450025099, -3790485.4740788997
467, -3302665.566730735, -4438063.046661744, -3760110.4624619484
468, -3243882.0215745354, -4356607.3943087775, -3689284.024251589
469, -3282789.76120635, -4356429.770107632, -3627066.0941581
470, -3284647.7167320712, -3967091.4254793106, -3556166.1222616807
471, -3289469.746456658, -4032136.7453142647, -3557541.3246960365
472, -3238260.697674495, -3940394.388025161, -3546583.522940449
473, -3235720.8095522053, -3928415.8194671664, -3534098.6340712765
474, -3210063.8984485585, -3925446.8211643547, -3517204.198405354
475, -3246252.7430244633, -3936581.5253716195, -3509500.176832181
476, -3244524.6768412804, -3967880.0762435356, -3496777.0049131783
477, -3236997.314976855, -3972089.585422498, -3505059.6507606106
478, -3173401.2626461075, -3901420.0830217674, -3519155.1439509685
479, -3151363.201518799, -4212225.272258027, -3528091.2087573665
480, -3200853.1326559526, -3920701.265522917, -3528842.317780058
481, -3230308.0081517384, -4096260.040992666, -3541433.682568601
482, -3108131.666213909, -4122553.8799773017, -3560446.142242342
483, -3109211.339437554, -4095423.2942743544, -3541950.142825212
484, -3193696.817820551, -4179741.9081862783, -3528371.1240559723
485, -3103565.6699249265, -4027358.9871063745, -3512829.087241018
486, -3120080.52506039, -4225590.100874515, -3499676.908232396
487, -3153988.398249512, -4045693.541573858, -3510489.5395424026
488, -3092760.9805745007, -3949727.3885271037, -3484526.082692826
489, -3132128.0592735326, -3940414.420038523, -3500254.6590371067
490, -3110196.7857124857, -4034552.2045144113, -3452284.121296675
491, -3122338.139495285, -3898521.807436295, -3443644.5045219804
492, -3126225.459338287, -3926896.887895382, -3461517.5088891704
493, -3134574.05583608, -3915548.651996484, -3479001.491534934
494, -3168095.707071326, -3979328.8158719717, -3488399.0652592517
495, -3156650.2862712797, -4008773.25124605, -3508065.8785288273
496, -3118889.625722854, -4040604.8983507184, -3517780.8028033264
497, -3184757.364778255, -4062466.845028785, -3518792.31149596
498, -3189162.777533968, -4202058.816177517, -3515640.804378282
499, -3146044.841129143, -4086607.2106569, -3521748.2990661743
